#estate_weisuo =
#{
#	icon = 2
#
#	color = { 200 0 50 }
#
#	# Is estate kept in control of province on conquest?
#	keep_on_conquest = no
#
#	# They want to control at least this % of the country's non-overseas development, if # of home provinecs is above set amount
#	min_territory = 0
#	min_provinces_to_want_territory = 0
#	wanted_territory_modifier = {
#		desc = chinese_monarchy_2
#		trigger = {
#			OR = {
#				government = chinese_monarchy_2
#			}
#		}
#		value = 10
#	}
#	wanted_territory_modifier = {
##		desc = chinese_monarchy_3
##		trigger = {
##			OR = {
##				government = chinese_monarchy_3
##				government = chinese_monarchy
##			}
##		}
##		value = 5
#	}
#
#	# If true, country will get estate
#	trigger = {
#		estate_weisuo_trigger = yes
#	}
#
#	# If true, province can be granted to estate
#	province_trigger = {
#		always = yes
#	}
#
#	# Min autonomy in estate provinces
#	min_autonomy = 5
#
#	# Estate cancels out the following multiplicative local autonomy effects:
#
#	country_modifier_happy = {
#		land_forcelimit_modifier = 0.2
#		land_maintenance_modifier = -0.1
#		land_morale = -0.05
#	}
#	country_modifier_neutral = {
#		land_maintenance_modifier = -0.15
#		land_morale = -0.10
#	}
#	country_modifier_angry = {
#		land_forcelimit_modifier = -0.2
#		land_maintenance_modifier = 0.1
#		land_morale = -0.15
#	}
#
#	# These do not scale, but only applied in provinces owned by the estate
#	province_modifier_happy = {
#		local_defensiveness = 0.15
#		trade_goods_size_modifier = -0.05
#	}
#	province_modifier_neutral = {
#		local_manpower_modifier = 0.5
#		local_autonomy = 0.05
#		local_tax_modifier = -0.10
#		trade_goods_size_modifier = -0.05
#	}
#	province_modifier_angry = {
#		local_unrest = 5
#		local_autonomy = 0.10
#		local_tax_modifier = -0.20
#		trade_goods_size_modifier = -0.05
#	}
#
#	# Influence modifiers
#	base_influence = 60
#	influence_modifier = {
#		desc = EST_VAL_EASTERN_TECH
#		trigger = {
#			technology_group = eastern
#		}
#		influence = 5
#	}
#
#
#	# Influence modifiers from Events:
#	influence_modifier = {
#		desc = EST_VAL_GRANTED_GENERALSHIP
#		trigger = {
#			has_country_flag = granted_nobility_generalship
#			NOT = { had_country_flag = { flag = granted_nobility_generalship days = 3650 } }
#		}
#		influence = 20
#	}
#	influence_modifier = {
#		desc = EST_VAL_OTHER_ESTATE_IN_POWER
#		trigger = {
#			OR = {
#				has_disaster = estate_church_disaster
#				has_disaster = estate_burghers_disaster
#			}
#		}
#		influence = -40
#	}
#
#
#	# Loyalty modifiers
#	loyalty_modifier = {
#		desc = EST_VAL_OTHER_ESTATE_IN_POWER_LOY
#		trigger = {
#			OR = {
#				has_disaster = estate_church_disaster
#				has_disaster = estate_burghers_disaster
#			}
#		}
#		loyalty = -20
#	}
#	loyalty_modifier = {
#		desc = EST_VAL_VERY_LEGITIMATE
#		trigger = {
#			government = monarchy
#			legitimacy = 95
#		}
#		loyalty = 10
#	}
#	loyalty_modifier = {
#		desc = EST_VAL_LEGITIMATE
#		trigger = {
#			government = monarchy
#			legitimacy = 70
#			NOT = { legitimacy = 95 }
#		}
#		loyalty = 5
#	}
#	loyalty_modifier = {
#		desc = EST_VAL_NOT_LEGITIMATE
#		trigger = {
#			government = monarchy
#			NOT = { legitimacy = 50 }
#			legitimacy = 25
#		}
#		loyalty = -5
#	}
#	loyalty_modifier = {
#		desc = EST_VAL_ILLEGITIMATE
#		trigger = {
#			government = monarchy
#			NOT = { legitimacy = 25 }
#		}
#		loyalty = -10
#	}
#	loyalty_modifier = {
#		desc = EST_VAL_FULL_ARISTOCRATIC
#		trigger = {
#			full_idea_group = aristocracy_ideas
#		}
#		loyalty = 10
#	}
#
#	# Does the AI want to give any extra territory beyond the minimum?
#	ai_territory_modifier = {
#		trigger = {
#			has_idea_group = aristocracy_ideas
#			num_of_cities = 10
#		}
#		value = 5
#	}
#	ai_territory_modifier = {
#		trigger = {
#			has_idea_group = influence_ideas
#			num_of_cities = 10
#		}
#		value = 5
#	}
#
#	# For province assignment
#	ai_grant_province = {
#		factor = 1
#		modifier = {
#			factor = 0.5
#			development = 20
#		}
#		modifier = {
#			factor = 2
#			NOT = { development = 10 }
#		}
#		modifier = {
#			factor = 0.1
#			has_estate = estate_cossacks
#			has_terrain = steppe
#		}
#		modifier = {
#			factor = 0.75
#			has_owner_culture = yes
#		}
#	}
#
#	# Special interactions
#	interaction = {
#		name = "CALL_DIET"
#		icon = 1
#
#		years_between_use = 20
#
#		trigger = {
#			always = yes
#		}
#
#		effect = {
#			add_prestige = -5
#			add_estate_loyalty = {
#				estate = estate_nobles
#				loyalty = 15
#			}
#			add_estate_influence_modifier = {
#				estate = estate_nobles
#				desc = EST_VAL_DIET_HELD
#				influence = 10
#				duration = 7300
#			}
#		}
#
#		ai_will_do = {
#			factor = 1
#			modifier = {
#				factor = 0
#				estate_influence = {
#					estate = estate_nobles
#					influence = 60
#				}
#			}
#			modifier = {
#				factor = 0
#				estate_loyalty = {
#					estate = estate_nobles
#					loyalty = 30
#				}
#			}
#		}
#	}
#	interaction = {
#		name = "GRANT_GENERALSHIP"
#		icon = 5
#
#		years_between_use = 10
#
#		potential = {
#			NOT = { has_disaster = estate_church_disaster }
#			NOT = { has_disaster = estate_burghers_disaster }
#		}
#
#		trigger = {
#			estate_loyalty = {
#				estate = estate_nobles
#				loyalty = 30
#			}
#			estate_influence = {
#				estate = estate_nobles
#				influence = 40
#			}
#		}
#
#		effect = {
#			if = {
#				limit = {
#					NOT = { has_idea_group = leadership_ideas }
#				}
#				create_general = 40
#			}
#			if = {
#				limit = {
#					has_idea_group = leadership_ideas
#				}
#				create_general = 60
#			}
#			add_estate_influence_modifier = {
#				estate = estate_nobles
#				desc = EST_VAL_GRANTED_GENERALSHIP
#				influence = 20
#				duration = 3650
#			}
#		}
#
#		ai_will_do = {
#			factor = 0
#		}
#	}
#}
#