
trade_company_polynesia = {
	color = { 161 49 65 }
	
	provinces = {
		506 513 1097 1240 1243 1244 1341 2151 2527 2608 4012 4013 4014 
	}
	
	# Specific
	names = {
		name = "TRADE_COMPANY_POLYNESIA_Root_GetName"
	}
	names = {
		name = "TRADE_COMPANY_POLYNESIA_Oceania_Trade_Company"
	}
}
