name="--MEIOU and Taxes Lower Resolution Fix Module v7.00"
path="mod/MEIOUandTaxes768"
dependencies={
	"MEIOU and Taxes 2.0"
}
tags={
	"MEIOU and Taxes"
}
picture="MEIOUandTaxes768.jpg"
supported_version="1.18.*.*"

