#######################################
#########                   ###########
####       MEIOU and Taxes        #####
#########                   ###########
#######################################


###############################################
# Good
###############################################


###############################################
# Neutral/Others
###############################################

###############################################
# Bad
###############################################

weak_personality = {
	ruler_allow = {
		allow = { NOT = { adm = 3 } NOT = { dip = 3 } NOT = { mil = 3 } }
	}
	heir_allow = {
		allow = { NOT = { adm = 3 } NOT = { dip = 3 } NOT = { mil = 3 } }
	}
	consort_allow = {
		allow = { NOT = { adm = 3 } NOT = { dip = 3 } NOT = { mil = 3 } }
	}
	
	prestige = -0.10
	legitimacy = -0.10
	reduced_liberty_desire = -5
	
	nation_designer_cost = 5
}
