#Vassals of Castille
#vassal = {
#	first = CAS
#	second = GRA
#	start_date = 1356.1.1
#	end_date = 1482.12.26
#}
#
#vassal = {
#	first = CAS
#	second = GRA
#	start_date = 1483.6.25
#	end_date = 1489.1.1
#}