namespace = dg_holylands

######################
# Loss of Holy Lands # 00s and 10s
######################

#01 - The loss of Jerusalem
#02 - The loss of Rome
#03 - The loss of Constantinople
#04 - The loss of Antioch
#05 - The loss of Alexandria
#06 - The loss of Ctesiphon
#07 - The loss of Mecca
#08 - The loss of Medina
#09 - The loss of al Najaf
#10 - The loss of Balta
#11 - The loss of Amritsar
#12 - The loss of Varanasi

country_event = { #01 - The loss of Jerusalem
	
	id = dg_holylands.001
	title = dg_holylands.001.t
	desc = dg_holylands.001.d
	picture = all_refugees
	
	trigger = {
		has_country_flag = holy_land_jerusalem
		NOT = { owns_or_non_sovereign_subject_of = 379 }
		OR = {
			religion_group = jewish_group
			AND = {
				religion_group = christian
				NOT = { religion = reformed }
				NOT = { religion = protestant }
			}
			AND = {
				religion_group = muslim
				NOT = { religion = druze }
			}
		}
		piety = -0.60
	}
	
	mean_time_to_happen = { months = 3 }
	
	immediate = {
		clr_country_flag = holy_land_jerusalem
		if = { #Important to that religion
			limit = { religion_group = jewish_group }
			hidden_effect = { change_variable = { which = jerusalem value = 1 } }
		}
		if = { #Important to that nation
			limit = { 379 = { is_core = ROOT } }
			hidden_effect = { change_variable = { which = jerusalem value = 1 } }
		}
		if = { #Lost to heathens
			limit = { 379 = { owner = { NOT = { religion_group = ROOT } } } }
			hidden_effect = { change_variable = { which = jerusalem value = 1 } }
			custom_tooltip = lost_holyland_heathen
		}
		if = { #Lost to coreligionists
			limit = { 379 = { owner = { religion = ROOT } } }
			hidden_effect = { change_variable = { which = jerusalem value = -1 } }
			custom_tooltip = lost_holyland_coreligionist
		}
	}
	
	option = {
		name = dg_holylands.001.a #We have failed our task
		if = {
			limit = { check_variable = { which = jerusalem value = 2 } }
			if = {
				limit = { not_have_religious_scandal = yes }
				if = {
					limit = { piety = 0.20 }
					add_country_modifier = { name = religious_scandal_country_strong duration = 2000 }
				}
				else_if = {
					limit = { piety = -0.20 }
					add_country_modifier = { name = religious_scandal_country duration = 2000 }
				}
				else = {
					add_country_modifier = { name = religious_scandal_country_weak duration = 2000 }
				}
			}
			else = {
				if = {
					limit = { patriarch_authority = 0.80 }
					add_country_modifier = { name = unhappy_church_powerful duration = 2000 }
				}
				else_if = {
					limit = { patriarch_authority = 0.60 }
					add_country_modifier = { name = unhappy_church_strong duration = 2000 }
				}
				else_if = {
					limit = { patriarch_authority = 0.40 }
					add_country_modifier = { name = unhappy_church_moderate duration = 2000 }
				}
				else_if = {
					limit = { patriarch_authority = 0.20 }
					add_country_modifier = { name = unhappy_church_weak duration = 2000 }
				}
				else = {
					add_country_modifier = { name = unhappy_church_impotent duration = 2000 }
				}
			}
		}
		else_if = {
			limit = { is_variable_equal = { which = jerusalem value = 1 } }
			if = {
				limit = { not_have_religious_scandal = yes }
				if = {
					limit = { piety = 0.20 }
					add_country_modifier = { name = religious_scandal_country_strong duration = 1000 }
				}
				else_if = {
					limit = { piety = -0.20 }
					add_country_modifier = { name = religious_scandal_country duration = 1000 }
				}
				else = {
					add_country_modifier = { name = religious_scandal_country_weak duration = 1000 }
				}
			}
			else = {
				if = {
					limit = { patriarch_authority = 0.80 }
					add_country_modifier = { name = unhappy_church_powerful duration = 1000 }
				}
				else_if = {
					limit = { patriarch_authority = 0.60 }
					add_country_modifier = { name = unhappy_church_strong duration = 1000 }
				}
				else_if = {
					limit = { patriarch_authority = 0.40 }
					add_country_modifier = { name = unhappy_church_moderate duration = 1000 }
				}
				else_if = {
					limit = { patriarch_authority = 0.20 }
					add_country_modifier = { name = unhappy_church_weak duration = 1000 }
				}
				else = {
					add_country_modifier = { name = unhappy_church_impotent duration = 1000 }
				}
			}
		}
		else = {
			if = {
				limit = { have_religious_scandal = yes }
				if = {
					limit = { patriarch_authority = 0.80 }
					add_country_modifier = { name = unhappy_church_powerful duration = 500 }
				}
				else_if = {
					limit = { patriarch_authority = 0.60 }
					add_country_modifier = { name = unhappy_church_strong duration = 500 }
				}
				else_if = {
					limit = { patriarch_authority = 0.40 }
					add_country_modifier = { name = unhappy_church_moderate duration = 500 }
				}
				else_if = {
					limit = { patriarch_authority = 0.20 }
					add_country_modifier = { name = unhappy_church_weak duration = 500 }
				}
				else = {
					add_country_modifier = { name = unhappy_church_impotent duration = 500 }
				}
			}
			else = {
				if = {
					limit = { piety = 0.20 }
					add_country_modifier = { name = religious_scandal_country_strong duration = 500 }
				}
				else_if = {
					limit = { piety = -0.20 }
					add_country_modifier = { name = religious_scandal_country duration = 500 }
				}
				else = {
					add_country_modifier = { name = religious_scandal_country_weak duration = 500 }
				}
			}
		}
		hidden_effect = { set_variable = { which = jerusalem value = 0 } }
	}
}

country_event = { #02 - The loss of Rome
	
	id = dg_holylands.002
	title = dg_holylands.002.t
	desc = dg_holylands.001.d
	picture = all_refugees
	
	trigger = {
		has_country_flag = holy_land_rome
		NOT = { owns_rome_trigger = yes }
		OR = {
			religion = catholic
			religion = orthodox
			religion = coptic
		}
		piety = -0.60
	}
	
	mean_time_to_happen = { months = 3 }
	
	immediate = {
		clr_country_flag = holy_land_rome
		if = { #Important to that religion
			limit = { religion = catholic }
			hidden_effect = { change_variable = { which = rome value = 1 } }
		}
		if = {
			limit = {
				capital_scope = { western_europe_trigger = yes }
				OR = {
					religion = orthodox
					religion = coptic
				}
			}
			hidden_effect = { change_variable = { which = rome value = 1 } }
		}
		if = { #Important to that nation
			limit = {
				any_province = {
					province_rome_trigger = yes
					is_core = ROOT
				}
			}
			hidden_effect = { change_variable = { which = rome value = 1 } }
		}
		if = { #Lost to heathens
			limit = { rome_heathen_trigger = yes }
			hidden_effect = { change_variable = { which = rome value = 1 } }
			custom_tooltip = lost_holyland_heathen
		}
		if = { #Lost to coreligionists
			limit = { rome_coreligionist_trigger = yes }
			hidden_effect = { change_variable = { which = rome value = -1 } }
			custom_tooltip = lost_holyland_coreligionist
		}
	}
	
	option = {
		name = dg_holylands.001.a #We have failed our task
		if = {
			limit = { check_variable = { which = rome value = 2 } }
			if = {
				limit = {
					OR = {
						has_country_modifier = religious_scandal_country_strong
						has_country_modifier = religious_scandal_country
						has_country_modifier = religious_scandal_country_weak
					}
				}
				if = {
					limit = { patriarch_authority = 0.80 }
					add_country_modifier = { name = unhappy_church_powerful duration = 2000 }
				}
				else_if = {
					limit = { patriarch_authority = 0.60 }
					add_country_modifier = { name = unhappy_church_strong duration = 2000 }
				}
				else_if = {
					limit = { patriarch_authority = 0.40 }
					add_country_modifier = { name = unhappy_church_moderate duration = 2000 }
				}
				else_if = {
					limit = { patriarch_authority = 0.20 }
					add_country_modifier = { name = unhappy_church_weak duration = 2000 }
				}
				else = {
					add_country_modifier = { name = unhappy_church_impotent duration = 2000 }
				}
			}
			else = {
				if = {
					limit = { piety = 0.20 }
					add_country_modifier = { name = religious_scandal_country_strong duration = 2000 }
				}
				else_if = {
					limit = { piety = -0.20 }
					add_country_modifier = { name = religious_scandal_country duration = 2000 }
				}
				else = {
					add_country_modifier = { name = religious_scandal_country_weak duration = 2000 }
				}
			}
		}
		else_if = {
			limit = { is_variable_equal = { which = rome value = 1 } }
			if = {
				limit = {
					OR = {
						has_country_modifier = religious_scandal_country_strong
						has_country_modifier = religious_scandal_country
						has_country_modifier = religious_scandal_country_weak
					}
				}
				if = {
					limit = { patriarch_authority = 0.80 }
					add_country_modifier = { name = unhappy_church_powerful duration = 1000 }
				}
				else_if = {
					limit = { patriarch_authority = 0.60 }
					add_country_modifier = { name = unhappy_church_strong duration = 1000 }
				}
				else_if = {
					limit = { patriarch_authority = 0.40 }
					add_country_modifier = { name = unhappy_church_moderate duration = 1000 }
				}
				else_if = {
					limit = { patriarch_authority = 0.20 }
					add_country_modifier = { name = unhappy_church_weak duration = 1000 }
				}
				else = {
					add_country_modifier = { name = unhappy_church_impotent duration = 1000 }
				}
			}
			else = {
				if = {
					limit = { piety = 0.20 }
					add_country_modifier = { name = religious_scandal_country_strong duration = 1000 }
				}
				else_if = {
					limit = { piety = -0.20 }
					add_country_modifier = { name = religious_scandal_country duration = 1000 }
				}
				else = {
					add_country_modifier = { name = religious_scandal_country_weak duration = 1000 }
				}
			}
		}
		else = {
			if = {
				limit = { have_religious_scandal = yes }
				if = {
					limit = { patriarch_authority = 0.80 }
					add_country_modifier = { name = unhappy_church_powerful duration = 500 }
				}
				else_if = {
					limit = { patriarch_authority = 0.60 }
					add_country_modifier = { name = unhappy_church_strong duration = 500 }
				}
				else_if = {
					limit = { patriarch_authority = 0.40 }
					add_country_modifier = { name = unhappy_church_moderate duration = 500 }
				}
				else_if = {
					limit = { patriarch_authority = 0.20 }
					add_country_modifier = { name = unhappy_church_weak duration = 500 }
				}
				else = {
					add_country_modifier = { name = unhappy_church_impotent duration = 500 }
				}
			}
			else = {
				if = {
					limit = { piety = 0.20 }
					add_country_modifier = { name = religious_scandal_country_strong duration = 500 }
				}
				else_if = {
					limit = { piety = -0.20 }
					add_country_modifier = { name = religious_scandal_country duration = 500 }
				}
				else = {
					add_country_modifier = { name = religious_scandal_country_weak duration = 500 }
				}
			}
		}
		hidden_effect = { set_variable = { which = rome value = 0 } }
	}
}

country_event = { #03 - The loss of Constantinople
	
	id = dg_holylands.003
	title = dg_holylands.003.t
	desc = dg_holylands.001.d
	picture = all_refugees
	
	trigger = {
		has_country_flag = holy_land_constantinople
		NOT = { owns_constantinople_trigger = yes }
		religion = orthodox
		piety = -0.60
	}
	
	mean_time_to_happen = { months = 3 }
	
	immediate = {
		clr_country_flag = holy_land_constantinople
		if = { #Important to that religion
			limit = { capital_scope = { continent = europe NOT = { western_europe_trigger = yes } } }
			hidden_effect = { change_variable = { which = constantinople value = 1 } }
		}
		if = { #Important to that nation
			limit = {
				any_province = {
					province_constantinople_trigger = yes
					is_core = ROOT
				}
			}
			hidden_effect = { change_variable = { which = constantinople value = 1 } }
		}
		if = { #Lost to heathens
			limit = { constantinople_heathen_trigger = yes }
			hidden_effect = { change_variable = { which = constantinople value = 1 } }
			custom_tooltip = lost_holyland_heathen
		}
		if = { #Lost to coreligionists
			limit = { constantinople_coreligionist_trigger = yes }
			hidden_effect = { change_variable = { which = constantinople value = -1 } }
			custom_tooltip = lost_holyland_coreligionist
		}
	}
	
	option = {
		name = dg_holylands.001.a #We have failed our task
		if = {
			limit = { check_variable = { which = constantinople value = 2 } }
			if = {
				limit = {
					OR = {
						has_country_modifier = religious_scandal_country_strong
						has_country_modifier = religious_scandal_country
						has_country_modifier = religious_scandal_country_weak
					}
				}
				if = {
					limit = { patriarch_authority = 0.80 }
					add_country_modifier = { name = unhappy_church_powerful duration = 2000 }
				}
				else_if = {
					limit = { patriarch_authority = 0.60 }
					add_country_modifier = { name = unhappy_church_strong duration = 2000 }
				}
				else_if = {
					limit = { patriarch_authority = 0.40 }
					add_country_modifier = { name = unhappy_church_moderate duration = 2000 }
				}
				else_if = {
					limit = { patriarch_authority = 0.20 }
					add_country_modifier = { name = unhappy_church_weak duration = 2000 }
				}
				else = {
					add_country_modifier = { name = unhappy_church_impotent duration = 2000 }
				}
			}
			else = {
				if = {
					limit = { piety = 0.20 }
					add_country_modifier = { name = religious_scandal_country_strong duration = 2000 }
				}
				else_if = {
					limit = { piety = -0.20 }
					add_country_modifier = { name = religious_scandal_country duration = 2000 }
				}
				else = {
					add_country_modifier = { name = religious_scandal_country_weak duration = 2000 }
				}
			}
		}
		else_if = {
			limit = { is_variable_equal = { which = constantinople value = 1 } }
			if = {
				limit = {
					OR = {
						has_country_modifier = religious_scandal_country_strong
						has_country_modifier = religious_scandal_country
						has_country_modifier = religious_scandal_country_weak
					}
				}
				if = {
					limit = { patriarch_authority = 0.80 }
					add_country_modifier = { name = unhappy_church_powerful duration = 1000 }
				}
				else_if = {
					limit = { patriarch_authority = 0.60 }
					add_country_modifier = { name = unhappy_church_strong duration = 1000 }
				}
				else_if = {
					limit = { patriarch_authority = 0.40 }
					add_country_modifier = { name = unhappy_church_moderate duration = 1000 }
				}
				else_if = {
					limit = { patriarch_authority = 0.20 }
					add_country_modifier = { name = unhappy_church_weak duration = 1000 }
				}
				else = {
					add_country_modifier = { name = unhappy_church_impotent duration = 1000 }
				}
			}
			else = {
				if = {
					limit = { piety = 0.20 }
					add_country_modifier = { name = religious_scandal_country_strong duration = 1000 }
				}
				else_if = {
					limit = { piety = -0.20 }
					add_country_modifier = { name = religious_scandal_country duration = 1000 }
				}
				else = {
					add_country_modifier = { name = religious_scandal_country_weak duration = 1000 }
				}
			}
		}
		else = {
			if = {
				limit = { have_religious_scandal = yes }
				if = {
					limit = { patriarch_authority = 0.80 }
					add_country_modifier = { name = unhappy_church_powerful duration = 500 }
				}
				else_if = {
					limit = { patriarch_authority = 0.60 }
					add_country_modifier = { name = unhappy_church_strong duration = 500 }
				}
				else_if = {
					limit = { patriarch_authority = 0.40 }
					add_country_modifier = { name = unhappy_church_moderate duration = 500 }
				}
				else_if = {
					limit = { patriarch_authority = 0.20 }
					add_country_modifier = { name = unhappy_church_weak duration = 500 }
				}
				else = {
					add_country_modifier = { name = unhappy_church_impotent duration = 500 }
				}
			}
			else = {
				if = {
					limit = { piety = 0.20 }
					add_country_modifier = { name = religious_scandal_country_strong duration = 500 }
				}
				else_if = {
					limit = { piety = -0.20 }
					add_country_modifier = { name = religious_scandal_country duration = 500 }
				}
				else = {
					add_country_modifier = { name = religious_scandal_country_weak duration = 500 }
				}
			}
		}
		hidden_effect = { set_variable = { which = constantinople value = 0 } }
	}
}

country_event = { #04 - The loss of Antioch
	
	id = dg_holylands.004
	title = dg_holylands.004.t
	desc = dg_holylands.001.d
	picture = all_refugees
	
	trigger = {
		has_country_flag = holy_land_antioch
		NOT = { owns_antioch_trigger = yes }
		OR = {
			religion = orthodox
			religion = coptic
		}
		piety = -0.60
	}
	
	mean_time_to_happen = { months = 3 }
	
	immediate = {
		clr_country_flag = holy_land_antioch
		if = { #Important to that religion
			limit = {
				capital_scope = { asia_continent_trigger = yes }
				religion = orthodox
			}
			hidden_effect = { change_variable = { which = antioch value = 1 } }
		}
		if = { #Important to that religion
			limit = {
				capital_scope = { continent = europe }
				religion = coptic
			}
			hidden_effect = { change_variable = { which = antioch value = 1 } }
		}
		if = { #Important to that nation
			limit = {
				any_province = {
					province_antioch_trigger = yes
					is_core = ROOT
				}
			}
			hidden_effect = { change_variable = { which = antioch value = 1 } }
		}
		if = { #Lost to heathens
			limit = { antioch_heathen_trigger = yes }
			hidden_effect = { change_variable = { which = antioch value = 1 } }
			custom_tooltip = lost_holyland_heathen
		}
		if = { #Lost to coreligionists
			limit = { antioch_coreligionist_trigger = yes }
			hidden_effect = { change_variable = { which = antioch value = -1 } }
			custom_tooltip = lost_holyland_coreligionist
		}
	}
	
	option = {
		name = dg_holylands.001.a #We have failed our task
		if = {
			limit = { check_variable = { which = antioch value = 2 } }
			if = {
				limit = {
					OR = {
						has_country_modifier = religious_scandal_country_strong
						has_country_modifier = religious_scandal_country
						has_country_modifier = religious_scandal_country_weak
					}
				}
				if = {
					limit = { patriarch_authority = 0.80 }
					add_country_modifier = { name = unhappy_church_powerful duration = 2000 }
				}
				else_if = {
					limit = { patriarch_authority = 0.60 }
					add_country_modifier = { name = unhappy_church_strong duration = 2000 }
				}
				else_if = {
					limit = { patriarch_authority = 0.40 }
					add_country_modifier = { name = unhappy_church_moderate duration = 2000 }
				}
				else_if = {
					limit = { patriarch_authority = 0.20 }
					add_country_modifier = { name = unhappy_church_weak duration = 2000 }
				}
				else = {
					add_country_modifier = { name = unhappy_church_impotent duration = 2000 }
				}
			}
			else_if = {
				limit = { not_have_religious_scandal = yes }
				if = {
					limit = { piety = 0.20 }
					add_country_modifier = { name = religious_scandal_country_strong duration = 2000 }
				}
				else_if = {
					limit = { piety = -0.20 }
					add_country_modifier = { name = religious_scandal_country duration = 2000 }
				}
				else = {
					add_country_modifier = { name = religious_scandal_country_weak duration = 2000 }
				}
			}
		}
		else_if = {
			limit = { is_variable_equal = { which = antioch value = 1 } }
			if = {
				limit = {
					OR = {
						has_country_modifier = religious_scandal_country_strong
						has_country_modifier = religious_scandal_country
						has_country_modifier = religious_scandal_country_weak
					}
				}
				if = {
					limit = { patriarch_authority = 0.80 }
					add_country_modifier = { name = unhappy_church_powerful duration = 1000 }
				}
				else_if = {
					limit = { patriarch_authority = 0.60 }
					add_country_modifier = { name = unhappy_church_strong duration = 1000 }
				}
				else_if = {
					limit = { patriarch_authority = 0.40 }
					add_country_modifier = { name = unhappy_church_moderate duration = 1000 }
				}
				else_if = {
					limit = { patriarch_authority = 0.20 }
					add_country_modifier = { name = unhappy_church_weak duration = 1000 }
				}
				else = {
					add_country_modifier = { name = unhappy_church_impotent duration = 1000 }
				}
			}
			else_if = {
				limit = { not_have_religious_scandal = yes }
				if = {
					limit = { piety = 0.20 }
					add_country_modifier = { name = religious_scandal_country_strong duration = 1000 }
				}
				else_if = {
					limit = { piety = -0.20 }
					add_country_modifier = { name = religious_scandal_country duration = 1000 }
				}
				else = {
					add_country_modifier = { name = religious_scandal_country_weak duration = 1000 }
				}
			}
		}
		else = {
			if = {
				limit = { have_religious_scandal = yes }
				if = {
					limit = { patriarch_authority = 0.80 }
					add_country_modifier = { name = unhappy_church_powerful duration = 500 }
				}
				else_if = {
					limit = { patriarch_authority = 0.60 }
					add_country_modifier = { name = unhappy_church_strong duration = 500 }
				}
				else_if = {
					limit = { patriarch_authority = 0.40 }
					add_country_modifier = { name = unhappy_church_moderate duration = 500 }
				}
				else_if = {
					limit = { patriarch_authority = 0.20 }
					add_country_modifier = { name = unhappy_church_weak duration = 500 }
				}
				else = {
					add_country_modifier = { name = unhappy_church_impotent duration = 500 }
				}
			}
			else = {
				if = {
					limit = { piety = 0.20 }
					add_country_modifier = { name = religious_scandal_country_strong duration = 500 }
				}
				else_if = {
					limit = { piety = -0.20 }
					add_country_modifier = { name = religious_scandal_country duration = 500 }
				}
				else = {
					add_country_modifier = { name = religious_scandal_country_weak duration = 500 }
				}
			}
		}
		hidden_effect = { set_variable = { which = antioch value = 0 } }
	}
}

country_event = { #05 - The loss of Alexandria
	
	id = dg_holylands.005
	title = dg_holylands.005.t
	desc = dg_holylands.001.d
	picture = all_refugees
	
	trigger = {
		has_country_flag = holy_land_alexandria
		NOT = { owns_or_non_sovereign_subject_of = 358 }
		OR = {
			religion = orthodox
			religion = coptic
		}
		piety = -0.60
	}
	
	mean_time_to_happen = { months = 3 }
	
	immediate = {
		clr_country_flag = holy_land_alexandria
		if = { #Important to that religion
			limit = { capital_scope = { africa_continent_trigger = yes } }
			hidden_effect = { change_variable = { which = alexandria value = 1 } }
		}
		if = {
			limit = {
				religion = coptic
				NOT = { capital_scope = { africa_continent_trigger = yes } }
				NOT = { capital_scope = { continent = europe } }
			}
			hidden_effect = { change_variable = { which = alexandria value = 1 } }
		}
		if = { #Important to that nation
			limit = { 358 = { is_core = ROOT } }
			hidden_effect = { change_variable = { which = alexandria value = 1 } }
		}
		if = { #Lost to heathens
			limit = { 358 = { owner = { NOT = { religion_group = ROOT } } } }
			hidden_effect = { change_variable = { which = alexandria value = 1 } }
			custom_tooltip = lost_holyland_heathen
		}
		if = { #Lost to coreligionists
			limit = { 358 = { owner = { religion = ROOT } } }
			hidden_effect = { change_variable = { which = alexandria value = -1 } }
			custom_tooltip = lost_holyland_coreligionist
		}
	}
	
	option = {
		name = dg_holylands.001.a #We have failed our task
		if = {
			limit = { check_variable = { which = alexandria value = 2 } }
			if = {
				limit = {
					OR = {
						has_country_modifier = religious_scandal_country_strong
						has_country_modifier = religious_scandal_country
						has_country_modifier = religious_scandal_country_weak
					}
				}
				if = {
					limit = { patriarch_authority = 0.80 }
					add_country_modifier = { name = unhappy_church_powerful duration = 2000 }
				}
				else_if = {
					limit = { patriarch_authority = 0.60 }
					add_country_modifier = { name = unhappy_church_strong duration = 2000 }
				}
				else_if = {
					limit = { patriarch_authority = 0.40 }
					add_country_modifier = { name = unhappy_church_moderate duration = 2000 }
				}
				else_if = {
					limit = { patriarch_authority = 0.20 }
					add_country_modifier = { name = unhappy_church_weak duration = 2000 }
				}
				else = {
					add_country_modifier = { name = unhappy_church_impotent duration = 2000 }
				}
			}
			else_if = {
				limit = { not_have_religious_scandal = yes }
				if = {
					limit = { piety = 0.20 }
					add_country_modifier = { name = religious_scandal_country_strong duration = 2000 }
				}
				else_if = {
					limit = { piety = -0.20 }
					add_country_modifier = { name = religious_scandal_country duration = 2000 }
				}
				else = {
					add_country_modifier = { name = religious_scandal_country_weak duration = 2000 }
				}
			}
		}
		else_if = {
			limit = { is_variable_equal = { which = alexandria value = 1 } }
			if = {
				limit = {
					OR = {
						has_country_modifier = religious_scandal_country_strong
						has_country_modifier = religious_scandal_country
						has_country_modifier = religious_scandal_country_weak
					}
				}
				if = {
					limit = { patriarch_authority = 0.80 }
					add_country_modifier = { name = unhappy_church_powerful duration = 1000 }
				}
				else_if = {
					limit = { patriarch_authority = 0.60 }
					add_country_modifier = { name = unhappy_church_strong duration = 1000 }
				}
				else_if = {
					limit = { patriarch_authority = 0.40 }
					add_country_modifier = { name = unhappy_church_moderate duration = 1000 }
				}
				else_if = {
					limit = { patriarch_authority = 0.20 }
					add_country_modifier = { name = unhappy_church_weak duration = 1000 }
				}
				else = {
					add_country_modifier = { name = unhappy_church_impotent duration = 1000 }
				}
			}
			else = {
				if = {
					limit = { piety = 0.20 }
					add_country_modifier = { name = religious_scandal_country_strong duration = 1000 }
				}
				else_if = {
					limit = { piety = -0.20 }
					add_country_modifier = { name = religious_scandal_country duration = 1000 }
				}
				else = {
					add_country_modifier = { name = religious_scandal_country_weak duration = 1000 }
				}
			}
		}
		else = {
			if = {
				limit = { have_religious_scandal = yes }
				if = {
					limit = { patriarch_authority = 0.80 }
					add_country_modifier = { name = unhappy_church_powerful duration = 500 }
				}
				else_if = {
					limit = { patriarch_authority = 0.60 }
					add_country_modifier = { name = unhappy_church_strong duration = 500 }
				}
				else_if = {
					limit = { patriarch_authority = 0.40 }
					add_country_modifier = { name = unhappy_church_moderate duration = 500 }
				}
				else_if = {
					limit = { patriarch_authority = 0.20 }
					add_country_modifier = { name = unhappy_church_weak duration = 500 }
				}
				else = {
					add_country_modifier = { name = unhappy_church_impotent duration = 500 }
				}
			}
			else = {
				if = {
					limit = { piety = 0.20 }
					add_country_modifier = { name = religious_scandal_country_strong duration = 500 }
				}
				else_if = {
					limit = { piety = -0.20 }
					add_country_modifier = { name = religious_scandal_country duration = 500 }
				}
				else = {
					add_country_modifier = { name = religious_scandal_country_weak duration = 500 }
				}
			}
		}
		hidden_effect = { set_variable = { which = alexandria value = 0 } }
	}
}

country_event = { #06 - The loss of ctesiphon
	
	id = dg_holylands.006
	title = dg_holylands.006.t
	desc = dg_holylands.001.d
	picture = all_refugees
	
	trigger = {
		has_country_flag = holy_land_ctesiphon
		NOT = { owns_or_non_sovereign_subject_of = 410 }
		religion = chaldean
		piety = -0.60
	}
	
	mean_time_to_happen = { months = 3 }
	
	immediate = {
		clr_country_flag = holy_land_ctesiphon
		if = { #Important to that nation
			limit = { 410 = { is_core = ROOT } }
			hidden_effect = { change_variable = { which = ctesiphon value = 1 } }
		}
		if = { #Lost to heathens
			limit = { 410 = { owner = { NOT = { religion_group = ROOT } } } }
			hidden_effect = { change_variable = { which = ctesiphon value = 1 } }
			custom_tooltip = lost_holyland_heathen
		}
		if = { #Lost to coreligionists
			limit = { 410 = { owner = { religion = ROOT } } }
			hidden_effect = { change_variable = { which = ctesiphon value = -1 } }
			custom_tooltip = lost_holyland_coreligionist
		}
	}
	
	option = {
		name = dg_holylands.001.a #We have failed our task
		if = {
			limit = { check_variable = { which = ctesiphon value = 2 } }
			if = {
				limit = {
					OR = {
						has_country_modifier = religious_scandal_country_strong
						has_country_modifier = religious_scandal_country
						has_country_modifier = religious_scandal_country_weak
					}
				}
				if = {
					limit = { patriarch_authority = 0.80 }
					add_country_modifier = { name = unhappy_church_powerful duration = 2000 }
				}
				else_if = {
					limit = { patriarch_authority = 0.60 }
					add_country_modifier = { name = unhappy_church_strong duration = 2000 }
				}
				else_if = {
					limit = { patriarch_authority = 0.40 }
					add_country_modifier = { name = unhappy_church_moderate duration = 2000 }
				}
				else_if = {
					limit = { patriarch_authority = 0.20 }
					add_country_modifier = { name = unhappy_church_weak duration = 2000 }
				}
				else = {
					add_country_modifier = { name = unhappy_church_impotent duration = 2000 }
				}
			}
			else_if = {
				limit = { not_have_religious_scandal = yes }
				if = {
					limit = { piety = 0.20 }
					add_country_modifier = { name = religious_scandal_country_strong duration = 2000 }
				}
				else_if = {
					limit = { piety = -0.20 }
					add_country_modifier = { name = religious_scandal_country duration = 2000 }
				}
				else = {
					add_country_modifier = { name = religious_scandal_country_weak duration = 2000 }
				}
			}
		}
		else_if = {
			limit = { is_variable_equal = { which = ctesiphon value = 1 } }
			if = {
				limit = {
					OR = {
						has_country_modifier = religious_scandal_country_strong
						has_country_modifier = religious_scandal_country
						has_country_modifier = religious_scandal_country_weak
					}
				}
				if = {
					limit = { patriarch_authority = 0.80 }
					add_country_modifier = { name = unhappy_church_powerful duration = 1000 }
				}
				else_if = {
					limit = { patriarch_authority = 0.60 }
					add_country_modifier = { name = unhappy_church_strong duration = 1000 }
				}
				else_if = {
					limit = { patriarch_authority = 0.40 }
					add_country_modifier = { name = unhappy_church_moderate duration = 1000 }
				}
				else_if = {
					limit = { patriarch_authority = 0.20 }
					add_country_modifier = { name = unhappy_church_weak duration = 1000 }
				}
				else = {
					add_country_modifier = { name = unhappy_church_impotent duration = 1000 }
				}
			}
			else = {
				if = {
					limit = { piety = 0.20 }
					add_country_modifier = { name = religious_scandal_country_strong duration = 1000 }
				}
				else_if = {
					limit = { piety = -0.20 }
					add_country_modifier = { name = religious_scandal_country duration = 1000 }
				}
				else = {
					add_country_modifier = { name = religious_scandal_country_weak duration = 1000 }
				}
			}
		}
		else = {
			if = {
				limit = { have_religious_scandal = yes }
				if = {
					limit = { patriarch_authority = 0.80 }
					add_country_modifier = { name = unhappy_church_powerful duration = 500 }
				}
				else_if = {
					limit = { patriarch_authority = 0.60 }
					add_country_modifier = { name = unhappy_church_strong duration = 500 }
				}
				else_if = {
					limit = { patriarch_authority = 0.40 }
					add_country_modifier = { name = unhappy_church_moderate duration = 500 }
				}
				else_if = {
					limit = { patriarch_authority = 0.20 }
					add_country_modifier = { name = unhappy_church_weak duration = 500 }
				}
				else = {
					add_country_modifier = { name = unhappy_church_impotent duration = 500 }
				}
			}
			else = {
				if = {
					limit = { piety = 0.20 }
					add_country_modifier = { name = religious_scandal_country_strong duration = 500 }
				}
				else_if = {
					limit = { piety = -0.20 }
					add_country_modifier = { name = religious_scandal_country duration = 500 }
				}
				else = {
					add_country_modifier = { name = religious_scandal_country_weak duration = 500 }
				}
			}
		}
		hidden_effect = { set_variable = { which = ctesiphon value = 0 } }
	}
}

country_event = { #07 - The loss of Mecca
	
	id = dg_holylands.007
	title = dg_holylands.007.t
	desc = dg_holylands.001.d
	picture = all_refugees
	
	trigger = {
		has_country_flag = holy_land_mecca
		NOT = { owns_or_non_sovereign_subject_of = 385 }
		religion_group = muslim
		NOT = { religion = druze }
		piety = -0.60
	}
	
	mean_time_to_happen = { months = 3 }
	
	immediate = {
		clr_country_flag = holy_land_mecca
		if = { #Important to that religion
			limit = { OR = { religion = sunni religion = wahhabi } }
			hidden_effect = { change_variable = { which = mecca value = 1 } }
		}
		if = { #Important to that nation
			limit = { 385 = { is_core = ROOT } }
			hidden_effect = { change_variable = { which = mecca value = 1 } }
		}
		if = { #Lost to heathens
			limit = { 385 = { owner = { NOT = { religion_group = ROOT } } } }
			hidden_effect = { change_variable = { which = mecca value = 1 } }
			custom_tooltip = lost_holyland_heathen
		}
		if = { #Lost to coreligionists
			limit = { 385 = { owner = { religion = ROOT } } }
			hidden_effect = { change_variable = { which = mecca value = -1 } }
			custom_tooltip = lost_holyland_coreligionist
		}
	}
	
	option = {
		name = dg_holylands.001.a #We have failed our task
		if = {
			limit = { check_variable = { which = mecca value = 2 } }
			if = {
				limit = {
					OR = {
						has_country_modifier = religious_scandal_country_strong
						has_country_modifier = religious_scandal_country
						has_country_modifier = religious_scandal_country_weak
					}
				}
				if = {
					limit = { patriarch_authority = 0.80 }
					add_country_modifier = { name = unhappy_church_powerful duration = 2000 }
				}
				else_if = {
					limit = { patriarch_authority = 0.60 }
					add_country_modifier = { name = unhappy_church_strong duration = 2000 }
				}
				else_if = {
					limit = { patriarch_authority = 0.40 }
					add_country_modifier = { name = unhappy_church_moderate duration = 2000 }
				}
				else_if = {
					limit = { patriarch_authority = 0.20 }
					add_country_modifier = { name = unhappy_church_weak duration = 2000 }
				}
				else = {
					add_country_modifier = { name = unhappy_church_impotent duration = 2000 }
				}
			}
			else = {
				if = {
					limit = { piety = 0.20 }
					add_country_modifier = { name = religious_scandal_country_strong duration = 2000 }
				}
				else_if = {
					limit = { piety = -0.20 }
					add_country_modifier = { name = religious_scandal_country duration = 2000 }
				}
				else = {
					add_country_modifier = { name = religious_scandal_country_weak duration = 2000 }
				}
			}
		}
		else_if = {
			limit = { is_variable_equal = { which = mecca value = 1 } }
			if = {
				limit = {
					OR = {
						has_country_modifier = religious_scandal_country_strong
						has_country_modifier = religious_scandal_country
						has_country_modifier = religious_scandal_country_weak
					}
				}
				if = {
					limit = { patriarch_authority = 0.80 }
					add_country_modifier = { name = unhappy_church_powerful duration = 1000 }
				}
				else_if = {
					limit = { patriarch_authority = 0.60 }
					add_country_modifier = { name = unhappy_church_strong duration = 1000 }
				}
				else_if = {
					limit = { patriarch_authority = 0.40 }
					add_country_modifier = { name = unhappy_church_moderate duration = 1000 }
				}
				else_if = {
					limit = { patriarch_authority = 0.20 }
					add_country_modifier = { name = unhappy_church_weak duration = 1000 }
				}
				else = {
					add_country_modifier = { name = unhappy_church_impotent duration = 1000 }
				}
			}
			else = {
				if = {
					limit = { piety = 0.20 }
					add_country_modifier = { name = religious_scandal_country_strong duration = 1000 }
				}
				else_if = {
					limit = { piety = -0.20 }
					add_country_modifier = { name = religious_scandal_country duration = 1000 }
				}
				else = {
					add_country_modifier = { name = religious_scandal_country_weak duration = 1000 }
				}
			}
		}
		else = {
			if = {
				limit = { have_religious_scandal = yes }
				if = {
					limit = { patriarch_authority = 0.80 }
					add_country_modifier = { name = unhappy_church_powerful duration = 500 }
				}
				else_if = {
					limit = { patriarch_authority = 0.60 }
					add_country_modifier = { name = unhappy_church_strong duration = 500 }
				}
				else_if = {
					limit = { patriarch_authority = 0.40 }
					add_country_modifier = { name = unhappy_church_moderate duration = 500 }
				}
				else_if = {
					limit = { patriarch_authority = 0.20 }
					add_country_modifier = { name = unhappy_church_weak duration = 500 }
				}
				else = {
					add_country_modifier = { name = unhappy_church_impotent duration = 500 }
				}
			}
			else = {
				if = {
					limit = { piety = 0.20 }
					add_country_modifier = { name = religious_scandal_country_strong duration = 500 }
				}
				else_if = {
					limit = { piety = -0.20 }
					add_country_modifier = { name = religious_scandal_country duration = 500 }
				}
				else = {
					add_country_modifier = { name = religious_scandal_country_weak duration = 500 }
				}
			}
		}
		hidden_effect = { set_variable = { which = mecca value = 0 } }
	}
}

country_event = { #08 - The loss of Medina
	
	id = dg_holylands.008
	title = dg_holylands.008.t
	desc = dg_holylands.001.d
	picture = all_refugees
	
	trigger = {
		has_country_flag = holy_land_medina
		NOT = { owns_or_non_sovereign_subject_of = 384 }
		religion_group = muslim
		NOT = { religion = druze }
		piety = -0.60
	}
	
	mean_time_to_happen = { months = 3 }
	
	immediate = {
		clr_country_flag = holy_land_medina
		if = { #Important to that religion
			limit = { OR = { religion = sunni religion = wahhabi } }
			hidden_effect = { change_variable = { which = medina value = 1 } }
		}
		if = { #Important to that nation
			limit = { 384 = { is_core = ROOT } }
			hidden_effect = { change_variable = { which = medina value = 1 } }
		}
		if = { #Lost to heathens
			limit = { 384 = { owner = { NOT = { religion_group = ROOT } } } }
			hidden_effect = { change_variable = { which = medina value = 1 } }
			custom_tooltip = lost_holyland_heathen
		}
		if = { #Lost to coreligionists
			limit = { 384 = { owner = { religion = ROOT } } }
			hidden_effect = { change_variable = { which = medina value = -1 } }
			custom_tooltip = lost_holyland_coreligionist
		}
	}
	
	option = {
		name = dg_holylands.001.a #We have failed our task
		if = {
			limit = { check_variable = { which = medina value = 2 } }
			if = {
				limit = {
					OR = {
						has_country_modifier = religious_scandal_country_strong
						has_country_modifier = religious_scandal_country
						has_country_modifier = religious_scandal_country_weak
					}
				}
				if = {
					limit = { patriarch_authority = 0.80 }
					add_country_modifier = { name = unhappy_church_powerful duration = 2000 }
				}
				else_if = {
					limit = { patriarch_authority = 0.60 }
					add_country_modifier = { name = unhappy_church_strong duration = 2000 }
				}
				else_if = {
					limit = { patriarch_authority = 0.40 }
					add_country_modifier = { name = unhappy_church_moderate duration = 2000 }
				}
				else_if = {
					limit = { patriarch_authority = 0.20 }
					add_country_modifier = { name = unhappy_church_weak duration = 2000 }
				}
				else = {
					add_country_modifier = { name = unhappy_church_impotent duration = 2000 }
				}
			}
			else = {
				if = {
					limit = { piety = 0.20 }
					add_country_modifier = { name = religious_scandal_country_strong duration = 2000 }
				}
				else_if = {
					limit = { piety = -0.20 }
					add_country_modifier = { name = religious_scandal_country duration = 2000 }
				}
				else = {
					add_country_modifier = { name = religious_scandal_country_weak duration = 2000 }
				}
			}
		}
		else_if = {
			limit = { is_variable_equal = { which = medina value = 1 } }
			if = {
				limit = {
					OR = {
						has_country_modifier = religious_scandal_country_strong
						has_country_modifier = religious_scandal_country
						has_country_modifier = religious_scandal_country_weak
					}
				}
				if = {
					limit = { patriarch_authority = 0.80 }
					add_country_modifier = { name = unhappy_church_powerful duration = 1000 }
				}
				else_if = {
					limit = { patriarch_authority = 0.60 }
					add_country_modifier = { name = unhappy_church_strong duration = 1000 }
				}
				else_if = {
					limit = { patriarch_authority = 0.40 }
					add_country_modifier = { name = unhappy_church_moderate duration = 1000 }
				}
				else_if = {
					limit = { patriarch_authority = 0.20 }
					add_country_modifier = { name = unhappy_church_weak duration = 1000 }
				}
				else = {
					add_country_modifier = { name = unhappy_church_impotent duration = 1000 }
				}
			}
			else = {
				if = {
					limit = { piety = 0.20 }
					add_country_modifier = { name = religious_scandal_country_strong duration = 1000 }
				}
				else_if = {
					limit = { piety = -0.20 }
					add_country_modifier = { name = religious_scandal_country duration = 1000 }
				}
				else = {
					add_country_modifier = { name = religious_scandal_country_weak duration = 1000 }
				}
			}
		}
		else = {
			if = {
				limit = { have_religious_scandal = yes }
				if = {
					limit = { patriarch_authority = 0.80 }
					add_country_modifier = { name = unhappy_church_powerful duration = 500 }
				}
				else_if = {
					limit = { patriarch_authority = 0.60 }
					add_country_modifier = { name = unhappy_church_strong duration = 500 }
				}
				else_if = {
					limit = { patriarch_authority = 0.40 }
					add_country_modifier = { name = unhappy_church_moderate duration = 500 }
				}
				else_if = {
					limit = { patriarch_authority = 0.20 }
					add_country_modifier = { name = unhappy_church_weak duration = 500 }
				}
				else = {
					add_country_modifier = { name = unhappy_church_impotent duration = 500 }
				}
			}
			else = {
				if = {
					limit = { piety = 0.20 }
					add_country_modifier = { name = religious_scandal_country_strong duration = 500 }
				}
				else_if = {
					limit = { piety = -0.20 }
					add_country_modifier = { name = religious_scandal_country duration = 500 }
				}
				else = {
					add_country_modifier = { name = religious_scandal_country_weak duration = 500 }
				}
			}
		}
		hidden_effect = { set_variable = { which = medina value = 0 } }
	}
}

country_event = { #09 - The loss of al_najaf
	
	id = dg_holylands.009
	title = dg_holylands.009.t
	desc = dg_holylands.001.d
	picture = all_refugees
	
	trigger = {
		has_country_flag = holy_land_al_najaf
		NOT = { owns_al_najaf_trigger = yes }
		religion = shiite
		piety = -0.60
	}
	
	mean_time_to_happen = { months = 3 }
	
	immediate = {
		clr_country_flag = holy_land_al_najaf
		if = { #Important to that religion
			limit = { religion = shiite }
			hidden_effect = { change_variable = { which = al_najaf value = 1 } }
		}
		if = { #Important to that nation
			limit = {
				any_province = {
					province_al_najaf_trigger = yes
					is_core = ROOT
				}
			}
			hidden_effect = { change_variable = { which = al_najaf value = 1 } }
		}
		if = { #Lost to heathens
			limit = { al_najaf_heathen_trigger = yes }
			hidden_effect = { change_variable = { which = al_najaf value = 1 } }
			custom_tooltip = lost_holyland_heathen
		}
		if = { #Lost to coreligionists
			limit = { al_najaf_coreligionist_trigger = yes }
			hidden_effect = { change_variable = { which = al_najaf value = -1 } }
			custom_tooltip = lost_holyland_coreligionist
		}
	}
	
	option = {
		name = dg_holylands.001.a #We have failed our task
		if = {
			limit = { check_variable = { which = al_najaf value = 2 } }
			if = {
				limit = {
					OR = {
						has_country_modifier = religious_scandal_country_strong
						has_country_modifier = religious_scandal_country
						has_country_modifier = religious_scandal_country_weak
					}
				}
				if = {
					limit = { patriarch_authority = 0.80 }
					add_country_modifier = { name = unhappy_church_powerful duration = 2000 }
				}
				else_if = {
					limit = { patriarch_authority = 0.60 }
					add_country_modifier = { name = unhappy_church_strong duration = 2000 }
				}
				else_if = {
					limit = { patriarch_authority = 0.40 }
					add_country_modifier = { name = unhappy_church_moderate duration = 2000 }
				}
				else_if = {
					limit = { patriarch_authority = 0.20 }
					add_country_modifier = { name = unhappy_church_weak duration = 2000 }
				}
				else = {
					add_country_modifier = { name = unhappy_church_impotent duration = 2000 }
				}
			}
			else = {
				if = {
					limit = { piety = 0.20 }
					add_country_modifier = { name = religious_scandal_country_strong duration = 2000 }
				}
				else_if = {
					limit = { piety = -0.20 }
					add_country_modifier = { name = religious_scandal_country duration = 2000 }
				}
				else = {
					add_country_modifier = { name = religious_scandal_country_weak duration = 2000 }
				}
			}
		}
		if = {
			limit = { is_variable_equal = { which = al_najaf value = 1 } }
			if = {
				limit = {
					OR = {
						has_country_modifier = religious_scandal_country_strong
						has_country_modifier = religious_scandal_country
						has_country_modifier = religious_scandal_country_weak
					}
				}
				if = {
					limit = { patriarch_authority = 0.80 }
					add_country_modifier = { name = unhappy_church_powerful duration = 1000 }
				}
				else_if = {
					limit = { patriarch_authority = 0.60 }
					add_country_modifier = { name = unhappy_church_strong duration = 1000 }
				}
				else_if = {
					limit = { patriarch_authority = 0.40 }
					add_country_modifier = { name = unhappy_church_moderate duration = 1000 }
				}
				else_if = {
					limit = { patriarch_authority = 0.20 }
					add_country_modifier = { name = unhappy_church_weak duration = 1000 }
				}
				else = {
					add_country_modifier = { name = unhappy_church_impotent duration = 1000 }
				}
			}
			else = {
				if = {
					limit = { piety = 0.20 }
					add_country_modifier = { name = religious_scandal_country_strong duration = 1000 }
				}
				else_if = {
					limit = { piety = -0.20 }
					add_country_modifier = { name = religious_scandal_country duration = 1000 }
				}
				else = {
					add_country_modifier = { name = religious_scandal_country_weak duration = 1000 }
				}
			}
		}
		else = {
			if = {
				limit = { have_religious_scandal = yes }
				if = {
					limit = { patriarch_authority = 0.80 }
					add_country_modifier = { name = unhappy_church_powerful duration = 500 }
				}
				else_if = {
					limit = { patriarch_authority = 0.60 }
					add_country_modifier = { name = unhappy_church_strong duration = 500 }
				}
				else_if = {
					limit = { patriarch_authority = 0.40 }
					add_country_modifier = { name = unhappy_church_moderate duration = 500 }
				}
				else_if = {
					limit = { patriarch_authority = 0.20 }
					add_country_modifier = { name = unhappy_church_weak duration = 500 }
				}
				else = {
					add_country_modifier = { name = unhappy_church_impotent duration = 500 }
				}
			}
			else = {
				if = {
					limit = { piety = 0.20 }
					add_country_modifier = { name = religious_scandal_country_strong duration = 500 }
				}
				else_if = {
					limit = { piety = -0.20 }
					add_country_modifier = { name = religious_scandal_country duration = 500 }
				}
				else = {
					add_country_modifier = { name = religious_scandal_country_weak duration = 500 }
				}
			}
		}
		hidden_effect = { set_variable = { which = al_najaf value = 0 } }
	}
}

country_event = { #10 - The loss of Balga
	
	id = dg_holylands.010
	title = dg_holylands.010.t
	desc = dg_holylands.001.d
	picture = all_refugees
	
	trigger = {
		has_country_flag = holy_land_balga
		NOT = { owns_or_non_sovereign_subject_of = 41 }
		religion = baltic_pagan_reformed
		piety = -0.60
	}
	
	mean_time_to_happen = { months = 3 }
	
	immediate = {
		clr_country_flag = holy_land_balga
		if = { #Important to that nation
			limit = { 41 = { is_core = ROOT } }
			hidden_effect = { change_variable = { which = balga value = 1 } }
		}
		if = { #Lost to heathens
			limit = { 41 = { owner = { NOT = { religion_group = ROOT } } } }
			hidden_effect = { change_variable = { which = balga value = 1 } }
			custom_tooltip = lost_holyland_heathen
		}
		if = { #Lost to coreligionists
			limit = { 41 = { owner = { religion = ROOT } } }
			hidden_effect = { change_variable = { which = balga value = -1 } }
			custom_tooltip = lost_holyland_coreligionist
		}
	}
	
	option = {
		name = dg_holylands.001.a #We have failed our task
		if = {
			limit = { check_variable = { which = balga value = 2 } }
			if = {
				limit = {
					OR = {
						has_country_modifier = religious_scandal_country_strong
						has_country_modifier = religious_scandal_country
						has_country_modifier = religious_scandal_country_weak
					}
				}
				if = {
					limit = { patriarch_authority = 0.80 }
					add_country_modifier = { name = unhappy_church_powerful duration = 2000 }
				}
				else_if = {
					limit = { patriarch_authority = 0.60 }
					add_country_modifier = { name = unhappy_church_strong duration = 2000 }
				}
				else_if = {
					limit = { patriarch_authority = 0.40 }
					add_country_modifier = { name = unhappy_church_moderate duration = 2000 }
				}
				else_if = {
					limit = { patriarch_authority = 0.20 }
					add_country_modifier = { name = unhappy_church_weak duration = 2000 }
				}
				else = {
					add_country_modifier = { name = unhappy_church_impotent duration = 2000 }
				}
			}
			else = {
				if = {
					limit = { piety = 0.20 }
					add_country_modifier = { name = religious_scandal_country_strong duration = 2000 }
				}
				else_if = {
					limit = { piety = -0.20 }
					add_country_modifier = { name = religious_scandal_country duration = 2000 }
				}
				else = {
					add_country_modifier = { name = religious_scandal_country_weak duration = 2000 }
				}
			}
		}
		else_if = {
			limit = { is_variable_equal = { which = balga value = 1 } }
			if = {
				limit = {
					OR = {
						has_country_modifier = religious_scandal_country_strong
						has_country_modifier = religious_scandal_country
						has_country_modifier = religious_scandal_country_weak
					}
				}
				if = {
					limit = { patriarch_authority = 0.80 }
					add_country_modifier = { name = unhappy_church_powerful duration = 1000 }
				}
				else_if = {
					limit = { patriarch_authority = 0.60 }
					add_country_modifier = { name = unhappy_church_strong duration = 1000 }
				}
				else_if = {
					limit = { patriarch_authority = 0.40 }
					add_country_modifier = { name = unhappy_church_moderate duration = 1000 }
				}
				else_if = {
					limit = { patriarch_authority = 0.20 }
					add_country_modifier = { name = unhappy_church_weak duration = 1000 }
				}
				else = {
					add_country_modifier = { name = unhappy_church_impotent duration = 1000 }
				}
			}
			else = {
				if = {
					limit = { piety = 0.20 }
					add_country_modifier = { name = religious_scandal_country_strong duration = 1000 }
				}
				else_if = {
					limit = { piety = -0.20 }
					add_country_modifier = { name = religious_scandal_country duration = 1000 }
				}
				else = {
					add_country_modifier = { name = religious_scandal_country_weak duration = 1000 }
				}
			}
		}
		else = {
			if = {
				limit = { have_religious_scandal = yes }
				if = {
					limit = { patriarch_authority = 0.80 }
					add_country_modifier = { name = unhappy_church_powerful duration = 500 }
				}
				else_if = {
					limit = { patriarch_authority = 0.60 }
					add_country_modifier = { name = unhappy_church_strong duration = 500 }
				}
				else_if = {
					limit = { patriarch_authority = 0.40 }
					add_country_modifier = { name = unhappy_church_moderate duration = 500 }
				}
				else_if = {
					limit = { patriarch_authority = 0.20 }
					add_country_modifier = { name = unhappy_church_weak duration = 500 }
				}
				else = {
					add_country_modifier = { name = unhappy_church_impotent duration = 500 }
				}
			}
			else = {
				if = {
					limit = { piety = 0.20 }
					add_country_modifier = { name = religious_scandal_country_strong duration = 500 }
				}
				else_if = {
					limit = { piety = -0.20 }
					add_country_modifier = { name = religious_scandal_country duration = 500 }
				}
				else = {
					add_country_modifier = { name = religious_scandal_country_weak duration = 500 }
				}
			}
		}
		hidden_effect = { set_variable = { which = balga value = 0 } }
	}
}

country_event = { #11 - The loss of amritsar
	
	id = dg_holylands.011
	title = dg_holylands.011.t
	desc = dg_holylands.001.d
	picture = all_refugees
	
	trigger = {
		has_country_flag = holy_land_amritsar
		NOT = { any_owned_province = { has_province_flag = amritsar } }
		religion = sikhism
		piety = -0.60
	}
	
	mean_time_to_happen = { months = 3 }
	
	immediate = {
		clr_country_flag = holy_land_amritsar
		if = { #Important to that religion
			limit = { OR = { religion = sunni religion = wahhabi } }
			hidden_effect = { change_variable = { which = amritsar value = 1 } }
		}
		if = { #Important to that nation
			limit = {
				any_province = {
					has_province_flag = amritsar
					is_core = ROOT
				}
			}
			hidden_effect = { change_variable = { which = amritsar value = 1 } }
		}
		if = { #Lost to heathens
			limit = {
				any_owned_province = {
					has_province_flag = amritsar
					owner = { NOT = { religion_group = ROOT } }
				}
			}
			hidden_effect = { change_variable = { which = amritsar value = 1 } }
			custom_tooltip = lost_holyland_heathen
		}
		if = { #Lost to coreligionists
			limit = {
				any_owned_province = {
					has_province_flag = amritsar
					owner = { religion = ROOT }
				}
			}
			hidden_effect = { change_variable = { which = amritsar value = -1 } }
			custom_tooltip = lost_holyland_coreligionist
		}
	}
	
	option = {
		name = dg_holylands.001.a #We have failed our task
		if = {
			limit = { check_variable = { which = amritsar value = 2 } }
			if = {
				limit = {
					OR = {
						has_country_modifier = religious_scandal_country_strong
						has_country_modifier = religious_scandal_country
						has_country_modifier = religious_scandal_country_weak
					}
				}
				if = {
					limit = { patriarch_authority = 0.80 }
					add_country_modifier = { name = unhappy_church_powerful duration = 2000 }
				}
				else_if = {
					limit = { patriarch_authority = 0.60 }
					add_country_modifier = { name = unhappy_church_strong duration = 2000 }
				}
				else_if = {
					limit = { patriarch_authority = 0.40 }
					add_country_modifier = { name = unhappy_church_moderate duration = 2000 }
				}
				else_if = {
					limit = { patriarch_authority = 0.20 }
					add_country_modifier = { name = unhappy_church_weak duration = 2000 }
				}
				else = {
					add_country_modifier = { name = unhappy_church_impotent duration = 2000 }
				}
			}
			else = {
				if = {
					limit = { piety = 0.20 }
					add_country_modifier = { name = religious_scandal_country_strong duration = 2000 }
				}
				else_if = {
					limit = { piety = -0.20 }
					add_country_modifier = { name = religious_scandal_country duration = 2000 }
				}
				else = {
					add_country_modifier = { name = religious_scandal_country_weak duration = 2000 }
				}
			}
		}
		else_if = {
			limit = { is_variable_equal = { which = amritsar value = 1 } }
			if = {
				limit = {
					OR = {
						has_country_modifier = religious_scandal_country_strong
						has_country_modifier = religious_scandal_country
						has_country_modifier = religious_scandal_country_weak
					}
				}
				if = {
					limit = { patriarch_authority = 0.80 }
					add_country_modifier = { name = unhappy_church_powerful duration = 1000 }
				}
				else_if = {
					limit = { patriarch_authority = 0.60 }
					add_country_modifier = { name = unhappy_church_strong duration = 1000 }
				}
				else_if = {
					limit = { patriarch_authority = 0.40 }
					add_country_modifier = { name = unhappy_church_moderate duration = 1000 }
				}
				else_if = {
					limit = { patriarch_authority = 0.20 }
					add_country_modifier = { name = unhappy_church_weak duration = 1000 }
				}
				else = {
					add_country_modifier = { name = unhappy_church_impotent duration = 1000 }
				}
			}
			else = {
				if = {
					limit = { piety = 0.20 }
					add_country_modifier = { name = religious_scandal_country_strong duration = 1000 }
				}
				else_if = {
					limit = { piety = -0.20 }
					add_country_modifier = { name = religious_scandal_country duration = 1000 }
				}
				else = {
					add_country_modifier = { name = religious_scandal_country_weak duration = 1000 }
				}
			}
		}
		else = {
			if = {
				limit = { have_religious_scandal = yes }
				if = {
					limit = { patriarch_authority = 0.80 }
					add_country_modifier = { name = unhappy_church_powerful duration = 500 }
				}
				else_if = {
					limit = { patriarch_authority = 0.60 }
					add_country_modifier = { name = unhappy_church_strong duration = 500 }
				}
				else_if = {
					limit = { patriarch_authority = 0.40 }
					add_country_modifier = { name = unhappy_church_moderate duration = 500 }
				}
				else_if = {
					limit = { patriarch_authority = 0.20 }
					add_country_modifier = { name = unhappy_church_weak duration = 500 }
				}
				else = {
					add_country_modifier = { name = unhappy_church_impotent duration = 500 }
				}
			}
			else = {
				if = {
					limit = { piety = 0.20 }
					add_country_modifier = { name = religious_scandal_country_strong duration = 500 }
				}
				else_if = {
					limit = { piety = -0.20 }
					add_country_modifier = { name = religious_scandal_country duration = 500 }
				}
				else = {
					add_country_modifier = { name = religious_scandal_country_weak duration = 500 }
				}
			}
		}
		hidden_effect = { set_variable = { which = amritsar value = 0 } }
	}
}

country_event = { #12 - The loss of varanasi
	
	id = dg_holylands.012
	title = dg_holylands.012.t
	desc = dg_holylands.001.d
	picture = all_refugees
	
	trigger = {
		has_country_flag = holy_land_varanasi
		NOT = { owns_varanasi_trigger = yes }
		OR = {
			religion = jain
			religion = buddhism
			religion = hinduism
		}
		piety = -0.60
	}
	
	mean_time_to_happen = { months = 3 }
	
	immediate = {
		clr_country_flag = holy_land_varanasi
		if = { #Important to that nation
			limit = {
				any_province = {
					province_varanasi_trigger = yes
					is_core = ROOT
				}
			}
			hidden_effect = { change_variable = { which = varanasi value = 1 } }
		}
		if = { #Lost to heathens
			limit = { varanasi_heathen_trigger = yes }
			hidden_effect = { change_variable = { which = varanasi value = 1 } }
			custom_tooltip = lost_holyland_heathen
		}
		if = { #Lost to coreligionists
			limit = { varanasi_coreligionist_trigger = yes }
			hidden_effect = { change_variable = { which = varanasi value = -1 } }
			custom_tooltip = lost_holyland_coreligionist
		}
	}
	
	option = {
		name = dg_holylands.001.a #We have failed our task
		if = {
			limit = { check_variable = { which = varanasi value = 2 } }
			if = {
				limit = {
					OR = {
						has_country_modifier = religious_scandal_country_strong
						has_country_modifier = religious_scandal_country
						has_country_modifier = religious_scandal_country_weak
					}
				}
				if = {
					limit = { patriarch_authority = 0.80 }
					add_country_modifier = { name = unhappy_church_powerful duration = 2000 }
				}
				else_if = {
					limit = { patriarch_authority = 0.60 }
					add_country_modifier = { name = unhappy_church_strong duration = 2000 }
				}
				else_if = {
					limit = { patriarch_authority = 0.40 }
					add_country_modifier = { name = unhappy_church_moderate duration = 2000 }
				}
				else_if = {
					limit = { patriarch_authority = 0.20 }
					add_country_modifier = { name = unhappy_church_weak duration = 2000 }
				}
				else = {
					add_country_modifier = { name = unhappy_church_impotent duration = 2000 }
				}
			}
			else = {
				if = {
					limit = { piety = 0.20 }
					add_country_modifier = { name = religious_scandal_country_strong duration = 2000 }
				}
				else_if = {
					limit = { piety = -0.20 }
					add_country_modifier = { name = religious_scandal_country duration = 2000 }
				}
				else = {
					add_country_modifier = { name = religious_scandal_country_weak duration = 2000 }
				}
			}
		}
		if = {
			limit = { is_variable_equal = { which = varanasi value = 1 } }
			if = {
				limit = {
					OR = {
						has_country_modifier = religious_scandal_country_strong
						has_country_modifier = religious_scandal_country
						has_country_modifier = religious_scandal_country_weak
					}
				}
				if = {
					limit = { patriarch_authority = 0.80 }
					add_country_modifier = { name = unhappy_church_powerful duration = 1000 }
				}
				else_if = {
					limit = { patriarch_authority = 0.60 }
					add_country_modifier = { name = unhappy_church_strong duration = 1000 }
				}
				else_if = {
					limit = { patriarch_authority = 0.40 }
					add_country_modifier = { name = unhappy_church_moderate duration = 1000 }
				}
				else_if = {
					limit = { patriarch_authority = 0.20 }
					add_country_modifier = { name = unhappy_church_weak duration = 1000 }
				}
				else = {
					add_country_modifier = { name = unhappy_church_impotent duration = 1000 }
				}
			}
			else = {
				if = {
					limit = { piety = 0.20 }
					add_country_modifier = { name = religious_scandal_country_strong duration = 1000 }
				}
				else_if = {
					limit = { piety = -0.20 }
					add_country_modifier = { name = religious_scandal_country duration = 1000 }
				}
				else = {
					add_country_modifier = { name = religious_scandal_country_weak duration = 1000 }
				}
			}
		}
		else = {
			if = {
				limit = { have_religious_scandal = yes }
				if = {
					limit = { patriarch_authority = 0.80 }
					add_country_modifier = { name = unhappy_church_powerful duration = 500 }
				}
				else_if = {
					limit = { patriarch_authority = 0.60 }
					add_country_modifier = { name = unhappy_church_strong duration = 500 }
				}
				else_if = {
					limit = { patriarch_authority = 0.40 }
					add_country_modifier = { name = unhappy_church_moderate duration = 500 }
				}
				else_if = {
					limit = { patriarch_authority = 0.20 }
					add_country_modifier = { name = unhappy_church_weak duration = 500 }
				}
				else = {
					add_country_modifier = { name = unhappy_church_impotent duration = 500 }
				}
			}
			else = {
				if = {
					limit = { piety = 0.20 }
					add_country_modifier = { name = religious_scandal_country_strong duration = 500 }
				}
				else_if = {
					limit = { piety = -0.20 }
					add_country_modifier = { name = religious_scandal_country duration = 500 }
				}
				else = {
					add_country_modifier = { name = religious_scandal_country_weak duration = 500 }
				}
			}
		}
		hidden_effect = { set_variable = { which = varanasi value = 0 } }
	}
}

country_event = { #Triggered modifiers are now a census based event
	id = dg_holylands.013
	title = dg_holylands.013.t
	desc = dg_holylands.013.d
	picture = all_refugees
	
	is_triggered_only = yes
	hidden = yes
	
	immediate = {
		set_variable = { which = inc_dg_4 value = 1 }
		every_country = {
			limit = {
				exists = yes
			}
			if = {
				limit = {
					NOT = { PREV = { check_variable = { which = inc_dg_4 value = 200 } } }
				}
				country_event = { id = dg_holylands.014 }
			}
			else_if = {
				limit = {
					NOT = { PREV = { check_variable = { which = inc_dg_4 value = 400 } } }
				}
				country_event = { id = dg_holylands.014	days = 1 }
			}
			else_if = {
				limit = {
					NOT = { PREV = { check_variable = { which = inc_dg_4 value = 600 } } }
				}
				country_event = { id = dg_holylands.014	days = 2 }
			}
			else = {
				country_event = { id = dg_holylands.014	days = 3 }
			}
			PREV = { change_variable = { which = inc_dg_4 value = 1 } }
		}
		set_variable = { which = inc_dg_4 value = 0 }
	}
	
	option = {
		name = dg_holylands.013.a
		ai_chance = { factor = 100 }
	}
}

country_event = { #Called by event
	id = dg_holylands.014
	title = dg_holylands.014.t
	desc = dg_holylands.014.d
	picture = all_refugees
	
	is_triggered_only = yes
	hidden = yes
	
	immediate = {
		dg_holy_lands_triggers = yes
	}
	
	option = {
		name = dg_holylands.014.a
		ai_chance = { factor = 100 }
	}
}
