# Peasants' War
country_event = {
	id = peasants_war.1
	title = "EVTNAME3021"
	desc = "EVTDESC3021"
	picture = ANGRY_MOB_eventPicture
	
	major = yes
	
	is_triggered_only = yes
	
	
	
	#	mean_time_to_happen = {
	#		days = 1
	#	}
	
	immediate = {
		subtract_stability_1 = yes
		add_prestige = -20
		export_to_variable = {
			which = num_of_cities_var
			value = num_of_cities
		}
		random_owned_province = {
			limit = {
				is_city = yes
				NOT = { has_province_modifier = peasants_organizing }
			}
			add_province_modifier = {
				name = "peasants_organizing"
				duration = 1825
			}
			hidden_effect = {
				set_variable = { which = added_unrest value = 5 }
				add_base_unrest = yes
			}
			custom_tooltip = added_unrest_5
		}
		random_owned_province = {
			limit = {
				is_city = yes
				NOT = { has_province_modifier = peasants_organizing }
			}
			add_province_modifier = {
				name = "peasants_organizing"
				duration = 1825
			}
			hidden_effect = {
				set_variable = { which = added_unrest value = 5 }
				add_base_unrest = yes
			}
			custom_tooltip = added_unrest_5
		}
		while = {
			limit = {
				check_variable = { which = num_of_cities_var value = 5 }
			}
			subtract_variable = { which = num_of_cities_var value = 5 }
			random_owned_province = {
				limit = {
					is_city = yes
					NOT = { has_province_modifier = peasants_organizing }
				}
				add_province_modifier = {
					name = "peasants_organizing"
					duration = 1825
				}
				hidden_effect = {
					set_variable = { which = added_unrest value = 5 }
					add_base_unrest = yes
				}
				custom_tooltip = added_unrest_5
			}
		}
	}
	
	
	option = {
		name = "EVTOPTA3021"			# Dire times are ahead of us
	}
}

# Peasant protests
country_event = {
	id = peasants_war.2
	title = "EVTNAME3022"
	desc = "EVTDESC3022"
	picture = ANGRY_MOB_eventPicture
	
	
	is_triggered_only = yes
	
	trigger = {
		NOT = { has_country_flag = peasant_protests }
	}
	
	#	mean_time_to_happen = {
	#		days = 1
	#	}
	
	immediate = {
		set_country_flag = peasant_protests
	}
	
	option = {
		name = "EVTOPTA3022"			# Enforce serfdom
		ai_chance = {
			factor = 65
			
			modifier = {
				factor = 2
				NOT = { average_unrest = 1 } # was 0, but triggers a Validator report
			}
		}
		random_owned_province = {
			limit = {
				is_city = yes
				NOT = { has_province_modifier = peasants_organizing }
			}
			add_province_modifier = {
				name = "peasants_organizing"
				duration = 1825
			}
			hidden_effect = {
				set_variable = { which = added_unrest value = 5 }
				add_base_unrest = yes
			}
			custom_tooltip = added_unrest_5
		}
		random_owned_province = {
			limit = {
				is_city = yes
				NOT = { has_province_modifier = peasants_organizing }
			}
			add_province_modifier = {
				name = "peasants_organizing"
				duration = 1825
			}
			hidden_effect = {
				set_variable = { which = added_unrest value = 5 }
				add_base_unrest = yes
			}
			custom_tooltip = added_unrest_5
		}
		
		add_country_modifier = {
			name = "enforce_serfdom"
			duration = -1
			desc = "END_OF_PEASANTS_WAR"
		}
	}
	option = {
		name = "EVTOPTB3022"			# Restrict serfdom
		ai_chance = {
			factor = 35
			
			modifier = {
				factor = 2
				average_unrest = 2
			}
			modifier = {
				factor = 5
				average_unrest = 4
			}
			modifier = {
				factor = 10
				average_unrest = 6
			}
		}
		if = {
			limit = { is_lesser_in_union = no }
			add_legitimacy = -15
		}
		
		add_country_modifier = {
			name = "restrict_serfdom"
			duration = -1
			desc = "END_OF_PEASANTS_WAR"
		}
	}
}

# Religious revolt
country_event = {
	id = peasants_war.3
	title = "EVTNAME3023"
	desc = "EVTDESC3023"
	picture = ANGRY_MOB_eventPicture
	
	
	is_triggered_only = yes
	
	trigger = {
		NOT = { has_country_flag = religious_revolt }
		religion = catholic
		is_religion_enabled = protestant
		NOT = { religious_unity = 1.0 }
	}
	
	#	mean_time_to_happen = {
	#		days = 1
	#		
	#	}
	
	immediate = {
		set_country_flag = religious_revolt
	}
	
	option = {
		name = "EVTOPTA3023" # Crush the rebels!
		ai_chance = { factor = 60 }
		random_owned_province = {
			limit = {
				is_city = yes
				NOT = { has_province_modifier = fanatics_organizing }
			}
			add_province_modifier = {
				name = "fanatics_organizing"
				duration = 1825
			}
			hidden_effect = {
				set_variable = { which = added_unrest value = 5 }
				add_base_unrest = yes
			}
			custom_tooltip = added_unrest_5
		}
		random_owned_province = {
			limit = {
				is_city = yes
				NOT = { has_province_modifier = fanatics_organizing }
			}
			add_province_modifier = {
				name = "fanatics_organizing"
				duration = 1825
			}
			hidden_effect = {
				set_variable = { which = added_unrest value = 5 }
				add_base_unrest = yes
			}
			custom_tooltip = added_unrest_5
		}
		add_mil_power = -50
		
		
		add_country_modifier = {
			name = "religious_intolerance"
			duration = -1
			desc = "END_OF_PEASANTS_WAR"
		}
	}
	option = {
		name = "EVTOPTB3023" # Let them chose their own faith
		ai_chance = { factor = 40 }
		add_dip_power = -50
		reverse_add_opinion = { who = PAP modifier = opinion_pope_religious_tolerance }
		add_papal_influence = -10
		
		
		add_country_modifier = {
			name = "religious_tolerance"
			duration = -1
			desc = "END_OF_PEASANTS_WAR"
		}
	}
}

# National decentralisation
country_event = {
	id = peasants_war.5
	title = "EVTNAME3025"
	desc = "EVTDESC3025"
	picture = ANGRY_MOB_eventPicture
	
	is_triggered_only = yes
	
	trigger = {
		NOT = { has_country_modifier = isolate_rebels }
	}
	
	#	mean_time_to_happen = {
	#		days = 1
	#	}
	
	option = {
		name = "EVTOPTA3025"			# Crush the rebels
		ai_chance = {
			factor = 55
			
			modifier = {
				factor = 2
				NOT = { average_unrest = 1 } # was 0, but triggers a Validator report
			}
		}
		random_core_province = {
			limit = {
				is_city = yes
				NOT = { has_province_modifier = peasants_organizing }
			}
			add_province_modifier = {
				name = "peasants_organizing"
				duration = 1825
			}
			hidden_effect = {
				set_variable = { which = added_unrest value = 5 }
				add_base_unrest = yes
			}
			custom_tooltip = added_unrest_5
		}
		random_core_province = {
			limit = {
				is_city = yes
				NOT = { has_province_modifier = peasants_organizing }
			}
			add_province_modifier = {
				name = "peasants_organizing"
				duration = 1825
			}
			hidden_effect = {
				set_variable = { which = added_unrest value = 5 }
				add_base_unrest = yes
			}
			custom_tooltip = added_unrest_5
		}
		
		add_country_modifier = {
			name = "isolate_rebels"
			duration = 720
		}
	}
	option = {
		name = "EVTOPTB3025"			# We have to negotiate a solution
		ai_chance = {
			factor = 45
			
			modifier = {
				factor = 2
				average_unrest = 2
			}
			modifier = {
				factor = 5
				average_unrest = 4
			}
			modifier = {
				factor = 10
				average_unrest = 6
			}
		}
		add_years_of_income = -0.5
		add_prestige = -10
	}
}

# Order is returning
country_event = {
	id = peasants_war.6
	title = "EVTNAME3026"
	desc = "EVTDESC3026"
	picture = ANGRY_MOB_eventPicture
	
	
	is_triggered_only = yes
	
	major = yes
	
	#	mean_time_to_happen = {
	#		days = 1
	#	}
	
	immediate = {
		clr_country_flag = peasant_protests
		clr_country_flag = religious_revolt
		clr_country_flag = obsolete_forces
		clr_country_flag = peasants_war_can_end
		
		add_country_modifier = {
			name = recent_peasants_war
			duration = 7300
		}
		
		remove_country_modifier = enforce_serfdom
		remove_country_modifier = restrict_serfdom
		remove_country_modifier = religious_intolerance
		remove_country_modifier = religious_tolerance
		remove_country_modifier = isolate_rebels
	}
	
	option = {
		name = "EVTOPTA3026"			# Restore order
		if = {
			limit = { is_lesser_in_union = no }
			add_legitimacy = 10
		}
		add_prestige = 20
	}
}