namespace = parlaments

province_event = {
	id = parlaments.1
	
	title = parlaments.1.t
	desc = parlaments.1.d
	picture = PARLIAMENT_eventPicture
	
	trigger = {
		owner = {
			has_parliament = yes
		}
		has_seat_in_parliament = no
		development = 25
		is_overseas = no
		is_core = owner
	}
	
	mean_time_to_happen = { years = 60 }
	
	
	option = {
		name = parlaments.1.a
		ai_chance = {
			factor = 90
		}
		set_seat_in_parliament = yes
	}
	option = {
		name = parlaments.1.b
		ai_chance = {
			factor = 10
		}
		# add_base_tax = -1
		# add_base_production = -1
		# add_base_manpower = -1
	}
}

#Rotten Borough
#Punishes awarding seat to poor and easily bribed provinces.
province_event = {
	id = parlaments.2
	
	title = parlaments.2.t
	desc = parlaments.2.d
	picture = PARLIAMENT_eventPicture
	
	trigger = {
		has_dlc = "Common Sense"
		owner = {
			has_parliament = yes
		}
		has_seat_in_parliament = yes
		is_capital = no
		NOT = { has_province_modifier = rotten_borough }
		NOT = { development = 10 }
		owner = {
			any_owned_province = {
				development = 10
				is_core = owner
				has_seat_in_parliament = no
				is_overseas = no
				OR = {
					AND = {
						owner = { has_unified_culture_group = yes }
						culture_group = owner
					}
					has_owner_accepted_culture = yes
				}
			}
		}
	}
	
	is_mtth_scaled_to_size = 1
	
	mean_time_to_happen = {
		years = 33
		modifier = {
			factor = 0.8
			NOT = { development = 6 }
		}
		modifier = {
			factor = 0.7
			NOT = { development = 4 }
		}
	}
	
	option = {
		name = parlaments.2.a
		ai_chance = {
			factor = 50
		}
		custom_tooltip = "parlaments.2.a.tt"
		add_province_modifier = {
			name = "rotten_borough"
			duration = -1
		}
	}
	option = {
		name = parlaments.2.b
		ai_chance = {
			factor = 50
			modifier = {
				factor = 4
				owner = {
					num_of_owned_provinces_with = {
						value = 2
						has_province_modifier = "rotten_borough"
					}
				}
			}
		}
		set_seat_in_parliament = no
		owner = {
			random_owned_province = {
				limit = {
					is_overseas = no
					is_core = owner
					OR = {
						AND = {
							owner = { has_unified_culture_group = yes }
							culture_group = owner
						}
						has_owner_accepted_culture = yes
					}
					development = 10
				}
				set_seat_in_parliament = yes
			}
			random_list = {
				30 = {}
				40 = {
					subtract_stability_points_50 = yes
				}
				30 = {
					subtract_stability_1 = yes
				}
			}
		}
		add_province_modifier = {
			name = "withdrawn_parliamentary_seat"
			duration = 3650
		}
	}
}

#Rotten Borough 2
#Punishes awarding seat to poor and easily bribed provinces.
province_event = {
	id = parlaments.3
	
	title = parlaments.2.t
	desc = parlaments.2.d
	picture = PARLIAMENT_eventPicture
	
	trigger = {
		has_dlc = "Common Sense"
		owner = {
			has_parliament = yes
		}
		has_seat_in_parliament = yes
		is_capital = no
		is_year = 1500
		NOT = { has_province_modifier = rotten_borough }
		NOT = { development = 20 }
		owner = {
			any_owned_province = {
				development = 20
				is_core = owner
				has_seat_in_parliament = no
				is_overseas = no
				OR = {
					AND = {
						owner = { has_unified_culture_group = yes }
						culture_group = owner
					}
					has_owner_accepted_culture = yes
				}
			}
		}
	}
	
	is_mtth_scaled_to_size = 1
	
	mean_time_to_happen = {
		years = 33
		modifier = {
			factor = 0.8
			NOT = { development = 6 }
		}
		modifier = {
			factor = 0.7
			NOT = { development = 4 }
		}
	}
	
	option = {
		name = parlaments.2.a
		ai_chance = {
			factor = 50
		}
		add_province_modifier = {
			name = "rotten_borough"
			duration = -1
		}
	}
	option = {
		name = parlaments.2.b
		ai_chance = {
			factor = 50
			modifier = {
				factor = 4
				owner = {
					num_of_owned_provinces_with = {
						value = 2
						has_province_modifier = "rotten_borough"
					}
				}
			}
		}
		set_seat_in_parliament = no
		owner = {
			random_owned_province = {
				limit = {
					development = 20
					is_core = owner
					is_overseas = no
					OR = {
						AND = {
							owner = { has_unified_culture_group = yes }
							culture_group = owner
						}
						has_owner_accepted_culture = yes
					}
				}
				set_seat_in_parliament = yes
			}
			random_list = {
				30 = {}
				40 = {
					subtract_stability_points_50 = yes
				}
				30 = {
					subtract_stability_1 = yes
				}
			}
		}
		add_province_modifier = {
			name = "withdrawn_parliamentary_seat"
			duration = 3650
		}
	}
}

#Corruption of Vote
province_event = {
	id = parlaments.4
	
	title = parlaments.4.t
	desc = parlaments.4.d
	picture = PARLIAMENT_eventPicture
	
	trigger = {
		has_dlc = "Common Sense"
		has_province_modifier = rotten_borough
		has_seat_in_parliament = yes
		is_backing_current_issue = yes
	}
	
	is_mtth_scaled_to_size = 1
	
	mean_time_to_happen = {
		years = 10
		modifier = {
			factor = 0.5
			owner = { percentage_backing_issue = 0.5 }
		}
	}
	
	option = {
		name = parlaments.4.a #Rotten
		back_current_issue = no
	}
	option = {
		name = parlaments.4.b #Bribe the Landowner
		owner = { add_years_of_income = -0.1 }
	}
}

#Seat Switches to being in favour of debated issue
#Events 5 - 10

#University supports University funding
province_event = {
	id = parlaments.5
	
	title = parlaments.5.t
	desc = parlaments.5.d
	picture = PARLIAMENT_eventPicture
	
	trigger = {
		has_dlc = "Common Sense"
		university_province_trigger = yes
		NOT = { has_province_modifier = rotten_borough }
		has_seat_in_parliament = yes
		owner = { has_active_debate = yes }
		is_backing_current_issue = no
		owner = { current_debate = charter_university }
	}
	
	is_mtth_scaled_to_size = 1
	
	mean_time_to_happen = {
		years = 10
		modifier = {
			factor = 0.5
			owner = { NOT = { percentage_backing_issue = 0.1 } }
		}
		modifier = {
			factor = 0.5
			owner = { NOT = { percentage_backing_issue = 0.25 } }
		}
		modifier = {
			factor = 0.5
			owner = { NOT = { percentage_backing_issue = 0.5 } }
		}
		modifier = {
			factor = 1.5
			owner = { percentage_backing_issue = 0.5 }
		}
		modifier = {
			factor = 1.5
			owner = { percentage_backing_issue = 0.7 }
		}
	}
	
	option = {
		name = parlaments.5.a #
		back_current_issue = yes
	}
}

#Seafaring province supports seafaring issues
province_event = {
	id = parlaments.6
	
	title = parlaments.6.t
	desc = parlaments.6.d
	picture = PARLIAMENT_eventPicture
	
	trigger = {
		has_dlc = "Common Sense"
		has_seat_in_parliament = yes
		NOT = { has_province_modifier = rotten_borough }
		has_port = yes
		owner = { has_active_debate = yes }
		is_backing_current_issue = no
		OR = {
			owner = { current_debate = expand_navy }
			owner = { current_debate = charter_trade_companies }
			owner = { current_debate = impressment_of_sailors }
			owner = { current_debate = issue_letters_of_marque }
		}
	}
	
	is_mtth_scaled_to_size = 1
	
	mean_time_to_happen = {
		years = 10
		modifier = {
			factor = 0.5
			owner = { NOT = { percentage_backing_issue = 0.1 } }
		}
		modifier = {
			factor = 0.5
			owner = { NOT = { percentage_backing_issue = 0.25 } }
		}
		modifier = {
			factor = 0.5
			owner = { NOT = { percentage_backing_issue = 0.5 } }
		}
		modifier = {
			factor = 1.5
			owner = { percentage_backing_issue = 0.5 }
		}
		modifier = {
			factor = 1.5
			owner = { percentage_backing_issue = 0.75 }
		}
		modifier = {
			factor = 1.8
			owner = { percentage_backing_issue = 0.9 }
		}
	}
	
	option = {
		name = parlaments.6.a #
		back_current_issue = yes
	}
}

#Recruitment centre or fortified province supports military issues
province_event = {
	id = parlaments.7
	
	title = parlaments.7.t
	desc = parlaments.7.d
	picture = PARLIAMENT_eventPicture
	
	trigger = {
		has_dlc = "Common Sense"
		has_seat_in_parliament = yes
		NOT = { has_province_modifier = rotten_borough }
		OR = {
			has_building = fort_14th
			has_building = fort_15th
			has_building = fort_16th
			has_building = fort_17th
		}
		owner = { has_active_debate = yes }
		is_backing_current_issue = no
		OR = {
			owner = { current_debate = backing_war_effort }
			owner = { current_debate = expand_the_army }
			owner = { current_debate = extended_peacetime_officer_commissions }
			owner = { current_debate = fortification_tax }
			owner = { current_debate = quartering_of_troops }
		}
	}
	
	is_mtth_scaled_to_size = 1
	
	mean_time_to_happen = {
		years = 13
		modifier = {
			factor = 0.5
			owner = { NOT = { percentage_backing_issue = 0.1 } }
		}
		modifier = {
			factor = 0.5
			owner = { NOT = { percentage_backing_issue = 0.25 } }
		}
		modifier = {
			factor = 0.5
			owner = { NOT = { percentage_backing_issue = 0.5 } }
		}
		modifier = {
			factor = 1.5
			owner = { percentage_backing_issue = 0.5 }
		}
		modifier = {
			factor = 1.5
			owner = { percentage_backing_issue = 0.75 }
		}
		modifier = {
			factor = 1.8
			owner = { percentage_backing_issue = 0.9 }
		}
	}
	
	option = {
		name = parlaments.7.a #
		back_current_issue = yes
	}
}

#Production province supports Mercantilism
province_event = {
	id = parlaments.8
	
	title = parlaments.8.t
	desc = parlaments.8.d
	picture = PARLIAMENT_eventPicture
	
	trigger = {
		has_dlc = "Common Sense"
		has_seat_in_parliament = yes
		NOT = { has_province_modifier = rotten_borough }
		OR = {
			has_building = steam_powered_factory
			has_building = factory
			has_building = workshop
			has_building = rural_infrastructure_1
			has_building = rural_infrastructure_2
			has_building = rural_infrastructure_3
			has_building = rural_infrastructure_4
			has_building = rural_infrastructure_5
			has_building = rural_infrastructure_6
			has_building = rural_infrastructure_7
			base_production = 10
		}
		owner = { has_active_debate = yes }
		is_backing_current_issue = no
		owner = { current_debate = imports_exports }
	}
	
	is_mtth_scaled_to_size = 1
	
	mean_time_to_happen = {
		years = 13
		modifier = {
			factor = 0.5
			owner = { NOT = { percentage_backing_issue = 0.1 } }
		}
		modifier = {
			factor = 0.5
			owner = { NOT = { percentage_backing_issue = 0.25 } }
		}
		modifier = {
			factor = 0.5
			owner = { NOT = { percentage_backing_issue = 0.5 } }
		}
		modifier = {
			factor = 1.5
			owner = { percentage_backing_issue = 0.5 }
		}
		modifier = {
			factor = 1.5
			owner = { percentage_backing_issue = 0.75 }
		}
		modifier = {
			factor = 1.8
			owner = { percentage_backing_issue = 0.9 }
		}
	}
	
	option = {
		name = parlaments.8.a #
		back_current_issue = yes
	}
}

#Capital supports expansion of Administration and Centralization
province_event = {
	id = parlaments.9
	
	title = parlaments.9.t
	desc = parlaments.9.d
	picture = PARLIAMENT_eventPicture
	
	trigger = {
		has_dlc = "Common Sense"
		has_seat_in_parliament = yes
		is_capital = yes
		owner = { has_active_debate = yes }
		is_backing_current_issue = no
		OR = {
			owner = { current_debate = fund_expansion_of_bureaucracy }
			owner = { current_debate = expand_diplomatic_corps }
			owner = { current_debate = administrative_reform }
			owner = { current_debate = government_debt_reduction }
		}
	}
	
	is_mtth_scaled_to_size = 1
	
	mean_time_to_happen = {
		years = 13
		modifier = {
			factor = 0.5
			owner = { NOT = { percentage_backing_issue = 0.1 } }
		}
		modifier = {
			factor = 0.5
			owner = { NOT = { percentage_backing_issue = 0.25 } }
		}
		modifier = {
			factor = 0.5
			owner = { NOT = { percentage_backing_issue = 0.5 } }
		}
		modifier = {
			factor = 1.5
			owner = { percentage_backing_issue = 0.5 }
		}
		modifier = {
			factor = 1.5
			owner = { percentage_backing_issue = 0.75 }
		}
		modifier = {
			factor = 1.8
			owner = { percentage_backing_issue = 0.9 }
		}
	}
	
	option = {
		name = parlaments.9.a #
		back_current_issue = yes
	}
}

#Somewhat random Switch
province_event = {
	id = parlaments.10
	
	title = parlaments.10.t
	desc = parlaments.10.d
	picture = PARLIAMENT_eventPicture
	
	trigger = {
		has_dlc = "Common Sense"
		has_seat_in_parliament = yes
		NOT = { has_province_modifier = rotten_borough }
		owner = {
			has_active_debate = yes
			NOT = { stability = 0 }
		}
		is_backing_current_issue = no
	}
	
	is_mtth_scaled_to_size = 1
	
	mean_time_to_happen = {
		years = 15
		modifier = {
			factor = 0.5
			owner = { NOT = { percentage_backing_issue = 0.1 } }
		}
		modifier = {
			factor = 0.5
			owner = { NOT = { percentage_backing_issue = 0.25 } }
		}
		modifier = {
			factor = 0.5
			owner = { NOT = { percentage_backing_issue = 0.5 } }
		}
		modifier = {
			factor = 1.5
			owner = { percentage_backing_issue = 0.5 }
		}
		modifier = {
			factor = 1.5
			owner = { percentage_backing_issue = 0.75 }
		}
		modifier = {
			factor = 1.8
			owner = { percentage_backing_issue = 0.9 }
		}
	}
	
	option = {
		name = parlaments.10.a #
		back_current_issue = yes
	}
}

#We trust the Ruler
province_event = {
	id = parlaments.29
	
	title = parlaments.29.t
	desc = parlaments.29.d
	picture = PARLIAMENT_eventPicture
	
	trigger = {
		has_dlc = "Common Sense"
		has_seat_in_parliament = yes
		NOT = { has_province_modifier = rotten_borough }
		owner = {
			has_active_debate = yes
			OR = {
				legitimacy = 80
				republican_tradition = 80
			}
		}
		is_backing_current_issue = no
	}
	
	is_mtth_scaled_to_size = 1
	
	mean_time_to_happen = {
		years = 15
		modifier = {
			factor = 0.5
			owner = { NOT = { percentage_backing_issue = 0.1 } }
		}
		modifier = {
			factor = 0.5
			owner = { NOT = { percentage_backing_issue = 0.25 } }
		}
		modifier = {
			factor = 0.5
			owner = { NOT = { percentage_backing_issue = 0.5 } }
		}
		modifier = {
			factor = 1.5
			owner = { percentage_backing_issue = 0.5 }
		}
		modifier = {
			factor = 1.5
			owner = { percentage_backing_issue = 0.75 }
		}
		modifier = {
			factor = 1.8
			owner = { percentage_backing_issue = 0.9 }
		}
	}
	
	option = {
		name = parlaments.29.a #
		back_current_issue = yes
	}
}

#Seat Switches to against current issue
#Events 11 - 17

#Random Switch
province_event = {
	id = parlaments.11
	
	title = parlaments.11.t
	desc = parlaments.11.d
	picture = PARLIAMENT_eventPicture
	
	trigger = {
		has_dlc = "Common Sense"
		has_seat_in_parliament = yes
		NOT = { has_province_modifier = rotten_borough }
		owner = { has_active_debate = yes }
		is_backing_current_issue = yes
	}
	
	is_mtth_scaled_to_size = 1
	
	mean_time_to_happen = {
		years = 13
		modifier = {
			factor = 1.5
			owner = { NOT = { percentage_backing_issue = 0.1 } }
		}
		modifier = {
			factor = 1.5
			owner = { NOT = { percentage_backing_issue = 0.25 } }
		}
		modifier = {
			factor = 1.5
			owner = { NOT = { percentage_backing_issue = 0.5 } }
		}
		modifier = {
			factor = 0.8
			owner = { percentage_backing_issue = 0.5 }
		}
		modifier = {
			factor = 0.7
			owner = { percentage_backing_issue = 0.75 }
		}
		modifier = {
			factor = 0.6
			owner = { percentage_backing_issue = 0.9 }
		}
	}
	
	option = {
		name = parlaments.11.a #
		back_current_issue = no
	}
}

#We don't trust the ruler.
province_event = {
	id = parlaments.30
	
	title = parlaments.30.t
	desc = parlaments.30.d
	picture = PARLIAMENT_eventPicture
	
	trigger = {
		has_dlc = "Common Sense"
		has_seat_in_parliament = yes
		NOT = { has_province_modifier = rotten_borough }
		owner = {
			has_active_debate = yes
		}
		is_backing_current_issue = yes
	}
	
	is_mtth_scaled_to_size = 1
	
	mean_time_to_happen = {
		years = 15
		modifier = {
			factor = 1.5
			owner = { NOT = { percentage_backing_issue = 0.1 } }
		}
		modifier = {
			factor = 1.5
			owner = { NOT = { percentage_backing_issue = 0.25 } }
		}
		modifier = {
			factor = 1.5
			owner = { NOT = { percentage_backing_issue = 0.5 } }
		}
		modifier = {
			factor = 0.8
			owner = { percentage_backing_issue = 0.5 }
		}
		modifier = {
			factor = 0.7
			owner = { percentage_backing_issue = 0.75 }
		}
		modifier = {
			factor = 0.6
			owner = { percentage_backing_issue = 0.9 }
		}
		modifier = {
			factor = 0.8
			owner = {
				government = monarchy
				NOT = { legitimacy = 80 }
			}
		}
		modifier = {
			factor = 0.8
			owner = {
				government = monarchy
				NOT = { legitimacy = 65 }
			}
		}
		modifier = {
			factor = 1.2
			owner = {
				government = monarchy
				legitimacy = 85
			}
		}
		modifier = {
			factor = 1.5
			owner = {
				government = monarchy
				legitimacy = 100
			}
		}
		modifier = {
			factor = 0.8
			owner = {
				government = republic
				NOT = { republican_tradition = 80 }
			}
		}
		modifier = {
			factor = 0.8
			owner = {
				government = republic
				NOT = { republican_tradition = 65 }
			}
		}
		modifier = {
			factor = 1.2
			owner = {
				government = republic
				republican_tradition = 85
			}
		}
		modifier = {
			factor = 1.5
			owner = {
				government = republic
				republican_tradition = 100
			}
		}
	}
	
	option = {
		name = parlaments.30.a #
		back_current_issue = no
	}
}

#Rotten Borough Attempting to Protect itself
province_event = {
	id = parlaments.12
	
	title = parlaments.12.t
	desc = parlaments.12.d
	picture = PARLIAMENT_eventPicture
	
	trigger = {
		has_dlc = "Common Sense"
		has_seat_in_parliament = yes
		has_province_modifier = rotten_borough
		owner = { has_active_debate = yes }
		is_backing_current_issue = yes
		owner = { current_debate = parliamentary_reform }
	}
	
	mean_time_to_happen = { years = 7 }
	
	option = {
		name = parlaments.12.a #
		back_current_issue = no
	}
}

#Capital seat against sharing power
province_event = {
	id = parlaments.13
	
	title = parlaments.13.t
	desc = parlaments.13.d
	picture = PARLIAMENT_eventPicture
	
	trigger = {
		has_dlc = "Common Sense"
		has_seat_in_parliament = yes
		owner = { has_active_debate = yes }
		is_backing_current_issue = yes
		is_capital = yes
		OR = {
			owner = { current_debate = integration_of_minorities }
			owner = { current_debate = offices_to_vassals }
			owner = { current_debate = harmonization_of_laws }
		}
	}
	
	is_mtth_scaled_to_size = 1
	
	mean_time_to_happen = {
		years = 13
		modifier = {
			factor = 1.5
			owner = { NOT = { percentage_backing_issue = 0.1 } }
		}
		modifier = {
			factor = 1.5
			owner = { NOT = { percentage_backing_issue = 0.25 } }
		}
		modifier = {
			factor = 1.5
			owner = { NOT = { percentage_backing_issue = 0.5 } }
		}
		modifier = {
			factor = 0.8
			owner = { percentage_backing_issue = 0.5 }
		}
		modifier = {
			factor = 0.7
			owner = { percentage_backing_issue = 0.75 }
		}
		modifier = {
			factor = 0.6
			owner = { percentage_backing_issue = 0.9 }
		}
	}
	
	option = {
		name = parlaments.13.a #
		back_current_issue = no
	}
}

#Production province opposes Free Trade
province_event = {
	id = parlaments.14
	
	title = parlaments.14.t
	desc = parlaments.14.d
	picture = PARLIAMENT_eventPicture
	
	trigger = {
		has_dlc = "Common Sense"
		has_seat_in_parliament = yes
		OR = {
			has_building = steam_powered_factory
			has_building = factory
			has_building = workshop
			has_building = rural_infrastructure_1
			has_building = rural_infrastructure_2
			has_building = rural_infrastructure_3
			has_building = rural_infrastructure_4
			has_building = rural_infrastructure_5
			has_building = rural_infrastructure_6
			has_building = rural_infrastructure_7
			base_production = 10
		}
		owner = { has_active_debate = yes }
		is_backing_current_issue = yes
		owner = { current_debate = reduce_trade_regulations }
	}
	
	is_mtth_scaled_to_size = 1
	
	mean_time_to_happen = {
		years = 13
		modifier = {
			factor = 1.5
			owner = { NOT = { percentage_backing_issue = 0.1 } }
		}
		modifier = {
			factor = 1.5
			owner = { NOT = { percentage_backing_issue = 0.25 } }
		}
		modifier = {
			factor = 1.5
			owner = { NOT = { percentage_backing_issue = 0.5 } }
		}
		modifier = {
			factor = 0.8
			owner = { percentage_backing_issue = 0.5 }
		}
		modifier = {
			factor = 0.7
			owner = { percentage_backing_issue = 0.75 }
		}
		modifier = {
			factor = 0.6
			owner = { percentage_backing_issue = 0.9 }
		}
	}
	
	option = {
		name = parlaments.14.a #
		back_current_issue = no
	}
}

#Recruitment centre or fortified province opposes naval spending
province_event = {
	id = parlaments.15
	
	title = parlaments.15.t
	desc = parlaments.15.d
	picture = PARLIAMENT_eventPicture
	
	trigger = {
		has_dlc = "Common Sense"
		has_seat_in_parliament = yes
		OR = {
			# has_building = armory
			has_building = barracks
			has_building = regimental_camp
			has_building = training_fields
			has_building = conscription_center
			has_building = arsenal
			has_building = fort_14th
			has_building = fort_15th
			has_building = fort_16th
			has_building = fort_17th
			base_manpower = 8
		}
		owner = { has_active_debate = yes }
		is_backing_current_issue = yes
		OR = {
			owner = { current_debate = expand_navy }
			owner = { current_debate = charter_trade_companies }
			owner = { current_debate = impressment_of_sailors }
			owner = { current_debate = issue_letters_of_marque }
		}
	}
	
	is_mtth_scaled_to_size = 1
	
	mean_time_to_happen = {
		years = 13
		modifier = {
			factor = 1.5
			owner = { NOT = { percentage_backing_issue = 0.1 } }
		}
		modifier = {
			factor = 1.5
			owner = { NOT = { percentage_backing_issue = 0.25 } }
		}
		modifier = {
			factor = 1.5
			owner = { NOT = { percentage_backing_issue = 0.5 } }
		}
		modifier = {
			factor = 0.8
			owner = { percentage_backing_issue = 0.5 }
		}
		modifier = {
			factor = 0.7
			owner = { percentage_backing_issue = 0.75 }
		}
		modifier = {
			factor = 0.6
			owner = { percentage_backing_issue = 0.9 }
		}
	}
	
	option = {
		name = parlaments.15.a #
		back_current_issue = no
	}
}


#Naval province opposes increasing military spending
province_event = {
	id = parlaments.16
	
	title = parlaments.16.t
	desc = parlaments.16.d
	picture = PARLIAMENT_eventPicture
	
	trigger = {
		has_dlc = "Common Sense"
		has_seat_in_parliament = yes
		OR = {
			has_port = yes
			has_harbour_infrastructure_1 = yes
			has_building = shipyard
			has_building = grand_shipyard
			has_building = naval_arsenal
			has_building = marketplace
		}
		owner = { has_active_debate = yes }
		is_backing_current_issue = yes
		OR = {
			owner = { current_debate = backing_war_effort }
			owner = { current_debate = expand_the_army }
			owner = { current_debate = extended_peacetime_officer_commissions }
			owner = { current_debate = fortification_tax }
			owner = { current_debate = quartering_of_troops }
		}
	}
	
	is_mtth_scaled_to_size = 1
	
	mean_time_to_happen = {
		years = 13
		modifier = {
			factor = 1.5
			owner = { NOT = { percentage_backing_issue = 0.1 } }
		}
		modifier = {
			factor = 1.5
			owner = { NOT = { percentage_backing_issue = 0.25 } }
		}
		modifier = {
			factor = 1.5
			owner = { NOT = { percentage_backing_issue = 0.5 } }
		}
		modifier = {
			factor = 0.8
			owner = { percentage_backing_issue = 0.5 }
		}
		modifier = {
			factor = 0.7
			owner = { percentage_backing_issue = 0.75 }
		}
		modifier = {
			factor = 0.6
			owner = { percentage_backing_issue = 0.9 }
		}
	}
	
	option = {
		name = parlaments.16.a #
		back_current_issue = no
	}
}

#Opposition to census and land surveys
province_event = {
	id = parlaments.17
	
	title = parlaments.17.t
	desc = parlaments.17.d
	picture = PARLIAMENT_eventPicture
	
	trigger = {
		has_dlc = "Common Sense"
		has_seat_in_parliament = yes
		owner = { has_active_debate = yes }
		is_backing_current_issue = yes
		# Temp fixes as the following flags are not in M&T
		#OR = {
		# owner = { current_debate = nationwide_land_survey }
		# owner = { current_debate = nationwide_census }
		# owner = { current_debate = appropriation_of_land }
		owner = { current_debate = development_of_infrastructure } #Land Reform
		#}
		OR = {
			base_tax = 8
			base_production = 8
			base_manpower = 8
		}
	}
	
	is_mtth_scaled_to_size = 1
	
	mean_time_to_happen = {
		years = 13
		modifier = {
			factor = 1.5
			owner = { NOT = { percentage_backing_issue = 0.1 } }
		}
		modifier = {
			factor = 1.5
			owner = { NOT = { percentage_backing_issue = 0.25 } }
		}
		modifier = {
			factor = 1.5
			owner = { NOT = { percentage_backing_issue = 0.5 } }
		}
		modifier = {
			factor = 0.8
			owner = { percentage_backing_issue = 0.5 }
		}
		modifier = {
			factor = 0.7
			owner = { percentage_backing_issue = 0.75 }
		}
		modifier = {
			factor = 0.6
			owner = { percentage_backing_issue = 0.9 }
		}
	}
	
	option = {
		name = parlaments.17.a #
		back_current_issue = no
	}
}

#Other minor vote changing events:
#University positive to counting and measuring the land
province_event = {
	id = parlaments.18
	
	title = parlaments.18.t
	desc = parlaments.18.d
	picture = PARLIAMENT_eventPicture
	
	trigger = {
		has_dlc = "Common Sense"
		has_seat_in_parliament = yes
		owner = { has_active_debate = yes }
		is_backing_current_issue = no
		
		# Temp fix as the following are not in M&T
		#OR = {
		# owner = { current_debate = nationwide_land_survey }
		# owner = { current_debate = nationwide_census }
		#}
		university_province_trigger = yes
	}
	
	is_mtth_scaled_to_size = 1
	
	mean_time_to_happen = {
		years = 13
		modifier = {
			factor = 0.8
			owner = {
				adm_tech = 20
			}
		}
		modifier = {
			factor = 1.5
			owner = { NOT = { percentage_backing_issue = 0.1 } }
		}
		modifier = {
			factor = 1.5
			owner = { NOT = { percentage_backing_issue = 0.25 } }
		}
		modifier = {
			factor = 1.5
			owner = { NOT = { percentage_backing_issue = 0.5 } }
		}
		modifier = {
			factor = 0.8
			owner = { percentage_backing_issue = 0.5 }
		}
		modifier = {
			factor = 0.7
			owner = { percentage_backing_issue = 0.75 }
		}
		modifier = {
			factor = 0.6
			owner = { percentage_backing_issue = 0.9 }
		}
	}
	
	option = {
		name = parlaments.18.a #
		back_current_issue = yes
	}
}

#Nobody likes taxes
province_event = {
	id = parlaments.19
	
	title = parlaments.19.t
	desc = parlaments.19.d
	picture = PARLIAMENT_eventPicture
	
	trigger = {
		has_dlc = "Common Sense"
		has_seat_in_parliament = yes
		owner = { has_active_debate = yes }
		is_backing_current_issue = yes
		owner = { current_debate = increase_taxes }
	}
	
	is_mtth_scaled_to_size = 1
	
	mean_time_to_happen = {
		years = 13
		modifier = {
			factor = 0.5
			is_looted = yes
		}
		modifier = {
			factor = 0.5
			NOT = { development = 14 } #Poor
		}
		modifier = {
			factor = 1.5
			owner = { NOT = { percentage_backing_issue = 0.1 } }
		}
		modifier = {
			factor = 1.5
			owner = { NOT = { percentage_backing_issue = 0.25 } }
		}
		modifier = {
			factor = 1.5
			owner = { NOT = { percentage_backing_issue = 0.5 } }
		}
		modifier = {
			factor = 0.8
			owner = { percentage_backing_issue = 0.5 }
		}
		modifier = {
			factor = 0.7
			owner = { percentage_backing_issue = 0.75 }
		}
		modifier = {
			factor = 0.6
			owner = { percentage_backing_issue = 0.9 }
		}
	}
	
	option = {
		name = parlaments.19.a #
		back_current_issue = no
	}
}

#What happens in Parliament

#Uncomfortable MPs
country_event = {
	id = parlaments.20
	
	title = parlaments.20.t
	desc = parlaments.20.d
	picture = PARLIAMENT_eventPicture
	
	trigger = {
		has_dlc = "Common Sense"
		has_active_debate = yes #MPs are in the capital
		any_owned_province = {
			is_backing_current_issue = yes
		}
	}
	
	mean_time_to_happen = {
		years = 25
		modifier = {
			factor = 1.5
			NOT = { percentage_backing_issue = 0.5 }
		}
		modifier = {
			factor = 0.7
			percentage_backing_issue = 0.5
		}
	}
	
	option = {
		name = parlaments.20.a #
		add_years_of_income = -0.1
	}
	
	option = {
		name = parlaments.20.b #
		random_owned_province = {
			limit = {
				has_seat_in_parliament = yes
				is_backing_current_issue = yes
			}
			back_current_issue = no
		}
	}
}

#Scandal
country_event = {
	id = parlaments.21
	
	title = parlaments.21.t
	desc = parlaments.21.d
	picture = PARLIAMENT_eventPicture
	
	trigger = {
		has_dlc = "Common Sense"
		has_active_debate = yes #MPs are in the capital
		any_owned_province = {
			is_capital = no
			is_backing_current_issue = yes
		}
		NOT = {
			capital_scope = {
				has_province_modifier = parliamentary_scandal
			}
		}
	}
	
	mean_time_to_happen = {
		years = 58
		modifier = {
			factor = 1.5
			NOT = { percentage_backing_issue = 0.5 }
		}
		modifier = {
			factor = 0.7
			percentage_backing_issue = 0.5
		}
	}
	
	option = {
		name = parlaments.21.a #
		add_prestige = -10
		capital_scope = {
			add_province_modifier = {
				name = "parliamentary_scandal"
				duration = 1825
			}
		}
	}
	
	option = {
		name = parlaments.21.b #
		random_owned_province = {
			limit = {
				has_seat_in_parliament = yes
				is_backing_current_issue = yes
				is_capital = no
			} #The Punished MP will not support the state.
			back_current_issue = no
		}
	}
}

#Absenteeism
country_event = {
	id = parlaments.22
	
	title = parlaments.22.t
	desc = parlaments.22.d
	picture = PARLIAMENT_eventPicture
	
	trigger = {
		has_dlc = "Common Sense"
		has_active_debate = yes #MPs are in the capital
		any_owned_province = {
			is_backing_current_issue = yes
		}
	}
	
	mean_time_to_happen = {
		years = 33
		modifier = {
			factor = 1.5
			NOT = { percentage_backing_issue = 0.5 }
		}
		modifier = {
			factor = 0.7
			percentage_backing_issue = 0.5
		}
	}
	
	option = {
		name = parlaments.22.a #Fine the worst excesses
		random_owned_province = {
			limit = {
				has_seat_in_parliament = yes
				is_backing_current_issue = yes
			} #The Punished MP will not support the state.
			back_current_issue = no
			hidden_effect = {
				set_variable = { which = added_unrest value = 5 }
				add_base_unrest = yes
			}
			custom_tooltip = added_unrest_5
		}
		random_owned_province = {
			limit = {
				has_seat_in_parliament = yes
				is_backing_current_issue = yes
			} #The Punished MP will not support the state.
			back_current_issue = no
			hidden_effect = {
				set_variable = { which = added_unrest value = 5 }
				add_base_unrest = yes
			}
			custom_tooltip = added_unrest_5
		}
		add_years_of_income = 0.05
	}
	
	option = {
		name = parlaments.22.b #
		add_prestige = -10
	}
}

#Events for countries that haven't got parliaments but could

province_event = {
	id = parlaments.26
	
	title = parlaments.26.t
	desc = parlaments.26.d
	picture = PARLIAMENT_eventPicture
	
	is_mtth_scaled_to_size = 1
	
	trigger = {
		has_dlc = "Common Sense"
		has_seat_in_parliament = yes
		NOT = { has_province_modifier = rotten_borough }
		owner = { has_active_debate = yes }
		is_backing_current_issue = yes
	}
	
	mean_time_to_happen = { years = 33 }
	
	option = {
		name = parlaments.26.a #
		owner = {
			add_years_of_income = 0.05
		}
	}
}

province_event = {
	id = parlaments.27
	
	title = parlaments.27.t
	desc = parlaments.27.d
	picture = PARLIAMENT_eventPicture
	
	is_mtth_scaled_to_size = 1
	
	trigger = {
		has_dlc = "Common Sense"
		has_seat_in_parliament = yes
		NOT = { has_province_modifier = rotten_borough }
		owner = { has_active_debate = yes }
		is_backing_current_issue = yes
	}
	
	mean_time_to_happen = { years = 33 }
	
	option = {
		name = parlaments.27.a #
		owner = {
			add_legitimacy = 10
			add_republican_tradition = 5
		}
	}
}

province_event = {
	id = parlaments.28
	
	title = parlaments.28.t
	desc = parlaments.28.d
	picture = PARLIAMENT_eventPicture
	
	is_mtth_scaled_to_size = 1
	
	trigger = {
		has_dlc = "Common Sense"
		has_seat_in_parliament = yes
		NOT = { has_province_modifier = rotten_borough }
		owner = { has_active_debate = yes }
		is_backing_current_issue = yes
	}
	
	mean_time_to_happen = { years = 33 }
	
	option = {
		name = parlaments.28.a #
		owner = {
			add_adm_power = 50
		}
	}
}