######################################################
# Trade Policy Events								 #
#                         							 #
# Written by Henrik Lohmander						 #
######################################################

namespace = trade_policy_events

#Foreign Quarter
country_event = {
	id = trade_policy_events.1
	title = trade_policy_events.1.t
	desc = trade_policy_events.1.d
	picture = TRADE_GOODS_eventPicture
	
	trigger = {
		has_dlc = "Cradle of Civilization"
		any_owned_province = {
			NOT = { has_province_modifier = foreign_merchant_community }
			base_production = 1
			OR = {
				has_building = merchant_guild
				has_building = trade_depot
				has_building = customs_house
				has_building = stock_exchange
				has_province_flag = trade_center_modifier_has
			}
		}
		any_active_trade_node = {
			any_country = {
				NOT = { tag = ROOT }
				trading_policy_in_node = {
					node = PREV
					policy = establish_communities
				}
			}
			any_trade_node_member_province = {
				owned_by = ROOT
				base_production = 1
				OR = {
					has_building = merchant_guild
					has_building = trade_depot
					has_building = customs_house
					has_building = stock_exchange
					has_province_flag = trade_center_modifier_has
				}
			}
		}
	}
	
	immediate = {
		hidden_effect = {
			random_active_trade_node = {
				limit = {
					any_country = {
						NOT = { tag = ROOT }
						trading_policy_in_node = {
							node = PREV
							policy = establish_communities
						}
					}
					any_trade_node_member_province = {
						owned_by = ROOT
						base_production = 1
						OR = {
							has_building = merchant_guild
							has_building = trade_depot
							has_building = customs_house
							has_building = stock_exchange
							has_province_flag = trade_center_modifier_has
						}
					}
				}
				random_country = {
					limit = {
						NOT = { tag = ROOT }
						trading_policy_in_node = {
							node = PREV
							policy = establish_communities
						}
					}
					save_event_target_as = community_country
				}
				random_trade_node_member_province = {
					limit = {
						owned_by = ROOT
						base_production = 1
						OR = {
							has_building = merchant_guild
							has_building = trade_depot
							has_building = customs_house
							has_building = stock_exchange
							has_province_flag = trade_center_modifier_has
						}
					}
					save_event_target_as = quarter_city
				}
				
			}
			
		}
	}

	mean_time_to_happen = {
		months = 560
	}
	
	option = {
		name = trade_policy_events.1.a #No we should encourage the foreign community
		event_target:community_country = {
			add_opinion = {
				modifier = growing_merchant_community
				who = ROOT
			}
		}
		event_target:quarter_city = {
			add_province_modifier = {
				name = "foreign_merchant_community"
				duration = 3650
			}
		}
	}
	option = {
		name = trade_policy_events.1.b #
		event_target:community_country = {
			add_opinion = {
				modifier = merchants_discriminated
				who = ROOT
			}
		}
		event_target:quarter_city = {
			add_province_modifier = {
				name = "foreign_merchants_discriminated"
				duration = 3650
			}
		}
	}
}

#Fashions of the Capital
country_event = {
	id = trade_policy_events.2
	title = trade_policy_events.2.t
	desc = trade_policy_events.2.d
	picture = TRADE_GOODS_eventPicture
	
	trigger = {
		has_dlc = "Cradle of Civilization"
		any_active_trade_node = {
			ROOT = {
				trading_policy_in_node = {
					node = PREV
					policy = establish_communities
				}
			}
			any_trade_node_member_province = {
				NOT = { owned_by = ROOT }
				NOT = { has_province_modifier = local_goods_in_demand }
				base_production = 1
				OR = {
					has_province_flag = gems
					has_province_flag = gold
					has_province_flag = urban_goods_rank_3
				}
				owner = {
					NOT = { war_with = ROOT }
				}
			}
		}
	}
	
	immediate = {
		hidden_effect = {
			random_active_trade_node = {
				limit = {
					ROOT = {
						trading_policy_in_node = {
							node = PREV
							policy = establish_communities
						}
					}
					any_trade_node_member_province = {
						NOT = { owned_by = ROOT }
						NOT = { has_province_modifier = local_goods_in_demand }
						base_production = 1
						OR = {
							has_province_flag = gems
							has_province_flag = gold
							has_province_flag = urban_goods_rank_3
						}
						owner = {
							NOT = { war_with = ROOT }
						}
					}
				}
				random_trade_node_member_province = {
					limit = {
						NOT = { owned_by = ROOT }
						NOT = { has_province_modifier = local_goods_in_demand }
						base_production = 1
						OR = {
							has_province_flag = gems
							has_province_flag = gold
							has_province_flag = urban_goods_rank_3
						}
						owner = {
							NOT = { war_with = ROOT }
						}
					}
					save_event_target_as = trade_province
					owner = { save_event_target_as = trade_province_country }
				}
			}
			set_variable = { 	which = burghers_loyalty_removed_a 	value = 5 }
			set_variable = { 	which = burghers_loyalty_added_a 	value = 5 }
		}
	}

	mean_time_to_happen = {
		months = 560
	}
	
	option = {
		name = trade_policy_events.2.a #Money for us, province modifier for them.
		add_estate_burghers_loyalty_effect = { id=a }
		add_years_of_income = 0.2
		event_target:trade_province_country = {
			add_opinion = {
				modifier = making_us_rich
				who = ROOT
			}
			hidden_effect = { country_event = { id = trade_policy_events.3 } }
		}
		tooltip = {
			event_target:trade_province = {
				add_province_modifier = {
					name = "local_goods_in_demand"
					duration = 5475
				}
			}
		}
	}
	option = {
		name = trade_policy_events.2.b #Just sour merchants.
		reduce_estate_burghers_loyalty_effect = { id=a }
		event_target:trade_province_country = {
			add_opinion = {
				modifier = meddled_in_trade
				who = ROOT
			}
		}
	}
}

#[From.GetAdjective] Demand and [Root.GetAdjective] Supply
country_event = {
	id = trade_policy_events.3
	title = trade_policy_events.3.t
	desc = trade_policy_events.3.d
	picture = TRADE_GOODS_eventPicture
	
	is_triggered_only = yes
	
	immediate = {
		hidden_effect = {
			set_variable = { 	which = burghers_loyalty_added_a 	value = 5 }
		}
	}

	option = {
		name = trade_policy_events.3.a
		add_estate_burghers_loyalty_effect = { id=a }
		event_target:trade_province = {
			add_province_modifier = {
				name = "local_goods_in_demand"
				duration = 5475
			}
		}
	}
}

#Value of a Good Map
country_event = {
	id = trade_policy_events.4
	title = trade_policy_events.4.t
	desc = trade_policy_events.4.d
	picture = TRADE_GOODS_eventPicture
	
	trigger = {
		has_dlc = "Cradle of Civilization"
		any_active_trade_node = {
			any_country = {
				NOT = { tag = ROOT }
				NOT = { war_with = ROOT }
				trading_policy_in_node = {
					node = PREV
					policy = improve_inland_routes
				}
			}
			any_trade_node_member_province = {
				owned_by = ROOT
				NOT = { has_province_flag = caught_foreign_agents }
			}
		}
	}
	
	immediate = {
		hidden_effect = {
			random_active_trade_node = {
				limit = {
					any_country = {
						NOT = { tag = ROOT }
						NOT = { war_with = ROOT }
						trading_policy_in_node = {
							node = PREV
							policy = improve_inland_routes
						}
					}
					any_trade_node_member_province = {
						owned_by = ROOT
						NOT = { has_province_flag = caught_foreign_agents }
					}
				}
				random_country = {
					limit = {
						NOT = { tag = ROOT }
						NOT = { war_with = ROOT }
						trading_policy_in_node = {
							node = PREV
							policy = improve_inland_routes
						}
					}
					save_event_target_as = spy_country
				}
				random_trade_node_member_province = {
					limit = {
						owned_by = ROOT
						NOT = { has_province_flag = caught_foreign_agents }
					}
					save_event_target_as = agents_caught_province
				}
			}
		}
	}

	mean_time_to_happen = {
		months = 560
	}
	
	option = {
		name = trade_policy_events.4.a
		event_target:agents_caught_province = {
			add_or_extend_province_modifier_effect = { name = urban_development_efforts	duration = 3625 }
			set_province_flag = caught_foreign_agents
		}
	}
}

#Bandits in X
country_event = {
	id = trade_policy_events.5
	title = trade_policy_events.5.t
	desc = trade_policy_events.5.d
	picture = CARAVAN_EVENT_Picture
	
	trigger = {
		has_dlc = "Cradle of Civilization"
		any_active_trade_node = {
			ROOT = {
				trading_policy_in_node = {
					node = PREV
					policy = improve_inland_routes
				}
			}
			any_trade_node_member_province = {
				NOT = { owned_by = ROOT }
				is_wasteland = no
				is_sea = no
				base_production = 1
				NOT = {
					owner = { war_with = ROOT }
				}
				is_capital = no
				NOT = { has_province_flag = bandits_handled_by_foreigners }
			}
		}
	}
	
	immediate = {
		hidden_effect = {
			random_active_trade_node = {
				limit = {
					ROOT = {
						trading_policy_in_node = {
							node = PREV
							policy = improve_inland_routes
						}
					}
					any_trade_node_member_province = {
						NOT = { owned_by = ROOT }
						is_capital = no
						is_wasteland = no
						is_sea = no
						base_production = 1
						NOT = {
							owner = { war_with = ROOT }
						}
						NOT = { has_province_flag = bandits_handled_by_foreigners }
					}
				}
				random_trade_node_member_province = {
					limit = {
						is_wasteland = no
						is_sea = no
						NOT = { owned_by = ROOT }
						is_capital = no
						base_production = 1
						NOT = {
							owner = { war_with = ROOT }
						}
						NOT = { has_province_flag = bandits_handled_by_foreigners }
					}
					save_event_target_as = banditprovince
					owner = {
						save_event_target_as = banditprovince_owner #For prettier tooltip mostly
					}
				}
			}
		}
	}

	mean_time_to_happen = {
		months = 560
	}
	
	option = {
		name = trade_policy_events.5.a
		add_years_of_income = -0.1
		tooltip = {
			event_target:banditprovince_owner = {
				add_opinion = {
					modifier = helped_clear_out_bandits
					who = ROOT
				}
			}
			event_target:banditprovince = {
				add_province_modifier = {
					name = outsiders_cleared_our_merchants
					duration = 3650
				}
				set_province_flag = bandits_handled_by_foreigners
			}
		}
		hidden_effect = {
			event_target:banditprovince_owner = {
				country_event = { id = trade_policy_events.6 }
			}
		}
	}
	
	option = {
		name = trade_policy_events.5.b
		event_target:banditprovince = {
			add_trade_modifier = {
				who = root
				duration = 3650
				power = -10
				key = merchants_hampered_by_bandits
			}
		}
	}
}


#Bandits in X
country_event = {
	id = trade_policy_events.6
	title = trade_policy_events.6.t
	desc = trade_policy_events.6.d
	picture = CARAVAN_EVENT_Picture
	
	is_triggered_only = yes
	
	option = {
		name = trade_policy_events.6.a
		add_opinion = {
			modifier = helped_clear_out_bandits
			who = FROM
		}
		event_target:banditprovince = {
			add_province_modifier = {
				name = outsiders_cleared_our_merchants
				duration = 3650
			}
		}
	}
}

#Profiteering
country_event = {
	id = trade_policy_events.7
	title = trade_policy_events.7.t
	desc = trade_policy_events.7.d
	picture = TRADE_GOODS_eventPicture
	
	trigger = {
		has_dlc = "Cradle of Civilization"
		any_active_trade_node = {
			any_country = {
				NOT = { tag = ROOT }
				trading_policy_in_node = {
					node = PREV
					policy = maximize_profit
				}
				NOT = { war_with = ROOT }
			}
			any_trade_node_member_province = {
				owned_by = ROOT
				is_capital = no
				base_production = 1
				NOT = { has_province_modifier = local_protectionism }
				NOT = { has_province_modifier = local_merchants_outcompeted }
			}
		}
	}
	
	immediate = {
		hidden_effect = {
			random_active_trade_node = {
				limit = {
					any_country = {
						NOT = { tag = ROOT }
						trading_policy_in_node = {
							node = PREV
							policy = maximize_profit
						}
						NOT = { war_with = ROOT }
					}
					any_trade_node_member_province = {
						owned_by = ROOT
						is_capital = no
						base_production = 1
						NOT = { has_province_modifier = local_protectionism }
						NOT = { has_province_modifier = local_merchants_outcompeted }
					}
				}
				random_country = {
					limit = {
						NOT = { tag = ROOT }
						trading_policy_in_node = {
							node = PREV
							policy = maximize_profit
						}
						NOT = { war_with = ROOT }
					}
					save_event_target_as = trader_country
				}
				random_trade_node_member_province = {
					limit = {
						owned_by = ROOT
						is_capital = no
						base_production = 1
						NOT = { has_province_modifier = local_protectionism }
						NOT = { has_province_modifier = local_merchants_outcompeted }
					}
					save_event_target_as = trade_province
				}
			}
		}
	}

	mean_time_to_happen = {
		months = 560
	}
	
	option = {
		name = trade_policy_events.7.a
		event_target:trader_country = {
			add_opinion = {
				who = ROOT
				modifier = protectionism
			}
		}
		event_target:trade_province = {
			add_province_modifier = {
				name = local_protectionism
				duration = 3650
			}
		}
	}
	
	option = {
		name = trade_policy_events.7.b
		event_target:trade_province = {
			add_province_modifier = {
				name = local_merchants_outcompeted
				duration = 3650
			}
		}
	}
}

#Growth of the business of X
#This one happens in your own province in a node you maximizer profits in.
country_event = {
	id = trade_policy_events.8
	title = trade_policy_events.8.t
	desc = trade_policy_events.8.d
	picture = TRADE_GOODS_eventPicture
	
	trigger = {
		has_dlc = "Cradle of Civilization"
		any_active_trade_node = {
			ROOT = {
				trading_policy_in_node = {
					node = PREV
					policy = maximize_profit
				}
			}
			any_trade_node_member_province = {
				owned_by = ROOT
				is_capital = no
				NOT = { has_province_flag = developing_business_here }
				base_production = 1
				OR = {
					has_building = trade_depot
					has_building = stock_exchange
					has_building = workshop
					#has_building = counting_house
					has_province_flag = trade_center_modifier_has
				}
				OR = {
					has_province_flag = gems
					has_province_flag = gold
					has_province_flag = urban_goods_rank_3
				}
			}
		}
	}
	
	immediate = {
		hidden_effect = {
			random_active_trade_node = {
				limit = {
					ROOT = {
						trading_policy_in_node = {
							node = PREV
							policy = maximize_profit
						}
					}
					any_trade_node_member_province = {
						owned_by = ROOT
						is_capital = no
						base_production = 1
						NOT = { has_province_flag = developing_business_here }
						OR = {
							has_building = merchant_guild
							has_building = trade_depot
							has_building = customs_house
							has_building = stock_exchange
							has_province_flag = trade_center_modifier_has
						}
						OR = {
							has_province_flag = gems
							has_province_flag = gold
							has_province_flag = urban_goods_rank_3
						}
					}
				}
				random_trade_node_member_province = {
					limit = {
						owned_by = ROOT
						is_capital = no
						base_production = 1
						NOT = { has_province_flag = developing_business_here }
						OR = {
							has_building = merchant_guild
							has_building = trade_depot
							has_building = customs_house
							has_building = stock_exchange
							has_province_flag = trade_center_modifier_has
						}
						OR = {
							has_province_flag = gems
							has_province_flag = gold
							has_province_flag = urban_goods_rank_3
						}
					}
					save_event_target_as = developing_business_province
				}
			}
		}
	}

	mean_time_to_happen = {
		months = 560
	}
	
	option = {
		name = trade_policy_events.8.a
		event_target:developing_business_province = {
			add_or_extend_province_modifier_effect = { name = rural_development_efforts	duration = 7250 }
			set_province_flag = developing_business_here
		}
	}
}

#The X Family
country_event = {
	id = trade_policy_events.9
	title = trade_policy_events.9.t
	desc = trade_policy_events.9.d
	picture = TRADE_GOODS_eventPicture
	
	trigger = {
		has_dlc = "Cradle of Civilization"
		any_active_trade_node = {
			ROOT = {
				trading_policy_in_node = {
					node = PREV
					policy = maximize_profit
				}
			}
			NOT = {
				has_trade_modifier = {
					who = ROOT
					key = influential_trading_family
				}
			}
			any_trade_node_member_province = {
				NOT = { owned_by = ROOT }
				is_capital = no
				is_wasteland = no
				is_sea = no
				is_empty = no
				base_production = 1
				NOT = { same_continent = CAPITAL }
				
			}
		}
	}
	
	immediate = {
		hidden_effect = {
			set_saved_name = {
				key = prominent_merchant
				type = advisor
				scope = ROOT
			}
			random_active_trade_node = {
				limit = {
					ROOT = {
						trading_policy_in_node = {
							node = PREV
							policy = maximize_profit
						}
					}
					NOT = {
						has_trade_modifier = {
							who = ROOT
							key = influential_trading_family
						}
					}
					any_trade_node_member_province = {
						NOT = { owned_by = ROOT }
						is_capital = no
						is_wasteland = no
						is_sea = no
						is_empty = no
						base_production = 1
						NOT = { same_continent = CAPITAL }
					}
				}
				random_trade_node_member_province = {
					limit = {
						NOT = { owned_by = ROOT }
						is_capital = no
						NOT = { same_continent = CAPITAL }
						is_wasteland = no
						is_sea = no
						is_empty = no
						base_production = 1
					}
					save_event_target_as = foreign_province
					owner = { save_event_target_as = foreign_province_owner }
				}
			}
			random_owned_province = {
				limit = {
					is_capital = yes
				}
				save_event_target_as = merchant_family_province
			}
			random_owned_province = {
				limit = {
					is_state = yes
					OR = {
						has_building = merchant_guild
						has_building = trade_depot
						has_building = customs_house
						has_building = stock_exchange
						has_province_flag = trade_center_modifier_has
					}
				}
				save_event_target_as = merchant_family_province
			}
			random_owned_province = {
				limit = {
					is_state = yes
					OR = {
						has_building = trade_depot
						has_building = customs_house
						has_building = stock_exchange
						has_province_flag = trade_center_modifier_has
					}
				}
				save_event_target_as = merchant_family_province
			}
			random_owned_province = {
				limit = {
					is_state = yes
					OR = {
						has_building = customs_house
						has_building = stock_exchange
						has_province_flag = trade_center_modifier_has
					}
				}
				save_event_target_as = merchant_family_province
			}
		}
	}

	mean_time_to_happen = {
		months = 560
	}
	
	option = {
		name = trade_policy_events.9.a #Let us use their influence to extract maps of [foreign_province.Owner.GetAdjective] hinterlands.
		trigger = {
			event_target:foreign_province = {
				any_neighbor_province = {
					NOT = { has_discovered = ROOT }
				}
			}
		}
		event_target:foreign_province = {
			every_neighbor_province = {
				discover_province = ROOT
			}
			owner = {
				add_spy_network_from = {
					who = ROOT
					value = 50
				}
			}
		}
		hidden_effect = { clear_saved_name = prominent_merchant }
	}
	option = {
		name = trade_policy_events.9.b #We should not ask what they can do for us. What is good for them is good for us.
		event_target:foreign_province = {
			add_trade_modifier = {
				who = root
				duration = 3650
				power = 10
				key = influential_trading_family
			}
		}
		hidden_effect = { clear_saved_name = prominent_merchant }
	}
	option = {
		name = trade_policy_events.9.c
		if = {
			limit = {
				NOT = { monthly_income = 25 }
			}
			define_advisor = {
				name = prominent_merchant
				type = trader
				skill = 2
				discount = yes
				culture = event_target:merchant_family_province
				religion = event_target:merchant_family_province
			}
		}
		else = {
			define_advisor = {
				name = prominent_merchant
				type = trader
				skill = 2
				discount = yes
				culture = event_target:merchant_family_province
				religion = event_target:merchant_family_province
			}
		}
	}
}


# Increased Demand for [trade_province.GetFancyTradeGood]
country_event = {
	id = trade_policy_events.10
	title = trade_policy_events.10.t
	desc = trade_policy_events.10.d
	picture = TRADE_GOODS_eventPicture
	
	trigger = {
		has_dlc = "Cradle of Civilization"
		any_active_trade_node = {
			strongest_trade_power = { #The strongest trade power in the node is maximizing profits
				NOT = { tag = ROOT }
				NOT = { war_with = ROOT }
				trading_policy_in_node = {
					node = PREV
					policy = maximize_profit
				}
			}
			any_trade_node_member_province = {
				owned_by = ROOT
				base_production = 2
				NOT = { has_province_modifier = unregulated_economic_growth }
				NOT = { has_province_modifier = regulated_economic_growth }
				OR = {
					has_building = merchant_guild
					has_building = trade_depot
					has_building = customs_house
					has_building = stock_exchange
					has_province_flag = trade_center_modifier_has
				}
				OR = {
					has_province_flag = gems
					has_province_flag = gold
					has_province_flag = urban_goods_rank_3
				}
			}
		}
	}
	
	immediate = {
		hidden_effect = {
			random_active_trade_node = {
				limit = {
					strongest_trade_power = { #The strongest trade power in the node is maximizing profits
						NOT = { tag = ROOT }
						NOT = { war_with = ROOT }
						trading_policy_in_node = {
							node = PREV
							policy = maximize_profit
						}
					}
					any_trade_node_member_province = {
						owned_by = ROOT
						base_production = 2
						NOT = { has_province_modifier = unregulated_economic_growth }
						NOT = { has_province_modifier = regulated_economic_growth }
						OR = {
							has_building = merchant_guild
							has_building = trade_depot
							has_building = customs_house
							has_building = stock_exchange
							has_province_flag = trade_center_modifier_has
						}
						OR = {
							has_province_flag = gems
							has_province_flag = gold
							has_province_flag = urban_goods_rank_3
						}
					}
				}
				random_trade_node_member_province = {
					limit = {
						owned_by = ROOT
						base_production = 2
						NOT = { has_province_modifier = unregulated_economic_growth }
						NOT = { has_province_modifier = regulated_economic_growth }
						OR = {
							has_building = merchant_guild
							has_building = trade_depot
							has_building = customs_house
							has_building = stock_exchange
							has_province_flag = trade_center_modifier_has
						}
						OR = {
							has_province_flag = gems
							has_province_flag = gold
							has_province_flag = urban_goods_rank_3
						}
					}
					save_event_target_as = trade_province
				}
			}
		}
	}

	mean_time_to_happen = {
		months = 660
	}
	
	option = {
		name = trade_policy_events.10.a
		event_target:trade_province = {
			add_province_modifier = {
				name = "regulated_economic_growth"
				duration = 3650
			}
		}
	}
	option = {
		name = trade_policy_events.10.b
		random_list = {
			25 = {
				event_target:trade_province = {
					add_or_extend_province_modifier_effect = { name = urban_decay	duration = 3625 }
				}
			}
			75 = { }
		}
		event_target:trade_province = {
			add_province_modifier = {
				name = "unregulated_economic_growth"
				duration = 3650
			}
		}
	}
}


# Lack of Demand for X
country_event = {
	id = trade_policy_events.11
	title = trade_policy_events.11.t
	desc = trade_policy_events.11.d
	picture = SAD_MERCHANT_eventPicture
	
	trigger = {
		has_dlc = "Cradle of Civilization"
		any_active_trade_node = {
			strongest_trade_power = {
				OR = {
					NOT = { tag = ROOT }
					AND = {
						tag = ROOT
						NOT = {
							trading_policy_in_node = {
								node = PREV
								policy = maximize_profit
							}
						}
					}
				}
			}
			any_trade_node_member_province = {
				owned_by = ROOT
				base_production = 2
				NOT = { has_province_modifier = lack_of_demand_for_local_goods }
				OR = {
					has_province_flag = gems
					has_province_flag = gold
					has_province_flag = urban_goods_rank_3
				}
			}
		}
	}
	
	immediate = {
		hidden_effect = {
			random_active_trade_node = {
				limit = {
					strongest_trade_power = {
						OR = {
							NOT = { tag = ROOT }
							AND = {
								tag = ROOT
								NOT = {
									trading_policy_in_node = {
										node = PREV
										policy = maximize_profit
									}
								}
							}
						}
					}
					any_trade_node_member_province = {
						owned_by = ROOT
						base_production = 2
						NOT = { has_province_modifier = lack_of_demand_for_local_goods }
						OR = {
							has_province_flag = gems
							has_province_flag = gold
							has_province_flag = urban_goods_rank_3
						}
					}
				}
				random_trade_node_member_province = {
					limit = {
						owned_by = ROOT
						base_production = 2
						NOT = { has_province_modifier = lack_of_demand_for_local_goods }
						OR = {
							has_province_flag = gems
							has_province_flag = gold
							has_province_flag = urban_goods_rank_3
						}
					}
					save_event_target_as = trade_province
				}
			}
		}
	}

	mean_time_to_happen = {
		months = 660
	}
	
	option = {
		name = trade_policy_events.11.a #Regrettable
		event_target:trade_province = {
			add_province_modifier = {
				name = "lack_of_demand_for_local_goods"
				duration = 3650
			}
		}
	}
}


# Spread of Ideas
country_event = {
	id = trade_policy_events.12
	title = trade_policy_events.12.t
	desc = trade_policy_events.12.d
	picture = SULTAN_AND_MERCHANT_eventPicture
	
	trigger = {
		has_dlc = "Cradle of Civilization"
		any_active_trade_node = {
			strongest_trade_power = {
				NOT = { tag = ROOT }
				NOT = { war_with = ROOT }
				trading_policy_in_node = {
					node = PREV
					policy = any
				}
				institution_difference = { who = ROOT value = 1 }
			}
			any_trade_node_member_province = {
				owned_by = ROOT
				base_production = 1
				OR = {
					has_building = merchant_guild
					has_building = trade_depot
					has_building = customs_house
					has_building = stock_exchange
					has_province_flag = trade_center_modifier_has
				}
				NOT = { has_province_modifier = influx_of_foreign_ideas }
				NOT = { has_province_modifier = traditional_values_supported }
			}
		}
	}
	
	immediate = {
		hidden_effect = {
			random_active_trade_node = {
				limit = {
					strongest_trade_power = {
						NOT = { tag = ROOT }
						NOT = { war_with = ROOT }
						trading_policy_in_node = {
							node = PREV
							policy = any
						}
						institution_difference = { who = ROOT value = 1 }
					}
					any_trade_node_member_province = {
						owned_by = ROOT
						base_production = 1
						OR = {
							has_building = merchant_guild
							has_building = trade_depot
							has_building = customs_house
							has_building = stock_exchange
							has_province_flag = trade_center_modifier_has
						}
						NOT = { has_province_modifier = influx_of_foreign_ideas }
						NOT = { has_province_modifier = traditional_values_supported }
					}
				}
				strongest_trade_power = {
					save_event_target_as = merchant_country
				}
				random_trade_node_member_province = {
					limit = {
						owned_by = ROOT
						base_production = 1
						OR = {
							has_building = merchant_guild
							has_building = trade_depot
							has_building = customs_house
							has_building = stock_exchange
							has_province_flag = trade_center_modifier_has
						}
						NOT = { has_province_modifier = influx_of_foreign_ideas }
						NOT = { has_province_modifier = traditional_values_supported }
					}
					save_event_target_as = institution_province
				}
			}
		}
	}

	mean_time_to_happen = {
		months = 560
	}
	
	option = {
		name = trade_policy_events.12.a #Our society has only to gain from progress.
		event_target:institution_province = {
			add_next_institution_embracement = 65
			add_province_modifier = {
				name = "influx_of_foreign_ideas"
				duration = 3650
			}
		}
	}
	option = {
		name = trade_policy_events.12.b #Let us protect traditional [institution_province.culture.GetName] society.
		event_target:institution_province = {
			add_province_modifier = {
				name = "traditional_values_supported"
				duration = 3650
			}
		}
	}
}