### Tibetan Events


### House of Minyak
country_event = {
	id = bod_chenpo.1
	title = bod_chenpo.1.t
	desc = bod_chenpo.1.d
	picture = RELIGIOUS_TURMOIL_eventPicture
	fire_only_once = yes
	
	trigger = {
		is_year = 1500
		562 = {
			is_empty = yes
		}
		any_owned_province = {
			area = kham_area
		}
	}
	
	mean_time_to_happen = { years = 60 }
	
	option = {
		name = bod_chenpo.1.a
		562 = {
			add_core = SKK
			cede_province = SKK
		}
		SKK = {
			define_ruler = {
				dynasty = "Namgyal"
			}
		}
		hidden_effect = {
			every_known_country = {
				limit = {
					NOT = { tag = ROOT }
					NOT = { tag = SKK }
					capital_scope = {
						OR = {
							region = tibet_region
							region = bihar_region
							region = east_bengal_region
						}
					}
				}
				country_event = { id = bod_chenpo.2 days = 0 }
			}
		}
	}
}

country_event = {
	id = bod_chenpo.2
	title = bod_chenpo.2.t
	desc = bod_chenpo.2.d
	picture = RELIGIOUS_TURMOIL_eventPicture
	
	fire_only_once = yes
	is_triggered_only = yes
	
	option = {
		name = bod_chenpo.2.a
	}
	option = {
		name = bod_chenpo.2.b
	}
}

### Drukpa arrive in Bhutan
country_event = {
	id = bod_chenpo.3
	title = bod_chenpo.3.t
	desc = bod_chenpo.3.d
	picture = RELIGIOUS_TURMOIL_eventPicture
	fire_only_once = yes
	
	is_triggered_only = yes
	
	option = {
		name = bod_chenpo.3.a
		565 = {
			add_core = BHU
			cede_province = BHU
		}
		add_truce_with = BHU
		BHU = {
			change_government = theocratic_government
			add_ruler_modifier = { name = red_hat_buddhism }
			set_country_flag = red_hat_buddhism
			hidden_effect = {
				every_country = {
					limit = {
						religion = vajrayana
						has_ruler_modifier = red_hat_buddhism
						piety = 0.2
					}
					add_opinion = { who = BHU modifier = same_doctrine_fanatical }
				}
				every_country = {
					limit = {
						religion = vajrayana
						has_ruler_modifier = red_hat_buddhism
						piety = -0.2
						NOT = { piety = 0.2 }
					}
					add_opinion = { who = BHU modifier = same_doctrine_pious }
				}
				every_country = {
					limit = {
						religion = vajrayana
						has_ruler_modifier = red_hat_buddhism
						piety = -0.6
						NOT = { piety = -0.2 }
					}
					add_opinion = { who = BHU modifier = same_doctrine_observant }
				}
			}
		}
		hidden_effect = {
			every_known_country = {
				limit = {
					NOT = { tag = ROOT }
					NOT = { tag = BHU }
					capital_scope = {
						OR = {
							region = tibet_region
							region = bihar_region
							region = east_bengal_region
						}
					}
				}
				country_event = { id = bod_chenpo.6 days = 0 }
			}
		}
	}
}

### Karmapa arrive in Bhutan
country_event = {
	id = bod_chenpo.4
	title = bod_chenpo.4.t
	desc = bod_chenpo.4.d
	picture = RELIGIOUS_TURMOIL_eventPicture
	fire_only_once = yes
	
	is_triggered_only = yes
	
	option = {
		name = bod_chenpo.3.a
		565 = {
			add_core = BHU
			cede_province = BHU
		}
		add_truce_with = BHU
		BHU = {
			change_government = theocratic_government
			add_ruler_modifier = { name = black_hat_buddhism }
			set_country_flag = black_hat_buddhism
			hidden_effect = {
				every_country = {
					limit = {
						religion = vajrayana
						has_ruler_modifier = black_hat_buddhism
						piety = 0.2
					}
					add_opinion = { who = BHU modifier = same_doctrine_fanatical }
				}
				every_country = {
					limit = {
						religion = vajrayana
						has_ruler_modifier = black_hat_buddhism
						piety = -0.2
						NOT = { piety = 0.2 }
					}
					add_opinion = { who = BHU modifier = same_doctrine_pious }
				}
				every_country = {
					limit = {
						religion = vajrayana
						has_ruler_modifier = black_hat_buddhism
						piety = -0.6
						NOT = { piety = -0.2 }
					}
					add_opinion = { who = BHU modifier = same_doctrine_observant }
				}
			}
		}
		hidden_effect = {
			every_known_country = {
				limit = {
					NOT = { tag = ROOT }
					NOT = { tag = BHU }
					capital_scope = {
						OR = {
							region = tibet_region
							region = bihar_region
							region = east_bengal_region
						}
					}
				}
				country_event = { id = bod_chenpo.6 days = 0 }
			}
		}
	}
}

### Gelugpa arrive in Bhutan
country_event = {
	id = bod_chenpo.5
	title = bod_chenpo.5.t
	desc = bod_chenpo.5.d
	picture = RELIGIOUS_TURMOIL_eventPicture
	fire_only_once = yes
	
	is_triggered_only = yes
	
	option = {
		name = bod_chenpo.3.a
		565 = {
			add_core = BHU
			cede_province = BHU
		}
		add_truce_with = BHU
		BHU = {
			change_government = theocratic_government
			add_ruler_modifier = { name = yellow_hat_buddhism }
			set_country_flag = yellow_hat_buddhism
			hidden_effect = {
				every_country = {
					limit = {
						religion = vajrayana
						has_ruler_modifier = yellow_hat_buddhism
						piety = 0.2
					}
					add_opinion = { who = BHU modifier = same_doctrine_fanatical }
				}
				every_country = {
					limit = {
						religion = vajrayana
						has_ruler_modifier = yellow_hat_buddhism
						piety = -0.2
						NOT = { piety = 0.2 }
					}
					add_opinion = { who = BHU modifier = same_doctrine_pious }
				}
				every_country = {
					limit = {
						religion = vajrayana
						has_ruler_modifier = yellow_hat_buddhism
						piety = -0.6
						NOT = { piety = -0.2 }
					}
					add_opinion = { who = BHU modifier = same_doctrine_observant }
				}
			}
		}
		hidden_effect = {
			every_known_country = {
				limit = {
					NOT = { tag = ROOT }
					NOT = { tag = BHU }
					capital_scope = {
						OR = {
							region = tibet_region
							region = bihar_region
							region = east_bengal_region
						}
					}
				}
				country_event = { id = bod_chenpo.6 days = 0 }
			}
		}
	}
}

country_event = {
	id = bod_chenpo.6
	title = bod_chenpo.6.t
	desc = bod_chenpo.6.d
	picture = RELIGIOUS_TURMOIL_eventPicture
	
	fire_only_once = yes
	is_triggered_only = yes
	
	option = {
		name = bod_chenpo.4.a
	}
	option = {
		name = bod_chenpo.4.b
	}
}