########################################
# Events for Ethiopia
#
# written by Johan Andersson
########################################

namespace = flavor_eth

	
# Pero da Covilha
country_event = {
	id = flavor_eth.1
	title = flavor_eth.1.t
	desc = flavor_eth.1.d
	picture = SHIP_SAILING_eventPicture
	fire_only_once = yes

	trigger = {
		tag = ETH
		NOT = { is_year = 1550 }
		religion_group = christian
		
		any_owned_province = {
			has_discovered = POR
		}
		NOT = { war_with = POR }

	}

	mean_time_to_happen = {
		months = 30
	}
	
	
	option = {
		name = flavor_eth.1.a
		ai_chance = { factor = 90 }
		add_prestige = 5
		custom_tooltip = flavor_eth.1.a.desc
		set_country_flag = portuguese_embassy
		hidden_effect = {
			capital_scope = {
				POR = {
					discover_province = PREV
				}
			}
		}
	}
	option = {
		name = flavor_eth.1.b
		ai_chance = { factor = 5 }
		add_legitimacy = 5
		hidden_effect = {
			capital_scope = {
				POR = {
					discover_province = PREV
				}
			}
		}
	}
	option = {
		name = flavor_eth.1.c
		ai_chance = { factor = 5 }
		reverse_add_casus_belli = {
			target = POR
			type = cb_insult
			months = 60
		}
		hidden_effect = {
			capital_scope = {
				POR = {
					discover_province = PREV
				}
			}
		}
	}
}

#An Embassy Is Here!
country_event = {
	id = flavor_eth.2
	title = flavor_eth.2.t
	desc = flavor_eth.2.d
	picture = DIPLOMACY_eventPicture
	fire_only_once = yes

	trigger = {
		tag = ETH
		has_country_flag = portuguese_embassy
		NOT = { war_with = POR }
	}

	mean_time_to_happen = {
		months = 90
	}
	
	
	option = {
		name = flavor_eth.2.a
		trigger = {
			is_neighbor_of = MAM
		}
		POR = {
			country_event = {
				id = flavor_eth.3
				days = 180
				tooltip = flavor_eth.2.3
			}
		}
		add_mil_power = 25
	}
	option = {
		name = flavor_eth.2.b
		add_adm_power = 50
		add_dip_power = 50
		add_mil_power = 50
	}
	option = {
		name = flavor_eth.2.c
		add_years_of_income = 0.75
	}
}


#Prester John?
country_event = {
	id = flavor_eth.3
	title = flavor_eth.3.t
	desc = flavor_eth.3.d
	picture = DIPLOMACY_eventPicture
	is_triggered_only = yes
	
	
	option = {
		name = flavor_eth.3.a
		ai_chance = { factor = 90 }
		hidden_effect = {
			ETH = {
				country_event = {
					id = flavor_eth.4
					days = 180
				}
			}
		}
		add_mil_power = -50
		add_papal_influence = 10
		reverse_add_opinion = { who = ETH modifier = opinion_military_aid }
			
	}
	option = {
		name = flavor_eth.3.b
		add_prestige = -5
		hidden_effect = {
			ETH = {
				country_event = {
					id = flavor_eth.5
					days = 1825
				}
			}
		}
		reverse_add_opinion = { who = ETH modifier = opinion_refused_military_aid }
	}
}

# aid given
country_event = {
	id = flavor_eth.4
	title = flavor_eth.4.t
	desc = flavor_eth.4.d
	picture = DIPLOMACY_eventPicture
	is_triggered_only = yes
	
	option = {
		name = flavor_eth.4.a
		reverse_add_opinion = { who = POR modifier = opinion_military_aid }
		add_country_modifier = {
			name = eth_mil_aid_from_portugal
			duration = 3650
		}
	}
}

# aid refused
country_event = {
	id = flavor_eth.5
	title = flavor_eth.5.t
	desc = flavor_eth.5.d
	picture = DIPLOMACY_eventPicture
	is_triggered_only = yes
	
	option = {
		name = flavor_eth.5.a
		add_legitimacy = -10
	}
}

########################################
# Additional Events for Ethiopia
#
# written by Henrik Lohmander
########################################

# Centralization reforms of Zara Yakob
country_event = {
	id = flavor_eth.6
	title = flavor_eth.6.t
	desc = flavor_eth.6.d
	picture = COURT_eventPicture
	
	fire_only_once = yes

	trigger = {
		tag = ETH
		NOT = { is_year = 1460 }
		has_ruler = "Zara Yakob"
	}

	mean_time_to_happen = {
		months = 48
	}
	
	
	option = {
		name = flavor_eth.6.a
		ai_chance = { factor = 90 }
		add_ruler_modifier = { name = eth_zara_yakob_centralisation }
	}
	option = {
		name = flavor_eth.6.b
		ai_chance = { factor = 10 }
		add_stability_1 = yes
	}
}

# The itinerant capital
country_event = {
	id = flavor_eth.7
	title = flavor_eth.7.t
	desc = flavor_eth.7.d
	picture = GOOD_WITH_MONARCH_eventPicture
	
	fire_only_once = yes

	trigger = {
		tag = ETH
		NOT = { is_year = 1460 }
	}

	mean_time_to_happen = {
		months = 48
	}
	
	
	option = { #This is how it always has been
		name = flavor_eth.7.a
		ai_chance = { factor = 50 }
		add_stability_1 = yes
		set_country_flag = eth_itinerant_capital_flag
	}
	
	option = {
		name = flavor_eth.7.b #Actively encourage cultural conversion of the countryside
		set_country_flag = eth_itinerant_capital_flag
		ai_chance = { factor = 50 }
		add_country_modifier = {
			name = eth_itinerant_capital
			duration = 3650
		}
	}
}

# Debre Berhan - The Mountain of Light
country_event = {
	id = flavor_eth.8
	title = flavor_eth.8.t
	desc = flavor_eth.8.d
	picture = CITY_VIEW_eventPicture
	
	fire_only_once = yes

	trigger = {
		tag = ETH
		is_year = 1455
		NOT = { is_year = 1520 }
		owns_core_province = 1206 #Shewa
		has_country_flag = eth_itinerant_capital_flag
	}

	mean_time_to_happen = {
		months = 195
	}
	
	
	option = {
		name = flavor_eth.8.a #The time has come for a permanent capital
		ai_chance = { factor = 90 }
		clr_country_flag = eth_itinerant_capital_flag
		set_country_flag = eth_debre_berhan_capital_flag
		add_adm_power = -25
		Effect_set_capital = { target=1206 }
		1206 = {
			rename_capital = "Debre Berhan"
		}
		every_owned_province = {
			limit = {
				OR = {
					province_id = 1206 #Shewa
					any_neighbor_province = {
						province_id = 1206
					}
				}
			}
			add_local_autonomy = -10
		}
	}
	
	option = {
		name = flavor_eth.8.b #Let us not break with tried traditions
		ai_chance = { factor = 10 }
		add_stability_1 = yes
	}
}

# Debre Berhan Plundered
province_event = {
	id = flavor_eth.9
	title = flavor_eth.9.t
	desc = flavor_eth.9.d
	picture = COUNTRY_COLLAPSE_eventPicture
	
	fire_only_once = yes

	trigger = {
		owned_by = ETH
		owner = {
			has_country_flag = eth_debre_berhan_capital_flag
		}
		is_capital = yes
		has_province_modifier = province_looted_this_war
	}
	
	mean_time_to_happen = {
		months = 1
	}
	
	option = {
		name = flavor_eth.9.a #To the provinces!
		owner = {
			set_country_flag = eth_itinerant_capital_flag
			clr_country_flag = eth_debre_berhan_capital_flag
			random_list = {
				30 = {}
				40 = {
					subtract_stability_points_50 = yes
				}
				30 = {
					subtract_stability_1 = yes
				}
			}
		}
	}
}

# Gondar - A new Capital
country_event = {
	id = flavor_eth.10
	title = flavor_eth.10.t
	desc = flavor_eth.10.d
	picture = CITY_VIEW_eventPicture
	
	fire_only_once = yes

	trigger = {
		tag = ETH
		is_year = 1630
		owns_core_province = 3009 #Begmeder
	}

	mean_time_to_happen = {
		months = 195
		modifier = {
			factor = 0.75
			has_country_flag = eth_itinerant_capital_flag
		}
	}
	
	
	option = {
		name = flavor_eth.10.a #The time has come for a permanent capital
		clr_country_flag = eth_itinerant_capital_flag
		ai_chance = { factor = 90 }
		add_adm_power = -25
		Effect_set_capital = { target=3009 }
		every_owned_province = {
			limit = {
				OR = {
					province_id = 3009
					any_neighbor_province = {
						province_id = 3009
					}
				}
			}
			add_local_autonomy = -10
		}
	}
	
	option = {
		name = flavor_eth.10.b #Let us not break with tried traditions
		ai_chance = { factor = 10 }
		add_stability_1 = yes
	}
}

# Ethiopian-Mamluk Relations

#The fate of the Egyptian Copts
country_event = {
	id = flavor_eth.11
	title = flavor_eth.11.t
	desc = flavor_eth.11.d
	picture = ORTHODOX_eventPicture
	
	fire_only_once = yes

	trigger = {
		tag = ETH
		is_year = 1450
		NOT = { is_year = 1480 }
		exists = MAM
		NOT = {
			vassal_of = MAM
			overlord_of = MAM
			alliance_with = MAM
			war_with = MAM
		}
		MAM = {
			religion_group = muslim
			owns = 358
		}
	}

	mean_time_to_happen = {
		months = 90
	}
	
	
	option = {
		name = flavor_eth.11.a #Send a strongly worded letter
		ai_chance = { factor = 1 }
		every_country = {
			limit = {
				religion = coptic
			}
			add_opinion = { who = ETH modifier = opinion_good_relations }
		}
		MAM = {
			country_event = { id = flavor_eth.12 days = 14 }
		}
	}
	
	option = {
		name = flavor_eth.11.b #Avoid angering MAM
		ai_chance = { factor = 0 }
		add_prestige = -10
	}
	
	option = {
		name = flavor_eth.11.c #This is cause for war!
		ai_chance = { factor = 0 }
		add_casus_belli = {
			target = MAM
			type = cb_insult
			months = 1825
		}
		MAM = {
			country_event = { id = flavor_eth.13 days = 14 }
		}
	}
}

# A letter arrives from Ethiopia
country_event = {
	id = flavor_eth.12
	title = flavor_eth.12.t
	desc = flavor_eth.12.d
	picture = ACCUSATION_eventPicture
	
	is_triggered_only = yes
	
	
	option = {
		name = flavor_eth.12.a #Send a sarcastic reply.
		ai_chance = { factor = 90 }
		add_prestige = 5
		ETH = {
			country_event = { id = flavor_eth.14 days = 14 }
		}
	}
	
	option = {
		name = flavor_eth.12.b #Attempt to apologize and repair relations.
		ai_chance = { factor = 10 }
		add_prestige = -5
		ETH = {
			add_opinion = { who = MAM modifier = opinion_improved_relations }
		}
		ETH = {
			country_event = { id = flavor_eth.15 days = 1 }
		}
	}
}

# A letter arrives from Ethiopia
country_event = {
	id = flavor_eth.13
	title = flavor_eth.13.t
	desc = flavor_eth.13.d
	picture = ACCUSATION_eventPicture
	
	is_triggered_only = yes
	
	option = {
		name = flavor_eth.13.a #They wouldn't dare
		tooltip = {
			ETH = {
				add_casus_belli = {
					target = MAM
					type = cb_insult
					months = 1825
				}
			}
		}
	}
}

#An ambassador from the Mamluks
country_event = {
	id = flavor_eth.14
	title = flavor_eth.14.t
	desc = flavor_eth.14.d
	picture = ACCUSATION_eventPicture
	
	is_triggered_only = yes
	
	
	option = {
		name = flavor_eth.14.a #Imprison the Ambassador
		ai_chance = { factor = 90 }
		add_prestige = 5
		MAM = {
			country_event = { id = flavor_eth.16 days = 14 }
			add_opinion = { who = ETH modifier = opinion_irritated }
		}
	}
	
	option = {
		name = flavor_eth.14.b #This is cause for war!
		ai_chance = { factor = 0 }
		add_prestige = 10
		add_casus_belli = {
			target = MAM
			type = cb_insult
			months = 1825
		}
		MAM = {
			country_event = { id = flavor_eth.13 days = 1 }
		}
	}
	
	option = {
		name = flavor_eth.14.c #Let's just drop it.
		ai_chance = { factor = 10 }
		add_prestige = -5
	}
}

#The Mamluks Apologize
country_event = {
	id = flavor_eth.15
	title = flavor_eth.15.t
	desc = flavor_eth.15.d
	picture = GOOD_WITH_MONARCH_eventPicture
	
	is_triggered_only = yes
	
	option = {
		name = flavor_eth.15.a #Ok
		add_prestige = 10
		tooltip = {
			add_opinion = { who = MAM modifier = opinion_improved_relations }
		}
	}
}

#Ambassador Detained
country_event = {
	id = flavor_eth.16
	title = flavor_eth.16.t
	desc = flavor_eth.16.d
	picture = ACCUSATION_eventPicture
	
	is_triggered_only = yes
	
	option = {
		name = flavor_eth.16.a #Ok
		set_country_flag = eth_ambassador_detained
		tooltip = {
			add_opinion = { who = ETH modifier = opinion_irritated }
		}
	}
}

#Death of a Bishop
country_event = {
	id = flavor_eth.17
	title = flavor_eth.17.t
	desc = flavor_eth.17.d
	picture = ORTHODOX_eventPicture
	
	fire_only_once = yes

	trigger = {
		tag = MAM
		is_year = 1460
		exists = ETH
		religion_group = muslim
		ETH = {
			NOT = { has_country_flag = eth_autonomous_church }
			religion = coptic
		}
		NOT = {
			vassal_of = ETH
			overlord_of = ETH
			alliance_with = ETH
			war_with = ETH
		}
	}

	mean_time_to_happen = {
		months = 450
	}
	
	
	option = {
		name = flavor_eth.17.a #Prevent the appointment of a new Bishop
		ai_chance = { factor = 90 }
		ETH = {
			add_opinion = { who = MAM modifier = opinion_irritated }
			country_event = { id = flavor_eth.18 days = 14 }
		}
	}
	option = {
		name = flavor_eth.17.b #We must not interfere in these matters
		ai_chance = { factor = 10 }
	}
}

#Bishop missing
country_event = {
	id = flavor_eth.18
	title = flavor_eth.18.t
	desc = flavor_eth.18.d
	picture = ORTHODOX_eventPicture
	
	is_triggered_only = yes
	
	option = {
		name = flavor_eth.18.a #Ok
		random_list = {
			30 = {}
			40 = {
				subtract_stability_points_50 = yes
			}
			30 = {
				subtract_stability_1 = yes
			}
		}
		tooltip = {
			add_opinion = { who = MAM modifier = opinion_irritated }
		}
	}
}

#The Monastic Orders
country_event = {
	id = flavor_eth.19
	title = flavor_eth.19.t
	desc = flavor_eth.19.d
	picture = ORTHODOX_eventPicture
	
	fire_only_once = yes
	
	trigger = {
		tag = ETH
		religion = coptic
	}

	mean_time_to_happen = {
		months = 600
	}
	
	immediate = {
		hidden_effect = {
			random_owned_province = {
				limit = {
					religion = coptic
					is_capital = no
				}
				set_province_flag = eth_strong_monastaries
			}
			random_owned_province = {
				limit = {
					religion = coptic
					is_capital = no
					not = { has_province_flag = eth_strong_monastaries }
				}
				set_province_flag = eth_strong_monastaries
			}
			random_owned_province = {
				limit = {
					religion = coptic
					is_capital = no
					not = { has_province_flag = eth_strong_monastaries }
				}
				set_province_flag = eth_strong_monastaries
			}
		}
	}
	
	option = {
		name = flavor_eth.19.a #Attempt to rein them in
		ai_chance = { factor = 50 }
		random_list = {
			30 = {}
			40 = {
				subtract_stability_points_50 = yes
			}
			30 = {
				subtract_stability_1 = yes
			}
		}
		every_owned_province = {
			limit = {
				has_province_flag = eth_strong_monastaries
			}
			add_local_autonomy = -25
		}
	}
	option = {
		name = flavor_eth.19.b #We must safeguard the privileges of the Monasteries.
		ai_chance = { factor = 50 }
		add_stability_1 = yes
		every_owned_province = {
			limit = {
				has_province_flag = eth_strong_monastaries
			}
			add_local_autonomy = 25
		}
	}

}

#Independence from the Patriarchate
country_event = {
	id = flavor_eth.20
	title = flavor_eth.20.t
	desc = flavor_eth.20.d
	picture = ORTHODOX_eventPicture
	
	fire_only_once = yes
	
	trigger = {
		tag = ETH
		religion = coptic
		is_year = 1475
		NOT = { is_year = 1515 }
		358 = {
			owner = {
				religion_group = muslim
			}
		}
	}

	mean_time_to_happen = {
		months = 40
	}
	
	
	option = {
		name = flavor_eth.20.a #We cannot break with our Patriarch
		ai_chance = { factor = 90 }
		add_stability_1 = yes
	}
	option = {
		name = flavor_eth.20.b #Our Church should be free of foreign influence.
		ai_chance = { factor = 10 }
		random_list = {
			30 = {}
			40 = {
				subtract_stability_points_50 = yes
			}
			30 = {
				subtract_stability_1 = yes
			}
		}
		add_country_modifier = {
			name = eth_independent_church
			duration = 3650
		}
	}
}

#The Oromo
country_event = {
	id = flavor_eth.21
	title = flavor_eth.21.t
	desc = flavor_eth.21.d
	picture = FAMINE_eventPicture
	
	fire_only_once = yes
	
	trigger = {
		is_year = 1570
		NOT = { is_year = 1680 }
		OR = {
			owns_core_province = 1205
			owns_core_province = 3020
		}
	}
	
	immediate = {
		hidden_effect = {
			set_country_flag = eth_start_oromo
			set_global_flag = eth_start_of_the_oromo
		}
	}

	mean_time_to_happen = {
		months = 330
	}
	
	option = {
		name = flavor_eth.21.a #Ok.
		every_province = {
			limit = {
				OR = {
					province_id = 1205
					province_id = 3020
					province_id = 3066
				}
			}
			set_province_flag = eth_starting_oromo_provinces
			tooltip = {
				add_province_modifier = {
					name = "eth_oromo_migration"
					duration = 3650
				}
				change_culture = oromo_c
				change_religion = animism
				add_tribes_visible = {
					new_ratio = 80
				}
			}
			hidden_effect = {
				if = {
					limit = { owned_by = ROOT }
					add_province_modifier = {
						name = "eth_oromo_migration"
						duration = 3650
					}
					change_culture = oromo_c
					change_religion = animism
					add_tribes = {
						new_ratio = 80
					}
					hidden_effect = {
						change_variable = { which = animism	value = 8 }
					}
				}
			}
		}
		every_country = {
			limit = {
				NOT = {
					has_country_flag = eth_start_oromo
				}
				any_owned_province = {
					OR = {
						province_id = 1205
						province_id = 3020
						province_id = 3066
					}
				}
			}
			country_event = { id = flavor_eth.22 }
		}
	}
}

#Oromo info event
country_event = {
	id = flavor_eth.22
	title = flavor_eth.21.t
	desc = flavor_eth.21.d
	picture = FAMINE_eventPicture
	
	is_triggered_only = yes
	
	option = {
		name = flavor_eth.21.a #Ok.
		every_owned_province = {
			limit = {
				has_province_flag = eth_starting_oromo_provinces
			}
			add_province_modifier = {
				name = "eth_oromo_migration"
				duration = 3650
			}
			change_culture = oromo_c
			change_religion = animism
			add_tribes_visible = {
				new_ratio = 80
			}
			hidden_effect = {
				change_variable = { which = animism	value = 8 }
			}
		}
	}
}

#Oromo Settlers (repeating)
province_event = {
	id = flavor_eth.23
	title = flavor_eth.23.t
	desc = flavor_eth.23.d
	picture = BORDER_TENSION_eventPicture
	
	mean_time_to_happen = {
		months = 90
	}
	
	trigger = {
		NOT = { has_province_modifier = eth_oromo_migration }
		NOT = { has_global_flag = end_of_oromo_migrations }
		OR = {
			region = harar_region
			province_id = 3007 # Welega
		}
		any_neighbor_province = {
			has_province_modifier = eth_oromo_migration
		}
	}
	
	option = {
		name = flavor_eth.23.a #Ok.
		add_province_modifier = {
			name = "eth_oromo_migration"
			duration = 3650
		}
		change_culture = oromo_c
		change_religion = animism
		add_tribes_visible = {
			new_ratio = 80
		}
		hidden_effect = {
			change_variable = { which = animism	value = 8 }
		}
	}
}

#Integration of the Oromo
country_event = {
	id = flavor_eth.24
	title = flavor_eth.24.t
	desc = flavor_eth.24.d
	picture = CITY_DEVELOPMENT_eventPicture
	
	fire_only_once = yes
	
	trigger = {
		NOT = { has_global_flag = end_of_oromo_migrations }
		any_owned_province = { has_province_modifier = eth_oromo_migration }
		calc_true_if = {
			all_province = {
				culture = oromo_c
			}
			amount = 11
		}
	}
	
	immediate = {
		hidden_effect = {
			set_country_flag = eth_end_oromo
			every_country = {
				limit = {
					not = { has_country_flag = eth_end_oromo }
					any_owned_province = { has_province_modifier = eth_oromo_migration }
				}
				country_event = { id = flavor_eth.25 days = 1 }	#Info Event
			}
		}
	}
	
	mean_time_to_happen = {
		months = 60
		modifier = {
			factor = 0.5
			num_of_owned_provinces_with = {
				value = 8
				has_province_modifier = eth_oromo_migration
			}
		}
		modifier = {
			factor = 0.5
			num_of_owned_provinces_with = {
				value = 12
				has_province_modifier = eth_oromo_migration
			}
		}
		modifier = {
			factor = 0.5
			num_of_owned_provinces_with = {
				value = 14
				has_province_modifier = eth_oromo_migration
			}
		}
		modifier = {
			factor = 0.5
			num_of_owned_provinces_with = {
				value = 16
				has_province_modifier = eth_oromo_migration
			}
		}
	}
	
	option = {
		name = flavor_eth.24.a #Ok.
		set_global_flag = end_of_oromo_migrations
		every_province = {
			limit = {
				has_province_modifier = eth_oromo_migration
			}
			remove_province_modifier = eth_oromo_migration
		}
		random_province = {
			limit = {
				culture = oromo_c
				NOT = { is_core = ORO }
			}
			add_core = ORO
		}
	}
}

#Info events for other affected countries
country_event = {
	id = flavor_eth.25
	title = flavor_eth.24.t
	desc = flavor_eth.24.d
	picture = CITY_DEVELOPMENT_eventPicture
	
	is_triggered_only = yes
	
	option = {
		name = flavor_eth.24.a #Ok.
		set_country_flag = eth_end_oromo
	}
}

#Amba Geshen - The Mountain of Kings
country_event = {
	id = flavor_eth.26
	title = flavor_eth.26.t
	desc = flavor_eth.26.d
	picture = KING_SICK_IN_BED_eventPicture
	
	fire_only_once = yes
	
	trigger = {
		tag = ETH
		owns = 3009
		ruler_age = 40
		is_lesser_in_union = no
		has_heir = no
		government = monarchy
	}
	
	mean_time_to_happen = {
		months = 48
	}
	
	option = {
		name = flavor_eth.26.a #We are fortunate that our ancestors had such foresight.
		ai_chance = { factor = 90 }
		add_stability_1 = yes
		define_heir = {
			claim = 100
			dynasty = ROOT
		}
		add_country_modifier = {
			name = eth_mount_geshen
			duration = -1
		}
	}
	
	option = {
		name = flavor_eth.26.b #We have no need for this gilded prison.
		ai_chance = { factor = 10 }
		custom_tooltip = flavor_eth.26.b.tt
	}
}

#Helen of Ethiopia
country_event = {
	id = flavor_eth.27
	title = flavor_eth.27.t
	desc = flavor_eth.27.d
	picture = GOOD_WITH_MONARCH_eventPicture
	
	fire_only_once = yes
	
	trigger = {
		has_ruler = "Zara Yakob"
		NOT = { is_year = 1468 }
		NOT = {
			has_global_flag = wih_eleniethiopia_flag
		}
	}
	
	mean_time_to_happen = {
		months = 24
	}
	
	immediate = {
		set_global_flag = wih_eleniethiopia_flag
	}
	
	option = {
		name = flavor_eth.27.a #Ok
		add_adm_power = 25
		if = {
			limit = {
				NOT = { has_dlc = "Rights of Man" }
			}
			define_advisor = {
				type = statesman
				name = "Eleni"
				culture = sidamo
				religion = coptic #But was muslim
				skill = 3
				female = yes
				discount = yes
			}
		}
		if = {
			limit = {
				has_dlc = "Rights of Man"
			}
			define_consort = {
				name = "Eleni"
				country_of_origin = HDY
				dynasty = "Hadiya"
				culture = sidamo
				religion = coptic #But was muslim
				adm = 4
				dip = 4
				mil = 3
				female = yes
			}
			hidden_effect = {
				add_queen_personality = righteous_personality
				add_queen_personality = intricate_web_weaver_personality
			}
		}
	}
}

#Disaster at the Mountain of Kings
country_event = {
	id = flavor_eth.28
	title = flavor_eth.28.t
	desc = flavor_eth.28.d
	picture = KING_SICK_IN_BED_eventPicture
	
	fire_only_once = yes
	
	trigger = {
		tag = ETH
		has_country_modifier = eth_mount_geshen
	}
	
	mean_time_to_happen = {
		months = 1000
	}
	
	option = {
		name = flavor_eth.28.a #All is lost.
		ai_chance = { factor = 90 }
		random_list = {
			30 = {}
			40 = {
				subtract_stability_1 = yes
			}
			30 = {
				subtract_stability_2 = yes
			}
		}
		remove_country_modifier = eth_mount_geshen
	}
}
