#Marathi events

#Maratha Uprising
country_event = {
	id = hee_MAR.1
	title = hee_MAR.1.t
	desc = hee_MAR.1.d
	picture = BATTLE_eventPicture
	
	major = yes
	fire_only_once = yes
	
	trigger = {
		is_year = 1620
		NOT = {
			technology_group = western
		}
		NOT = {
			technology_group = eastern
		}
		NOT = {
			technology_group = turkishtech
		}
		NOT = {
			is_year = 1690
		}
		NOT = {
			exists = MAR
		}
		any_owned_province = {
			culture = marathi
			religion = hinduism
		}
		OR = {
			AND = {
				ai = no
				num_of_cities = 10
			}
			AND = {
				ai = yes
				num_of_cities = 6
			}
		}
		NOT = {
			any_country = {
				has_country_modifier = hee_marathi_enemy
			}
		}
		NOT = {
			primary_culture = marathi
		}
	}
	
	mean_time_to_happen = {
		years = 30
		modifier = {
			factor = 5
			religion = hinduism
		}
		modifier = {
			factor = 1.5
			accepted_culture = marathi
		}
		modifier = {
			factor = 0.8
			religion = sunni
		}
		modifier = {
			factor = 1.5
			ai = no
			is_at_war = yes
		}
		modifier = {
			factor = 0.8
			NOT = {
				num_of_cities = 11
			}
		}
	}
	
	immediate = {
		hidden_effect = {
			add_country_modifier = { #Keep track of previous owner
				name = hee_marathi_enemy
				duration = -1
				hidden = yes
			}
			random_owned_province = {
				limit = {
					culture = marathi
					religion = hinduism
				}
				add_core = MAR
			}
			release = MAR
			MAR = {
				define_ruler = {
					name = "Shivaji"
					dynasty = "Bhonsle"
					ADM = 4
					DIP = 4
					MIL = 5
				}
			}
			every_province = {
				limit = {
					is_city = yes
					culture = marathi
				}
				add_claim = MAR
			}
		}
	}
	
	option = {
		name = hee_MAR.1.a
		hidden_effect = {
			MAR = {
				capital_scope = {
					build_to_forcelimit = {
						infantry = 0.7
						cavalry = 0.3
					}
				}
			}
		}
		MAR = {
			declare_war_with_cb = {
				who = ROOT
				casus_belli = cb_independence_war
			}
		}
	}
}


#Fort Defects
province_event = {
	id = hee_MAR.2
	title = hee_MAR.2.t
	desc = hee_MAR.2.d
	picture = CONQUEST_eventPicture
	
	fire_only_once = yes
	
	trigger = {
		owner = {
			OR = {
				AND = {
					has_country_modifier = hee_marathi_enemy
					num_of_cities = 5
					war_with = MAR
				}
				AND = {
					any_subject_country = {
						has_country_modifier = hee_marathi_enemy
					}
					num_of_cities = 6
					war_with = MAR
				}
			}
		}
		culture = marathi
		any_neighbor_province = {
			owned_by = MAR
		}
		is_capital = no
		NOT = {
			owner = {
				has_country_modifier = hee_no_more_defections
			}
		}
	}
	
	mean_time_to_happen = {
		months = 18
		modifier = {
			factor = 0.7
			religion = hinduism
		}
	}
	
	immediate = {
		hidden_effect = {
			if = {
				limit = {
					owner = {
						has_country_modifier = hee_defected_once
					}
				}
				add_country_modifier = {
					name = hee_no_more_defections
					duration = -1
					hidden = yes
				}
			}
		}
	}
	
	option = {
		name = hee_MAR.2.a
		add_core = MAR
		cede_province = MAR
		hidden_effect = {
			MAR = {
				country_event = { id = hee_MAR.3 }
			}
		}
		MAR = {
			infantry = ROOT
			infantry = ROOT
			cavalry = ROOT
		}
		hidden_effect = {
			add_country_modifier = {
				name = hee_defected_once
				duration = -1
				hidden = yes
			}
		}
	}
}


#Forts defect
country_event = {
	id = hee_MAR.3
	title = hee_MAR.3.t
	desc = hee_MAR.3.d
	picture = CONQUEST_eventPicture
	
	is_triggered_only = yes
	
	option = {
		name = hee_MAR.3.a
		add_mil_power = 50
	}
}

#Doing What Needs to be Done
country_event = {
	id = hee_MAR.4
	title = hee_MAR.4.t
	desc = hee_MAR.4.d
	picture = DIPLOMACY_eventPicture
	
	fire_only_once = yes
	
	trigger = {
		tag = MAR
		any_country = {
			has_country_modifier = hee_marathi_enemy
			war_with = MAR
		}
	}
	
	mean_time_to_happen = { months = 18 }
	
	option = {
		name = hee_MAR.4.a
		add_mil_power = 50
		add_manpower = 2
		add_treasury = 25
		random_country = {
			limit = {
				has_country_modifier = hee_marathi_enemy
			}
			country_event = { id = hee_MAR.5 }
		}
	}
}

#Negotiations and Betrayal!
country_event = {
	id = hee_MAR.5
	title = hee_MAR.5.t
	desc = hee_MAR.5.d
	picture = ASSASSINATION_eventPicture
	
	is_triggered_only = yes
	
	option = {
		name = hee_MAR.5.a
		add_mil_power = -25
		add_manpower = -3
		if = {
			limit = {
				num_of_generals = 1
			}
			kill_leader = {
				type = general
			}
		}
	}
}

#Western Aid
country_event = {
	id = hee_MAR.6
	title = hee_MAR.6.t
	desc = hee_MAR.6.d
	picture = LAND_MILITARY_eventPicture
	
	fire_only_once = yes
	
	trigger = {
		has_country_modifier = hee_marathi_enemy
		war_with = MAR
		any_province = {
			OR = {
				region = east_deccan_region
				region = west_deccan_region
				region = rajputana_region
				region = gujarat_region
			}
			owner = {
				technology_group = western
				NOT = {
					war_with = ROOT
				}
			}
		}
	}
	
	mean_time_to_happen = { months = 30 }
	
	option = {
		name = hee_MAR.6.a
		ai_chance = {
			factor = 90
		}
		add_treasury = -25
		add_mil_power = 25
		add_country_modifier = {
			name = hee_western_aid_marathan_enemy
			duration = 365
		}
		random_owned_province = {
			limit = {
				deccan_region_trigger = yes
			}
			artillery = ROOT
		}
		MAR = {
			country_event = { id = hee_MAR.7 days = 30 random = 10 }
		}
	}
	option = {
		name = hee_MAR.6.b
		ai_chance = {
			factor = 10
		}
		add_prestige = 5
		add_adm_power = 10
	}
}

#$FROM$ Uses Foreign Weaponry
country_event = {
	id = hee_MAR.7
	title = hee_MAR.7.t
	desc = hee_MAR.7.d
	picture = SIEGE_eventPicture
	
	is_triggered_only = yes
	
	trigger = {
		any_country = {
			has_country_modifier = hee_marathi_enemy
			war_with = MAR
		}
	}
	
	option = {
		name = hee_MAR.7.a
		ai_chance = {
			factor = 90
		}
		add_mil_power = 100
		add_country_modifier = {
			name = hee_maratha_western_arms
			duration = 720
		}
		random_country = {
			limit = {
				technology_group = western
				any_owned_province = {
					OR = {
						region = east_deccan_region
						region = west_deccan_region
						region = rajputana_region
						region = gujarat_region
					}
				}
			}
			add_opinion = {
				who = MAR
				modifier = hee_maratha_raided_stores
			}
		}
	}
	option = {
		name = hee_MAR.7.b
		ai_chance = {
			factor = 10
		}
		add_prestige = 10
	}
}
