# Hessian Events

# Hiring of the National Army (also WES)
country_event = {
	id = hee_HES.1
	title = hee_HES.1.t
	desc = hee_HES.1.d
	picture = LAND_MILITARY_eventPicture
	
	trigger = {
		OR = {
			tag = HES
			AND = {
				tag = WES
				HES = {
					exists = no
				}
			}
		}
		is_year = 1630
		is_at_war = no
		army_size = 10
		any_country = {
			OR = {
				capital_scope = { superregion = germany_superregion }
				capital_scope = { superregion = france_superregion }
				capital_scope = { superregion = scandinavian_superregion }
				capital_scope = { OR = { region = belgii_region  region = low_countries_region  } }
				capital_scope = { superregion = italy_superregion }
				capital_scope = { superregion = iberia_superregion }
			}
			is_at_war = yes
		}
	}
	
	mean_time_to_happen = {
		years = 45
		modifier = {
			factor = 0.8
			has_idea_group = administrative_ideas
		}
		modifier = {
			factor = 0.8
			MIL = 4
		}
		modifier = {
			factor = 0.9
			has_idea_group = quality_ideas
		}
	}
	
	option = {
		name = hee_HES.1.a
		add_manpower = -3
		add_years_of_income = 0.25
		add_army_tradition = 5.0
	}
	
	option = {
		name = hee_HES.1.b
		add_mil_power = 25
	}
}
