281 = "Severny Ural"
727 = "Aigun"
1059 = "Udinskoye"
1065 = "Nerchinsk"
1058 = "Albazin"
1062 = "Irkutsk"
1063 = "Angara"
1471 = "Mehiko"
3245 = "Vladivostok"
3246 = "Khanka"
3269 = "Shilka"
3271 = "Selenga"
4197 = "Chita"
