730 = "Kautau"
732 = "Sauzyou"
733 = "Kaisai"
734 = "Reisai"
735 = "Youkwau"
736 = "Reinan"
737 = "Zenra"
877 = "Kainan"
889 = "Shinshau"
1012 = "Sakishima"
1013 = "Okinawa"
1014 = "Amami"
1019 = "Tokati"
1025 = "Kitami"
1034 = "Kamusatuka"
1822 = "Heian"
2233 = "Koukyau"
2276 = "Saishau"
2299 = "Woshima"
2300 = "Ishikari"
2301 = "Ottishi"
2302 = "Tishima"
2303 = "Keirau"
2304 = "Takasago" #Taka-Yama-Koku
2305 = "Tainan"
2328 = "Fakutau"
2461 = "Keishau"
2744 = "Karafuto"
2800 = "Tyouhaku"
2801 = "Kwaushau"
2803 = "Kosai"
2802 = "Kiden"
2804 = "Konan"
2805 = "Andau"
2806 = "Reitau"
3686 = "Kanhoku"


