671 = "Cungzcoj"
672 = "Gveilinz"
708 = "Baekging"
710 = "Yoglinz"
711 = "Gyanghmwnz"
1760 = "Gveigangj"
2073 = "Vujmingz"
2078 = "Baksaeg"
2082 = "Liujcouh"
2086 = "Hohcouh"
2117 = "Ginhcouh"
2121 = "Gvangjcouh"
2464 = "Yangzgyangh"
5440 = "Dunghgvanj"
5441 = "Cunghsanh"
5442 = "Denzlaem"
5443 = "Hozciz"
5497 = "Vwnzsanh"
5498 = "Gvangjsih"