# 1314 - Qazvin

owner = CHU
controller = CHU
add_core = CHU

capital = "Qazvin"
trade_goods = hemp
culture = azerbadjani
religion = sunni #Dei Gratia

hre = no

base_tax = 1
base_production = 2
base_manpower = 0

is_city = yes
road_network = yes
temple = yes
urban_infrastructure_1 = yes
workshop = yes
fort_14th = yes

discovered_by = western
discovered_by = eastern
discovered_by = muslim
discovered_by = turkishtech
discovered_by = steppestech

1360.1.1 = {
	owner = JAI
	controller = JAI
	remove_core = CHU
	add_core = JAI
}
1384.1.1 = {
	owner = TIM
	controller = TIM
}
1444.1.1 = {
	remove_core = JAI
}
1444.1.1 = {
	controller = ISF
	owner = ISF
	remove_core = TIM
	add_core = AKK
	add_core = QAR
}
1447.3.11 = {
	owner = QAR
	controller = QAR
	remove_core = TIM
} # Fars and surroundings to Qara Quyunlu
1469.1.1 = {
	controller = AKK
}
1470.1.1 = {
	owner = AKK
	add_core = AKK
	remove_core = QAR
}
1497.1.1 = {
	controller = REB
	revolt = {
		type = pretender_rebels
	}
} # Civil War
1500.1.1 = {
	base_tax = 1
	base_production = 5
}
1501.1.1 = {
	controller = SAM
	revolt = { }
} # Safawid Expansion
1508.1.1 = {
	owner = SAM
} # Safawid Expansion
1512.1.1 = {
	owner = PER
	controller = PER
	remove_core = AKK
	religion = shiite
	add_core = PER
	fort_14th = yes
	marketplace = yes
} # The Safavids took over, Shi'ism becomes the state religion
1530.1.3 = {
	road_network = no
	paved_road_network = yes
}
1587.1.1 = {
	controller = REB
	revolt = {
		type = pretender_rebels
	}
}
1587.12.11 = {
	controller = PER
	revolt = { }
}
1620.1.1 = {
	fort_14th = yes
}
1747.1.1 = {
	controller = REB
	revolt = {
		type = pretender_rebels
		size = 1
	}
	unrest = 3
} # Shah Nadir is killed, local khanates emerged
1760.1.1 = {
	controller = PER
	revolt = { }
} #Karim Khan
