# 2612 - Beograd

owner = HUN
controller = HUN
add_core = HUN

capital = "Beograd"
trade_goods = wheat #cloth
culture = serbian
religion = orthodox

hre = no

base_tax = 4
base_production = 2
base_manpower = 1

is_city = yes
fort_14th = yes
marketplace = yes
workshop = yes
town_hall = yes
local_fortification_1 = yes
temple = yes
road_network = yes

discovered_by = western
discovered_by = eastern
discovered_by = muslim
discovered_by = turkishtech
discovered_by = steppestech

450.1.1 = {
	set_province_flag = has_confluence
	set_province_flag = good_natural_place
	add_permanent_province_modifier = {
		name = "beograd_confluence"
		duration = -1
	}
}
500.1.1 = {
	add_permanent_province_modifier = {
		name = urban_goods_cloth
		duration = -1
	}
}
1356.1.1 = {
	add_core = SER
}
1404.1.1 = {
	owner = SER
	controller = SER
}
1427.1.1 = {
	owner = HUN
	controller = HUN
} # Despotate of Serbia forced to give back Belgrad
1520.5.5 = {
	base_tax = 19
	base_production = 4
	base_manpower = 2
}
1521.8.28 = {
	owner = TUR
	controller = TUR
	add_core = TUR
}
1530.1.3 = {
	road_network = no
	paved_road_network = yes
}
1595.1.1 = {
	fort_14th = yes
} # Estimated
1688.11.7 = {
	unrest = 7
} # Serb rebellion under D. Brankovic
1717.8.22 = {
	owner = HAB
	controller = HAB
} # Austrian occupation
1739.9.18 = {
	owner = TUR
	controller = TUR
} # Treaty of Beograd, the city is given back
1788.3.1 = {
	controller = HAB
} # Occupied by Austrian forces
1791.1.1 = {
	controller = TUR
}
1806.1.8 = {
	revolt = {
		type = nationalist_rebels
		size = 0
	}
	controller = REB
} # The first Serbian uprising
1813.1.1 = {
	revolt = { }
	controller = TUR
}
1815.4.23 = {
	revolt = {
		type = nationalist_rebels
		size = 0
	}
	controller = REB
} # The second Serbian uprising
1817.1.1 = {
	revolt = { }
	owner = SER
	controller = SER
} # Serbia released as a vassal
