# 2742 - Turpan

owner = MGH
controller = MGH
add_core = MGH

capital = "Dihua"
trade_goods = wool #silk
culture = chaghatai
religion = mahayana

hre = no

base_tax = 6
base_production = 0
base_manpower = 0

is_city = yes
marketplace = yes
road_network = yes

discovered_by = chinese
discovered_by = steppestech

450.1.1 = {
	set_province_flag = tribals_control_province
	add_permanent_province_modifier = {
		name = urban_goods_silk
		duration = -1
	}
}
1356.1.1 = {
	add_core = KAS
	religion = sunni
}
#1419.1.1 = {
#	owner = OIR
#	controller = OIR
#}
1487.1.1 = {
	owner = UIG
	controller = UIG
	culture = uyghur
	add_core = UIG
	remove_core = MGH
	remove_core = CHG
	remove_core = KAS
}
1529.1.1 = {
	discovered_by = muslim
}
1530.1.1 = {
	owner = MGH
	controller = MGH
	add_core = MGH
	remove_core = UIG
}
1622.1.1 = {
	discovered_by = RUS
}
1623.1.1 = {
	remove_core = CHG
}
1635.1.1 = {
	owner = ZUN
	controller = ZUN
	add_core = ZUN
}
1709.1.1 = {
	discovered_by = SPA
}
1755.1.1 = {
	owner = QNG
	controller = QNG
	add_core = QNG
}
