# 3023 - Serae

owner = MED
controller = MED
add_core = MED

capital = "Debarwa"
trade_goods = millet
culture = tigrean
religion = coptic

base_tax = 2
base_production = 0
base_manpower = 0

is_city = yes

discovered_by = eastern
discovered_by = muslim
discovered_by = turkishtech
discovered_by = east_african

#1486.1.1 = {
#	unrest = 5
#	add_core = ADA
#} # Raids by Mahfuz Of Zayla
1495.1.1 = {
	unrest = 5
} # Raids by Mahfuz Of Zayla
1499.1.1 = {
	unrest = 5
} # Raids by Mahfuz Of Zayla
1510.1.1 = {
	unrest = 9
} # Raids by Mahfuz Of Zayla
1588.1.1 = {
	unrest = 7
} # Raids by Sarsa Dengel
1589.1.1 = {
	unrest = 0
}
