# No previous file for Gadabursi

owner = IFA
controller = IFA
add_core = IFA

capital = "Boorama"
trade_goods = lumber #naval_supplies
culture = irir_c
religion = sunni

hre = no

base_tax = 1
base_production = 0
base_manpower = 0

is_city = yes

discovered_by = indian
discovered_by = muslim
discovered_by = turkishtech
discovered_by = east_african

450.1.1 = {
	set_province_flag = tribals_control_province
}
1356.1.1 = {
	add_core = ADA
	add_core = HAR
}
1499.1.1 = {
	discovered_by = POR
}
1550.1.1 = {
	discovered_by = TUR
}
1554.1.1 = {
	unrest = 9
} # Invasion by Oromo causes widespread destruction
1559.1.1 = {
	unrest = 8
} # Invasion by Galawdewos
1562.1.1 = {
	unrest = 5
} # Invasion by Oromo
1567.1.1 = {
	unrest = 5
} # Invasion by Oromo
1568.1.1 = {
	unrest = 0
	owner = HAR
	controller = HAR
}
1577.1.1 = {
	owner = WAR
	controller = WAR
	add_core = WAR
}
