# No previous file for Kanara

owner = BAH
controller = BAH
add_core = BAH

capital = "Yellapur"
trade_goods = pepper
culture = marathi
religion = hinduism

hre = no

base_tax = 8
base_production = 0
base_manpower = 0

is_city = yes

discovered_by = indian
discovered_by = muslim

1356.1.1 = {
	add_core = BIJ
	set_province_flag = add_local_autonomy_25
}
1380.1.1 = {
	controller = VIJ
	owner = VIJ
} # Taken by Harihara II
1469.1.1 = {
	controller = BAH
} # Taken by Bahmanis
1470.1.1 = {
	owner = BAH
} # Taken by Bahmanis
1490.1.1 = {
	owner = BIJ
	controller = BIJ
	remove_core = BAH
} # The Breakup of the Bahmani sultanate
1502.1.1 = {
	discovered_by = POR
}
1511.1.1 = {
	base_tax = 7
	base_production = 4
}
1530.1.1 = {
	owner = VIJ
	controller = VIJ
	add_core = VIJ
}
1530.3.17 = {
	marketplace = yes
	road_network = yes
}
1565.1.1 = {
	controller = BIJ
} # Lost by Vijayanagar in 1565
1565.7.1 = {
	owner = BIJ
} # Lost by Vijayanagar in 1565
1596.2.1 = {
	discovered_by = NED
} # Cornelis de Houtman
1600.1.1 = {
	discovered_by = turkishtech
	discovered_by = ENG
	discovered_by = FRA
}
1636.1.1 = {
	add_core = JAJ
	controller = JAJ
	owner = JAJ
} # Ceded in treaty to Mughals by Bijapur but never actually carried out. De facto under Sidhi, Maratha and Bijapur control without a clear stronger party or claim.
1659.11.30 = {
	owner = MAR
	controller = MAR
	add_core = MAR
} # Battle of Pratapgarh
1686.1.1 = {
	controller = MUG
} # Aurangzeb
1703.1.1 = {
	controller = MAR
}
1707.5.12 = {
	discovered_by = GBR
}
1818.6.3 = {
	owner = GBR
	controller = GBR
}
