# No previous file for Gaya

owner = AHM
controller = AHM
add_core = AHM

capital = "Gaya"
trade_goods = rice
culture = bihari
religion = hinduism

hre = no

base_tax = 47
base_production = 2
base_manpower = 4

is_city = yes
town_hall = yes

discovered_by = indian
discovered_by = muslim
discovered_by = steppestech
discovered_by = turkishtech

1356.1.1 = {
	#add_core = DLH
	add_core = TRT
	unrest = 6
	set_province_flag = add_local_autonomy_25
}
1399.1.1 = {
	owner = AHM
	controller = AHM
	unrest = 0
} #guessed date for independence from Delhi Sultanate
1444.1.1 = {
	add_core = DLH
}
1486.1.1 = {
	owner = DLH
	controller = DLH
	add_core = DLH
	remove_core = AHM
} # Bahlul Lodi places his eldest surviving son Barbak Shah Lodi on the throne of Jaunpur
1511.1.1 = {
	base_tax = 61
}
1526.4.21 = {
	controller = BNG
} # Contested area with lots of different factions fighting eachother after Panipat
#1529.1.1 = {
#	owner = BNG
#	controller = REB
#	revolt = {
#		type = pretender_rebels
#	}
#} # Sur control
1528.1.1 = {
	road_network = yes
}
1530.1.1 = {
	owner = TRT
	controller = TRT
	add_permanent_claim = MUG
	remove_core = DLH
}
1538.1.1 = {
	controller = BNG
	revolt = { }
} # Gaur has fallen
1538.6.1 = {
	controller = MUG
} # Mughal Invasion
1539.1.1 = {
	controller = BNG
	owner = BNG
} # Surs again in control
1540.1.1 = {
	capital = "Patna"
}
1553.1.1 = {
	owner = AHM
	controller = AHM
	remove_core = BNG
} #Death of Islam Shah Sur, Suri empire split
1562.1.1 = {
	owner = BNG
	controller = BNG
} #Remaining Sur lands unified
1575.1.1 = {
	owner = MUG
	controller = MUG
	add_core = MUG
} # Annexed to the Mughal Empire
1627.1.1 = {
	discovered_by = POR
}
1707.3.15 = {
	owner = BNG
	controller = BNG
}
1765.1.1 = {
	owner = GBR
	controller = GBR
	remove_core = MUG
} # Given to GBR by Mughal Empire (was formerly british puppet)
1772.1.1 = {
	unrest = 5
} # Paharia revolt
1780.1.1 = {
	unrest = 7
} # Revolt led by Tilka Manjhi
1785.1.1 = {
	unrest = 2
}
1795.1.1 = {
	unrest = 6
} # Tamar revolt, Munda revolt
