# No previous file for Urzhar

owner = YUA
controller = YUA
add_core = YUA

capital = "Khobogsair"
trade_goods = livestock
culture = oirats
religion = tengri_pagan_reformed

hre = no

base_tax = 5
base_production = 0
base_manpower = 0

is_city = yes

discovered_by = steppestech

450.1.1 = {
	set_province_flag = tribals_control_province
}
1356.1.1 = {
	add_core = OIR
}
1392.1.1 = {
	owner = OIR
	controller = OIR
	remove_core = YUA
}
1501.1.1 = {
	base_tax = 6
}
1615.1.1 = {
	religion = vajrayana
} # State religion
1635.1.1 = {
	owner = ZUN
	controller = ZUN
	add_core = ZUN
	remove_core = OIR
}
1755.1.1 = {
	owner = QNG
	controller = QNG
	add_core = QNG
}
