# Kola
# MEIOU - Gigau

capital = "Guoladat"
trade_goods = fish
culture = sapmi
religion = tengri_pagan_reformed

hre = no

base_tax = 1
base_production = 0
base_manpower = 0

native_size = 5
native_ferocity = 2
native_hostileness = 1

450.1.1 = {
	set_province_flag = tribals_control_province
	set_province_flag = sami_province
	set_variable = { which = tribals_ratio value = 41 }
}
#1356.1.1 = {
#	set_variable = { which = Birkarl_Settlers value = 1 }
#	set_variable = { which = Pomor_Settlers value = 1 }
#	set_variable = { which = Norse_Settlers value = 1 }
#	set_variable = { which = Sami_Natives value = 100 }
#	set_variable = { which = Karelian_Natives value = 10 }
#}
1560.1.1 = {
	owner = RUS
	controller = RUS
	add_core = RUS
	religion = orthodox
	trade_goods = fur
	citysize = 100
	capital = "Kola"
	discovered_by = RUS
	discovered_by = western
	discovered_by = eastern
	set_province_flag = trade_good_set
}
1600.1.1 = {
	citysize = 200
}
1649.1.1 = {
	fort_14th = yes
}
1650.1.1 = {
	citysize = 300
}
1658.1.1 = {
	citysize = 400
}
1700.1.1 = {
	citysize = 500
}
1750.1.1 = {
	citysize = 750
}
1800.1.1 = {
	citysize = 1000
}
