# 3436 - Golla

owner = AYM
controller = AYM
add_core = AYM

capital = "Hatunqulla"
trade_goods = livestock
culture = aimara
religion = inti

hre = no

base_tax = 35
base_production = 2
base_manpower = 3

is_city = yes
marketplace = yes
workshop = yes
road_network = yes
town_hall = yes

discovered_by = south_american

450.1.1 = {
	set_province_flag = tribals_control_province
}
#1356.1.1 = {
#	add_permanent_province_modifier = {
#		name = "coalition_member"
#		duration = -1
#	}
#}
1493.1.1 = {
	owner = INC
	controller = INC
	add_core = INC
	remove_core = AYM
	paved_road_network = yes
	marketplace = yes
}
1501.1.1 = {
	base_tax = 7
	native_size = 5
}
1529.1.1 = {
	owner = CZC
	controller = CZC
	add_core = QUI
	add_core = CZC
	remove_core = INC
}
1535.1.1 = {
	discovered_by = SPA
	add_core = SPA
	owner = SPA
	controller = SPA
	religion = catholic
	culture = castillian
}
1750.1.1 = {
	add_core = PEU
	culture = peruvian
}
1810.9.18 = {
	owner = PEU
	controller = PEU
}
1818.2.12 = {
	remove_core = SPA
}
