# 3812 - Giessen

owner = HES
controller = HES
add_core = HES

capital = "Giessen"
trade_goods = wool
culture = hessian
religion = catholic

hre = yes

base_tax = 7
base_production = 0
base_manpower = 0

is_city = yes
local_fortification_1 = yes

discovered_by = eastern
discovered_by = western
discovered_by = muslim

1500.1.1 = {
	fort_14th = yes
}
# # Philipp der Grossmütige
1501.1.1 = {
	road_network = yes
}
1520.5.5 = {
	base_tax = 8
}
1536.1.1 = {
	religion = protestant
}
1547.1.1 = {
	fort_15th = no
	fort_14th = yes
} # Kassel's fortifications destroyed by catholics
1567.3.31 = {
	owner = HDA
	controller = HDA
	add_core = HDA
	remove_core = HES
}
1620.1.1 = {
	fort_14th = no
	fort_15th = yes
}
# Reformed refugees find shelter in Kassel (-> Oberneustadt founded)
1806.7.12 = {
	hre = no
	owner = HES
	controller = HES
	add_core = HES
	remove_core = HDA
} # The Holy Roman Empire is dissolved
1813.9.1 = {
	controller = RUS
} # Occupied by Russian troops
1813.10.14 = {
	controller = HES
}
1866.1.1 = {
	owner = PRU
	controller = PRU
	add_core = PRU
	remove_core = HES
}
