# 3929 - Sibu

owner = BEI
controller = BEI
add_core = BEI

capital = "Sibu"
trade_goods = rice # gold
culture = malayan
religion = vajrayana #FB this region began to be Islamified c1360

hre = no

base_tax = 1
base_production = 0
base_manpower = 0

is_city = yes

discovered_by = chinese
discovered_by = indian
discovered_by = austranesian

1500.1.1 = {
	religion = sunni
} #FB known to be mainly Islamic by 1515
1501.1.1 = {
	base_tax = 2
}
1521.1.1 = {
	discovered_by = POR
}
1580.1.1 = {
	discovered_by = SPA
	owner = SPA
	controller = SPA
} # Captured by the Spanish
1581.1.1 = {
	owner = BEI
	controller = BEI
}
1672.1.1 = {
	revolt = {
		type = revolutionary_rebels
		size = 2
	}
	controller = REB
} # Civil war over succession
1673.1.1 = {
	revolt = { }
	controller = BEI
}
1740.1.1 = {
	trade_goods = gold
}
