# 3980 - Ostrov

owner = PSK
controller = PSK
add_core = PSK

capital = "Ostrov"
trade_goods = wax
culture = novgorodian
religion = orthodox

hre = no

base_tax = 5
base_production = 0
base_manpower = 0

is_city = yes
road_network = yes

discovered_by = western
discovered_by = eastern
discovered_by = steppestech

1470.1.1 = {
	unrest = 5
} # Struggles between the boyars and smerds
1490.1.1 = {
	unrest = 0
}
1510.1.24 = {
	owner = MOS
	controller = MOS
	add_core = MOS
	fort_14th = yes
	remove_core = PSK
	culture = russian
} # Vasili III put an end to the Pskov republic, still remained a strategic fortress
1521.1.1 = {
	base_tax = 7
}
1547.1.1 = {
	owner = RUS
	controller = RUS
	add_core = RUS
	remove_core = MOS
} # Ivan Grozny becomes the first Tsar of Russia
1598.1.1 = {
	unrest = 8
} # "Time of troubles"
1613.1.1 = {
	unrest = 0
} # Order returned, Romanov dynasty
1773.1.1 = {
	unrest = 5
} # Peasant uprising, Pugachev
1774.1.1 = {
	unrest = 0
}
