# 420 - Nicobar

capital = "Nicobar"
trade_goods = fish
culture = nicobarese
religion = buddhism

hre = no

base_tax = 1
base_production = 0
base_manpower = 0

discovered_by = austranesian

1600.1.1 = {
	discovered_by = POR
}
1754.1.1 = {
	owner = DAN
	controller = DAN
	capital = "Frederiksoerne"
	citysize = 100
}
1779.1.1 = {
	add_core = DAN
}
1814.5.17 = {
	owner = DEN
	controller = DEN
	add_core = DEN
	remove_core = DAN
}
