# No previous file for Nilgiris

capital = "Udagamandalam"
trade_goods = lumber
culture = tamil
religion = hinduism

hre = no

base_tax = 12
base_production = 0
base_manpower = 0

is_city = yes

discovered_by = indian
discovered_by = muslim

1400.1.1 = {
	base_tax = 13
}
1550.1.1 = {
	base_tax = 16
}
1819.1.1 = {
	owner = GBR
	controller = GBR
	is_city = yes
} # Fourth Anglo-Mysore War
1824.1.1 = {
	add_core = GBR
}
1850.1.1 = {
	base_tax = 31
}