# No previous file for Rewa

owner = BGL
controller = BGL
add_core = BGL

capital = "Rewa"
trade_goods = rice
culture = bagheli
religion = hinduism

hre = no

base_tax = 22
base_production = 0
base_manpower = 2

is_city = yes
local_fortification_1 = yes
#fort_14th = yes

discovered_by = indian
discovered_by = muslim
discovered_by = steppestech
discovered_by = turkishtech

1412.1.1 = {
	controller = AHM
} # Jaunpur
1413.1.1 = {
	controller = BGL
} # Jaunpur
1494.1.1 = {
	controller = DLH
} # Delhi
1495.1.1 = {
	controller = BGL
} # Delhi
1511.1.1 = {
	base_tax = 28
}
1530.1.1 = {
	add_permanent_claim = MUG
}
1562.1.1 = {
	controller = MUG
}
1563.1.1 = {
	controller = BGL
}
1595.1.1 = {
	controller = MUG
}
1597.1.1 = {
	controller = BGL
}
1650.1.1 = {
	add_core = BHO
}
1690.1.1 = {
	discovered_by = ENG
}
1707.5.12 = {
	discovered_by = GBR
}
1741.1.1 = {
	controller = MAR
} #Maratha expansion
1743.1.1 = {
	owner = BHO
	controller = BHO
} # The Marathan Empire
1809.1.1 = {
	owner = BGL
	controller = BGL
} # British dependency
