# No previous file for Khulna

owner = BNG
controller = BNG
add_core = BNG

capital = "Khulna"
trade_goods = opium
culture = bengali
religion = hinduism

hre = no

base_tax = 40
base_production = 0
base_manpower = 3

is_city = yes

discovered_by = indian
discovered_by = muslim
discovered_by = chinese
discovered_by = steppestech

500.1.1 = {
	add_permanent_province_modifier = {
		name = "lack_of_harbour"
		duration = -1
	}
}
1500.1.1 = {
	discovered_by = POR
}
1511.1.1 = {
	base_tax = 52
}
1530.1.1 = {
	add_permanent_claim = MUG
}
1530.1.2 = {
	add_core = TRT
}
1550.1.1 = {
	religion = sunni
} #Land reclamation
1587.1.1 = {
	owner = MUG
	controller = MUG
	add_core = MUG
} # Integrated into Mughal Empire
1707.3.15 = {
	owner = BNG
	controller = BNG
	remove_core = MUG
}
1765.1.1 = {
	owner = GBR
	controller = GBR
	add_core = GBR
} # Given to GBR by Mughal Empire (was formerly british puppet)
