# 5411 ruian

owner = CEN
controller = CEN

capital = "Rui'an"
trade_goods = fish
culture = ouyu
religion = confucianism

hre = no

base_tax = 35
base_production = 0
base_manpower = 2

is_city = yes
harbour_infrastructure_1 = yes

discovered_by = chinese
discovered_by = steppestech

1276.1.1 = {
	owner = YUA
	controller = YUA
	add_core = YUA
}
1351.1.1 = {
	owner = CEN
	controller = CEN
	add_core = CEN
	add_core = CMN
	remove_core = YUA
}
1369.3.17 = {
	owner = MNG
	controller = MNG
	add_core = MNG
	remove_core = CEN
	remove_core = CMN
	remove_core = YUA
}
1520.2.2 = {
	base_tax = 55
	base_manpower = 3
}
1645.6.25 = {
	owner = QNG
	controller = QNG
	add_core = QNG
} # The Qing Dynasty
1662.1.1 = {
	remove_core = MNG
}
