#731 - Ninguta

owner = YUA
controller = YUA

capital = "Kirin"
trade_goods = wheat
culture = uriankhai
religion = tengri_pagan_reformed

hre = no

base_tax = 27
base_production = 3
base_manpower = 2

is_city = yes
marketplace = yes
urban_infrastructure_1 = yes
workshop = yes

discovered_by = chinese
discovered_by = steppestech

450.1.1 = {
	set_province_flag = tribals_control_province
}
1271.12.18 = {
	add_core = YUA
} # Proclamation of Yuan dynasty
1308.1.1 = {
	owner = CSE
	controller = CSE
	add_core = CSE
} # Shen viceroy
1345.1.1 = {
	owner = YUA
	controller = YUA
	add_core = MXI
	remove_core = CSE
}
1376.1.1 = {
	owner = MXI
	controller = MXI
	remove_core = YUA
}
1440.1.1 = {
	owner = MHX
	controller = MHX
	add_core = MHX
	remove_core = MXI
	culture = jurchen
} # Nara clan
1530.1.1 = {
	marketplace = yes
}
#1543.1.1 = {
#	owner = MHA
#	controller = MHA
#	add_core = MHA
#	remove_core = MHX
#} #Wangginu creates Hoifa
1607.1.1 = {
	owner = MCH
	controller = MCH
	add_core = MCH
	remove_core = MHX
} # The Later Jin Khanate
1616.2.17 = {
	owner = JIN
	controller = JIN
	add_core = JIN
	remove_core = MCH
}
1635.1.1 = {
	culture = manchu
}
1636.5.15 = {
	owner = QNG
	controller = QNG
	add_core = QNG
	remove_core = JIN
} # The Qing Dynasty