# 839 - Lenca
# GG - 22/07/2008

capital = "Lenca"
trade_goods = unknown
culture = xinca
religion = mesoamerican_religion

hre = no

base_tax = 2
base_production = 0
base_manpower = 0

native_size = 20
native_ferocity = 4
native_hostileness = 8

discovered_by = mesoamerican

450.1.1 = {
	set_province_flag = tribals_control_province
}
1522.1.1 = {
	discovered_by = SPA
}
1525.1.1 = {
	base_tax = 1
}
1530.1.1 = {
	owner = SPA
	controller = SPA
	add_core = SPA
	is_city = yes
	culture = castillian
	religion = catholic
	trade_goods = silver
	naval_arsenal = yes
	marketplace = yes
}
1603.1.1 = {
	citysize = 500
}
1750.1.1 = {
	add_core = MEX
	culture = mexican
}
1810.9.16 = {
	owner = MEX
} # Declaration of Independence
1821.8.24 = {
	controller = MEX
	remove_core = SPA
} # Treaty of Cordba
1823.7.10 = {
	owner = CAM
	controller = CAM
	remove_core = MEX
}
