# Conquest Missions

# Remove [Root.GetName] from the map!
annex_minor_mission = {
	type = neighbor_countries
	category = MIL
	ai_mission = yes
	
	target_provinces = {
		owned_by = ROOT
	}
	allow = {
		is_free_or_tributary_trigger = yes
		FROM = {
			is_free_or_tributary_trigger = yes
			is_at_war = no
		}
		OR = {
			is_part_of_hre = no
			NOT = { hre_reform_level = 5 }
		}
		NOT = { alliance_with = FROM }
		NOT = { is_subject_of = FROM }
		NOT = { overlord_of = FROM }
		NOT = { overlord = { is_subject_of = FROM } }
		NOT = { government = tribal_amalgamation }
		NOT = { tag = PAP }
		NOT = { tag = JAP }
		num_of_cities = 1
		NOT = { num_of_cities = 2 }
		NOT = { government = native_council }
		NOT = { government = siberian_native_council }
		NOT = { reverse_has_opinion = { who = FROM value = 0 } }
		OR = {
			is_part_of_hre = no
			FROM = { is_part_of_hre = no }
		}
		capital_scope = {
			has_discovered = FROM
		}
		NOT = { AND = { tag = FRA has_global_flag = hundred_years_war ai = yes } }
	}
	abort = {
		NOT = { num_of_cities = 1 }
	}
	success = {
		all_target_province = {
			owned_by = FROM
		}
		exists = no
	}
	chance = {
		factor = 1000
		modifier = {
			factor = 1.5
			capital_scope = {
				culture = FROM
			}
		}
		modifier = {
			factor = 1.5
			capital_scope = {
				religion = FROM
			}
		}
		modifier = {
			factor = 1.5
			FROM = { mil = 3 }
		}
		modifier = {
			factor = 0.5
			truce_with = FROM
		}
		modifier = {
			factor = 0.5
			FROM = { NOT = { mil = 2 } }
		}
		modifier = {
			factor = 0.01
			is_tribal = yes
		}
	}
	immediate = {
		every_target_province = {
			add_claim = FROM
		}
	}
	abort_effect = {
		every_target_province = {
			if = {
				limit = {
					NOT = {
						is_permanent_claim = FROM
					}
				}
				remove_claim = FROM
			}
		}
	}
	effect = {
		FROM = {
			add_country_modifier = {
				name = "military_victory"
				duration = 3650
			}
		}
		every_target_province = {
			add_territorial_core_from_effect = yes
		}
	}
}


conquer_a_port = {
	
	type = neighbor_provinces
	category = MIL
	ai_mission = yes
	
	allow = {
		FROM = {
			primitives = no
			is_free_or_tributary_trigger = yes
			is_at_war = no
			NOT = { num_of_total_ports = 1 }
			NOT = { has_country_flag = conquered_a_port }
			NOT = { has_country_modifier = expansion_of_the_shipbuilding_industry }
		}
		owner = {
			OR = {
				is_part_of_hre = no
				NOT = { hre_reform_level = 5 }
			}
			NOT = { truce_with = FROM }
			NOT = { alliance_with = FROM }
			NOT = { is_subject_of = FROM }
			NOT = { overlord_of = FROM }
			NOT = { overlord = { is_subject_of = FROM } }
			is_free_or_tributary_trigger = yes
		}
		NOT = { ROOT = { owner = { government = tribal_amalgamation } } }
		has_port = yes
		has_discovered = FROM
		OR = {
			owner = { is_part_of_hre = no }
			FROM = { is_part_of_hre = no }
		}
		OR = {
			is_capital = no
			owner = { NOT = { num_of_cities = 2 } }
		}
		OR = {
			NOT = { owned_by = PAP }
			is_capital = no
		}
		NOT = { AND = { tag = FRA has_global_flag = hundred_years_war ai = yes } }
	}
	abort = {
		FROM = {
			num_of_total_ports = 1
		}
	}
	success = {
		owned_by = FROM
	}
	chance = {
		factor = 1000
		modifier = {
			factor = 0.75
			NOT = { culture = FROM }
		}
		modifier = {
			factor = 0.75
			NOT = { religion = FROM }
		}
		modifier = {
			factor = 1.5
			FROM = { mil = 4 }
		}
	}
	immediate = {
		add_claim = FROM
	}
	abort_effect = {
		every_target_province = {
			if = {
				limit = {
					NOT = {
						is_permanent_claim = FROM
					}
				}
				remove_claim = FROM
			}
		}
	}
	effect = {
		FROM = {
			set_country_flag = conquered_a_port
			add_navy_tradition = 5
			add_country_modifier = {
				name = "expansion_of_the_shipbuilding_industry"
				duration = 3650
			}
		}
		every_target_province = {
			add_territorial_core_from_effect = yes
		}
	}
}


conquer_neighbour = {
	
	type = neighbor_provinces
	category = MIL
	ai_mission = yes
	
	allow = {
		FROM = {
			is_free_or_tributary_trigger = yes
			NOT = { has_country_modifier = military_victory }
			OR = {
				is_part_of_hre = no
				NOT = { hre_reform_level = 5 }
			}
		}
		NOT = { ROOT = { owner = { government = tribal_amalgamation } } }
		NOT = { is_core = FROM }
		is_colony = no
		NOT = { owner = { has_opinion = { who = FROM value = 0 } } }
		OR = {
			culture_group = FROM
			government_rank = 5
		}
		owner = { NOT = { truce_with = FROM } }
		NOT = { owner = { num_of_infantry = FROM  } }
		NOT = { owner = { vassal_of = FROM } }
		NOT = { owner = { overlord = { is_subject_of = FROM } } }
		owner = {
			NOT = { is_subject_of = FROM }
			NOT = { overlord_of = FROM }
		}
		owner = { is_free_or_tributary_trigger = yes }
		owner = { is_at_war = no }
		has_discovered = FROM
		OR = {
			is_capital = no
			owner = { NOT = { num_of_cities = 2 } }
		}
		OR = {
			owner = { is_part_of_hre = no }
			FROM = { is_part_of_hre = no }
		}
		OR = {
			NOT = { owned_by = PAP }
			is_capital = no
		}
		owner = { NOT = { alliance_with = FROM } }
		NOT = { AND = { tag = FRA has_global_flag = hundred_years_war ai = yes } }
	}
	abort = {
		owner = { NOT = { is_neighbor_of = FROM } }
	}
	success = {
		owned_by = FROM
	}
	chance = {
		factor = 1000
		modifier = {
			factor = 10
			owner = {
				FROM = {
					is_rival = PREV
				}
			}
		}
		modifier = {
			factor = 1.5
			culture = FROM
		}
		modifier = {
			factor = 1.5
			religion = FROM
		}
		modifier = {
			factor = 1.5
			FROM = { mil = 3 }
		}
		modifier = {
			factor = 0.5
			FROM = { NOT = { mil = 2 } }
		}
		modifier = {
			factor = 0.5
			owner = { truce_with = FROM }
		}
		modifier = {
			factor = 0.1
			has_province_flag = tribals_control_province
			FROM = { NOT = { is_tribal = yes } }
		}
	}
	immediate = {
		add_claim = FROM
	}
	abort_effect = {
		owner = {
			every_target_province = {
				if = {
					limit = {
						NOT = {
							is_permanent_claim = FROM
						}
					}
					remove_claim = FROM
				}
			}
		}
	}
	effect = {
		FROM = {
			add_country_modifier = {
				name = "military_victory"
				duration = 3650
			}
		}
		every_target_province = {
			add_territorial_core_from_effect = yes
		}
	}
}


conquer_core = {
	
	type = neighbor_provinces
	category = MIL
	ai_mission = yes
	
	allow = {
		FROM = {
			is_free_or_tributary_trigger = yes
			NOT = { has_country_modifier = military_victory }
			OR = {
				is_part_of_hre = no
				NOT = { hre_reform_level = 5 }
			}
		}
		is_core = FROM
		is_colony = no
		OR = {
			is_capital = no
			owner = { NOT = { num_of_cities = 2 } }
		}
		NOT = { ROOT = { owner = { government = tribal_amalgamation } } }
		NOT = { owner = { vassal_of = FROM } }
		NOT = { owner = { junior_union_with = FROM } }
		owner = { NOT = { truce_with = FROM } }
		owner = { is_free_or_tributary_trigger = yes }
		owner = { is_at_war = no }
		has_discovered = FROM
		owner = {
			NOT = { alliance_with = FROM }
			#OR = {
			#NOT = { tag = JAP }
			#AND = {
			#	tag = JAP
			#	NOT = {
			#		government = shogunate
			#	}
			#}
			#}
		}
		NOT = { AND = { tag = FRA has_global_flag = hundred_years_war ai = yes } }
	}
	abort = {
		NOT = { is_core = FROM }
	}
	success = {
		owned_by = FROM
	}
	chance = {
		factor = 1000
		modifier = {
			factor = 10
			owner = {
				FROM = {
					is_rival = PREV
				}
			}
		}
		modifier = {
			factor = 1.5
			culture = FROM
		}
		modifier = {
			factor = 1.5
			religion = FROM
		}
		modifier = {
			factor = 1.5
			FROM = { mil = 3 }
		}
		modifier = {
			factor = 0.5
			FROM = { NOT = { mil = 2 } }
		}
		modifier = {
			factor = 0.5
			owner = { truce_with = FROM }
		}
	}
	effect = {
		FROM = {
			add_prestige = 5
			add_army_tradition = 5
			add_country_modifier = {
				name = "military_victory"
				duration = 3650
			}
		}
	}
}


protect_religious_minority = {
	
	type = neighbor_provinces
	category = MIL
	ai_mission = yes
	allow = {
		FROM = {
			is_free_or_tributary_trigger = yes
			is_at_war = no
			has_regency = no
		}
		NOT = { ROOT = { owner = { government = tribal_amalgamation } } }
		religion = FROM
		has_owner_religion = no
		has_discovered = FROM
		NOT = { culture = FROM }
		NOT = { is_core = FROM }
		NOT = { is_claim = FROM }
		is_colony = no
		owner = {
			NOT = { overlord = { is_subject_of = FROM } }
			is_free_or_tributary_trigger = yes
			NOT = { alliance_with = FROM }
			NOT = { is_subject_of = FROM }
			NOT = { overlord_of = FROM }
			OR = {
				is_part_of_hre = no
				NOT = { hre_reform_level = 5 }
			}
		}
		owner = { NOT = { is_subject_of = FROM } }
		OR = {
			is_capital = no
			owner = { NOT = { num_of_cities = 2 } }
		}
		NOT = { AND = { tag = FRA has_global_flag = hundred_years_war ai = yes } }
	}
	abort = {
		OR = {
			NOT = { religion = FROM }
			owner = { alliance_with = FROM }
			owner = { religion = FROM }
			owner = { is_subject_of = FROM }
		}
	}
	success = {
		owned_by = FROM
	}
	chance = {
		factor = 1000
		modifier = {
			factor = 1.5
			NOT = { religion_group = owner }
		}
		modifier = {
			factor = 1.5
			culture = FROM
		}
		modifier = {
			factor = 10
			owner = {
				FROM = {
					is_rival = PREV
				}
			}
		}
		modifier = {
			factor = 1.5
			FROM = { mil = 3 }
		}
		modifier = {
			factor = 0.5
			FROM = { NOT = { mil = 2 } }
		}
		modifier = {
			factor = 0.5
			owner = { truce_with = FROM }
		}
		modifier = {
			factor = 0.1
			has_province_flag = tribals_control_province
		}
	}
	immediate = {
		add_claim = FROM
	}
	abort_effect = {
		every_target_province = {
			if = {
				limit = {
					NOT = {
						is_permanent_claim = FROM
					}
				}
				remove_claim = FROM
			}
		}
	}
	effect = {
		FROM = { add_prestige = 5 }
		add_province_modifier = {
			name = "faster_integration"
			duration = 3650
		}
		add_territorial_core_from_effect = yes
	}
}


protect_cultural_minority = {
	
	type = neighbor_provinces
	category = MIL
	ai_mission = yes
	
	allow = {
		FROM = {
			is_free_or_tributary_trigger = yes
			is_at_war = no
			has_regency = no
		}
		culture = FROM
		has_owner_culture = no
		owner = { NOT = { alliance_with = FROM } }
		owner = {
			is_free_or_tributary_trigger = yes
			NOT = { overlord = { is_subject_of = FROM } }
			NOT = { is_subject_of = FROM }
			NOT = { overlord_of = FROM }
			OR = {
				is_part_of_hre = no
				NOT = { hre_reform_level = 5 }
			}
		}
		owner = { num_of_cities = 2 }
		has_discovered = FROM
		NOT = { ROOT = { owner = { government = tribal_amalgamation } } }
		is_capital = no
		NOT = { is_core = FROM }
		NOT = { is_claim = FROM }
		is_colony = no
		OR = {
			owner = { is_part_of_hre = no }
			FROM = { is_part_of_hre = no }
		}
		OR = {
			NOT = { owned_by = PAP }
			is_capital = no
		}
		NOT = { AND = { tag = FRA has_global_flag = hundred_years_war ai = yes } }
	}
	abort = {
		OR = {
			has_owner_culture = yes
			owner = { alliance_with = FROM }
			owner = { is_subject_of = FROM }
			owner = { overlord = { is_subject_of = FROM } }
		}
	}
	success = {
		owned_by = FROM
	}
	chance = {
		factor = 1000
		modifier = {
			factor = 1.5
			NOT = { culture_group = owner }
		}
		modifier = {
			factor = 10
			owner = {
				FROM = {
					is_rival = PREV
				}
			}
		}
		modifier = {
			factor = 1.5
			FROM = { mil = 3 }
		}
		modifier = {
			factor = 0.5
			FROM = { NOT = { mil = 2 } }
		}
		modifier = {
			factor = 0.5
			owner = { truce_with = FROM }
		}
		modifier = {
			factor = 0.5
			has_owner_religion = no #Should protect religious Minority instead.
		}
		modifier = {
			factor = 0.1
			has_province_flag = tribals_control_province
		}
	}
	immediate = {
		add_claim = FROM
	}
	abort_effect = {
		if = {
			limit = {
				NOT = {
					is_permanent_claim = FROM
				}
			}
			remove_claim = FROM
		}
	}
	effect = {
		FROM = { add_prestige = 5 }
		add_province_modifier = {
			name = "faster_integration"
			duration = 3650
		}
		add_territorial_core_from_effect = yes
	}
}


keep_rival_out_of_italy = {
	
	type = rival_countries
	category = MIL
	ai_mission = yes
	
	allow = {
		normal_or_historical_nations = yes
		FROM = {
			is_free_or_tributary_trigger = yes
			num_of_cities = 10
			is_at_war = no
			has_regency = no
			OR = {
				NOT = { has_country_flag = kept_rival_out_of_italy }
				had_country_flag = { flag = kept_rival_out_of_italy days = 7300 }
			}
		}
		num_of_cities = 5
		NOT = { culture_group = latin }
		italy_superregion = { owned_by = FROM }
		NOT = { has_opinion = { who = FROM value = 100 } }
		any_owned_province = {
			OR = {
				region = east_italy_region
				region = west_italy_region
				region = central_italy_region
			}
		}
		OR = {
			is_part_of_hre = no
			FROM = { is_part_of_hre = no }
		}
		NOT = { truce_with = FROM }
		NOT = { alliance_with = FROM }
		NOT = { is_subject_of = FROM }
		NOT = { overlord_of = FROM }
		NOT = { is_subject_other_than_tributary_trigger = yes }
		FROM = { NOT = { is_subject_other_than_tributary_trigger = yes } }
		capital_scope = {
			continent = europe
			NOT = {
				region = east_italy_region
				region = west_italy_region
				region = central_italy_region
			}
		}
		NOT = { AND = { tag = FRA has_global_flag = hundred_years_war ai = yes } }
	}
	abort = {
		NOT = {
			italy_superregion = {
				owned_by = FROM
			}
		}
	}
	success = {
		NOT = {
			any_owned_province = {
				OR = {
					region = east_italy_region
					region = west_italy_region
					region = central_italy_region
				}
			}
		}
	}
	chance = {
		factor = 1000
		modifier = {
			factor = 1.5
			FROM = { mil = 3 }
		}
		modifier = {
			factor = 0.5
			FROM = { NOT = { dip = 2 } }
		}
	}
	effect = {
		FROM = { add_prestige = 5 }
		custom_tooltip = keep_rival_out_of_italy_tooltip
		hidden_effect = {
			FROM = {
				set_country_flag = kept_rival_out_of_italy
				every_owned_province = {
					limit = {
						OR = {
							region = east_italy_region
							region = west_italy_region
							region = central_italy_region
						}
					}
					add_province_modifier = {
						name = "protected_italian_interests"
						duration = 3650
					}
				}
			}
		}
	}
}


attack_prestigous_rival = {
	
	type = rival_countries
	category = MIL
	ai_mission = yes
	
	allow = {
		prestige = FROM
		is_neighbor_of = FROM
		FROM = {
			num_of_cities = 5
			is_at_war = no
			is_free_or_tributary_trigger = yes
			NOT = { has_country_modifier = military_victory }
		}
		num_of_cities = 5
		has_regency = no
		NOT = { is_nomad = yes } #not vs nomads!
		NOT = { truce_with = FROM }
		NOT = { alliance_with = FROM }
		NOT = { is_subject_other_than_tributary_trigger = yes }
		FROM = { NOT = { is_subject_other_than_tributary_trigger = yes } }
		OR = {
			is_part_of_hre = no
			FROM = { is_part_of_hre = no }
		}
		NOT = { AND = { tag = FRA has_global_flag = hundred_years_war ai = yes } }
	}
	abort = {
		OR = {
			FROM = {
				is_subject_other_than_tributary_trigger = yes
			}
			NOT = { num_of_cities = 1 }
		}
	}
	success = {
		war_with = FROM
	}
	chance = {
		factor = 1000
		modifier = {
			factor = 1.5
			FROM = { mil = 3 }
		}
		modifier = {
			factor = 0.5
			FROM = { NOT = { dip = 2 } }
		}
	}
	effect = {
		FROM = {
			add_army_tradition = 5
			add_country_modifier = {
				name = "military_victory"
				duration = 3000
			}
		}
	}
}


attack_weaker_rival = {
	
	type = rival_countries
	category = MIL
	ai_mission = yes
	
	allow = {
		FROM = {
			is_free_or_tributary_trigger = yes
			num_of_cities = 5
			is_at_war = no
			NOT = { has_country_modifier = military_victory }
		}
		NOT = { num_of_infantry = FROM }
		is_neighbor_of = FROM
		is_at_war = yes
		num_of_cities = 5
		NOT = { truce_with = FROM }
		NOT = { alliance_with = FROM }
		NOT = { is_subject_other_than_tributary_trigger = yes }
		FROM = { NOT = { is_subject_other_than_tributary_trigger = yes } }
		OR = {
			is_part_of_hre = no
			FROM = { is_part_of_hre = no }
		}
		has_regency = no
		NOT = { AND = { tag = FRA has_global_flag = hundred_years_war ai = yes } }
	}
	abort = {
		OR = {
			FROM = {
				is_subject_other_than_tributary_trigger = yes
			}
			is_at_war = no
		}
	}
	success = {
		war_with = FROM
	}
	chance = {
		factor = 1000
		modifier = {
			factor = 1.5
			FROM = { mil = 3 }
		}
		modifier = {
			factor = 0.5
			FROM = { NOT = { dip = 2 } }
		}
	}
	effect = {
		FROM = {
			add_army_tradition = 5
			add_country_modifier = {
				name = "military_victory"
				duration = 3000
			}
		}
	}
}


italian_ambition = {
	
	type = country
	category = MIL
	ai_mission = yes
	
	allow = {
		normal_or_historical_nations = yes
		is_free_or_tributary_trigger = yes
		is_year = 1460
		NOT = { has_country_flag = had_italian_ambition_mission }
		num_of_cities = 10
		NOT = { is_year = 1600 }
		NOT = { culture_group = latin }
		religion_group = christian
		OR = {
			culture_group = langue_d_oil
			culture_group = langue_d_oc
			primary_culture = austrian
			culture_group = iberian
		}
		NOT = {
			num_of_owned_provinces_with = {
			value = 2
			OR = {
				region = east_italy_region
				region = west_italy_region
				region = central_italy_region
			}
			}
		}
		capital_scope = {
			continent = europe
		}
		NOT = { AND = { tag = FRA has_global_flag = hundred_years_war ai = yes } }
	}
	abort = {
		is_subject_other_than_tributary_trigger = yes
	}
	success = {
		num_of_owned_provinces_with = {
			value = 5
			OR = {
				region = east_italy_region
				region = west_italy_region
				region = central_italy_region
			}
		}
	}
	chance = {
		factor = 5000
		modifier = {
			factor = 1.5
			FROM = { mil = 3 }
		}
		modifier = {
			factor = 0.5
			NOT = { dip = 2 }
		}
		modifier = {
			factor = 1.5
			tag = HAB
		}
		modifier = {
			factor = 1.5
			tag = FRA
		}
		modifier = {
			factor = 1.5
			tag = SPA
		}
	}
	effect = {
		add_prestige = 5
		add_army_tradition = 5
		set_country_flag = had_italian_ambition_mission
		add_country_modifier = {
			name = "italian_ambition_modifier"
			duration = 3650
		}
	}
}

#conquest_of_xalisco = {
#	
#	type = country
#	
#	category = MIL
#	ai_mission = yes
#	
#	target_provinces = {
#		owned_by = XAL
#	}
#	allow = {
#		is_free_or_tributary_trigger = yes
#		is_at_war = no
#		is_neighbor_of = XAL
#		XAL = { religion_group = new_world_pagan }
#	}
#	abort = {
#		NOT = { exists = XAL }
#	}
#	success = {
#		NOT = { exists = XAL }
#		all_target_province = {
#			owned_by = ROOT
#		}
#	}
#	chance = {
#		factor = 1000
#		modifier = {
#			factor = 2
#			mil = 4
#		}
#		modifier = {
#			factor = 2
#			mil = 6
#		}
#		modifier = {
#			factor = 2
#			adm = 4
#		}
#	}
#	immediate = {
#		every_target_province = {
#			add_claim = ROOT
#		}
#	}
#	abort_effect = {
#		every_target_province = {
#			remove_claim = ROOT
#		}
#	}
#	effect = {
#		add_army_tradition = 15
#		add_war_exhaustion = -4
#		every_target_province = {
#			add_territorial_core_effect = yes
#		}
#	}
#}
#
#conquest_of_purepecha = {
#	
#	type = country
#	
#	category = MIL
#	ai_mission = yes
#	
#	target_provinces = {
#		owned_by = PUR
#	}
#	allow = {
#		is_free_or_tributary_trigger = yes
#		is_at_war = no
#		is_neighbor_of = PUR
#		PUR = { religion_group = new_world_pagan }
#	}
#	abort = {
#		NOT = { exists = PUR }
#	}
#	success = {
#		NOT = { exists = PUR }
#		all_target_province = {
#			owned_by = ROOT
#		}
#	}
#	chance = {
#		factor = 1000
#		modifier = {
#			factor = 2
#			mil = 4
#		}
#		modifier = {
#			factor = 2
#			mil = 6
#		}
#		modifier = {
#			factor = 2
#			adm = 4
#		}
#	}
#	immediate = {
#		every_target_province = {
#			add_claim = ROOT
#		}
#	}
#	abort_effect = {
#		every_target_province = {
#			remove_claim = ROOT
#		}
#	}
#	effect = {
#		add_army_tradition = 15
#		add_war_exhaustion = -4
#		every_target_province = {
#			add_territorial_core_effect = yes
#		}
#	}
#}
#
## the 2 following missions is for conquering no longer existing tags
## conquest_of_nahualt = {
#
## type = country
#
## category = MIL
#
## target_provinces = {
## owned_by = NAH
## }
## allow = {
## is_free_or_tributary_trigger = yes
## is_at_war = no
## is_neighbor_of = NAH
## NAH = { religion_group = new_world_pagan }
## }
## abort = {
## NOT = { exists = NAH }
## }
## success = {
## NOT = { exists = NAH }
## all_target_province = {
## owned_by = ROOT
## }
## }
## chance = {
## factor = 1000
## modifier = {
## factor = 2
## mil = 4
## }
## modifier = {
## factor = 2
## mil = 6
## }
## modifier = {
## factor = 2
## adm = 4
## }
## }
## immediate = {
## every_target_province = {
## add_claim = ROOT
## }
## }
## abort_effect = {
## every_target_province = {
## remove_claim = ROOT
## }
## }
## effect = {
## add_army_tradition = 15
## add_war_exhaustion = -4
## every_target_province = {
## add_territorial_core_effect = yes
## }
## }
## }
#
## conquest_of_otomis = {
#
## type = country
#
## category = MIL
#
## target_provinces = {
## owned_by = OTO
## }
## allow = {
## is_free_or_tributary_trigger = yes
## is_at_war = no
## is_neighbor_of = OTO
## OTO = { religion_group = new_world_pagan }
## }
## abort = {
## NOT = { exists = OTO }
## }
## success = {
## NOT = { exists = OTO }
## all_target_province = {
## owned_by = ROOT
## }
## }
## chance = {
## factor = 1000
## modifier = {
## factor = 2
## mil = 4
## }
## modifier = {
## factor = 2
## mil = 6
## }
## modifier = {
## factor = 2
## adm = 4
## }
## }
## immediate = {
## every_target_province = {
## add_claim = ROOT
## }
## }
## abort_effect = {
## every_target_province = {
## remove_claim = ROOT
## }
## }
## effect = {
## add_army_tradition = 15
## add_war_exhaustion = -4
## every_target_province = {
## add_territorial_core_effect = yes
## }
## }
## }
#
#conquest_of_tepanec = {
#	
#	type = country
#	
#	category = MIL
#	ai_mission = yes
#	
#	target_provinces = {
#		owned_by = TEP
#	}
#	allow = {
#		is_free_or_tributary_trigger = yes
#		is_at_war = no
#		is_neighbor_of = TEP
#		TEP = { religion_group = new_world_pagan }
#	}
#	abort = {
#		NOT = { exists = TEP }
#	}
#	success = {
#		NOT = { exists = TEP }
#		all_target_province = {
#			owned_by = ROOT
#		}
#	}
#	chance = {
#		factor = 1000
#		modifier = {
#			factor = 2
#			mil = 4
#		}
#		modifier = {
#			factor = 2
#			mil = 6
#		}
#		modifier = {
#			factor = 2
#			adm = 4
#		}
#	}
#	immediate = {
#		every_target_province = {
#			add_claim = ROOT
#		}
#	}
#	abort_effect = {
#		every_target_province = {
#			remove_claim = ROOT
#		}
#	}
#	effect = {
#		add_army_tradition = 15
#		add_war_exhaustion = -4
#		every_target_province = {
#			add_territorial_core_effect = yes
#		}
#	}
#}
#
#conquest_of_tenotictlan = {
#	
#	type = country
#	
#	category = MIL
#	ai_mission = yes
#	
#	target_provinces = {
#		owned_by = TEN
#	}
#	allow = {
#		is_free_or_tributary_trigger = yes
#		is_at_war = no
#		is_neighbor_of = TEN
#		TEN = { religion_group = new_world_pagan }
#	}
#	abort = {
#		NOT = { exists = TEN }
#	}
#	success = {
#		NOT = { exists = TEN }
#		all_target_province = {
#			owned_by = ROOT
#		}
#	}
#	chance = {
#		factor = 1000
#		modifier = {
#			factor = 2
#			mil = 4
#		}
#		modifier = {
#			factor = 2
#			mil = 6
#		}
#		modifier = {
#			factor = 2
#			adm = 4
#		}
#	}
#	immediate = {
#		every_target_province = {
#			add_claim = ROOT
#		}
#	}
#	abort_effect = {
#		every_target_province = {
#			remove_claim = ROOT
#		}
#	}
#	effect = {
#		add_army_tradition = 15
#		add_war_exhaustion = -4
#		every_target_province = {
#			add_territorial_core_effect = yes
#		}
#	}
#}
#
#conquest_of_acolhua = {
#	
#	type = country
#	
#	category = MIL
#	ai_mission = yes
#	
#	target_provinces = {
#		owned_by = ACO
#	}
#	allow = {
#		is_free_or_tributary_trigger = yes
#		is_at_war = no
#		is_neighbor_of = ACO
#		ACO = { religion_group = new_world_pagan }
#	}
#	abort = {
#		NOT = { exists = ACO }
#	}
#	success = {
#		NOT = { exists = ACO }
#		all_target_province = {
#			owned_by = ROOT
#		}
#	}
#	chance = {
#		factor = 1000
#		modifier = {
#			factor = 2
#			mil = 4
#		}
#		modifier = {
#			factor = 2
#			mil = 6
#		}
#		modifier = {
#			factor = 2
#			adm = 4
#		}
#	}
#	immediate = {
#		every_target_province = {
#			add_claim = ROOT
#		}
#	}
#	abort_effect = {
#		every_target_province = {
#			remove_claim = ROOT
#		}
#	}
#	effect = {
#		add_army_tradition = 15
#		add_war_exhaustion = -4
#		every_target_province = {
#			add_territorial_core_effect = yes
#		}
#	}
#}
#
#conquest_of_tlaxcalla = {
#	
#	type = country
#	
#	category = MIL
#	ai_mission = yes
#	
#	target_provinces = {
#		owned_by = TXL
#	}
#	allow = {
#		is_free_or_tributary_trigger = yes
#		is_at_war = no
#		is_neighbor_of = TXL
#		TXL = { religion_group = new_world_pagan }
#	}
#	abort = {
#		NOT = { exists = TXL }
#	}
#	success = {
#		NOT = { exists = TXL }
#		all_target_province = {
#			owned_by = ROOT
#		}
#	}
#	chance = {
#		factor = 1000
#		modifier = {
#			factor = 2
#			mil = 4
#		}
#		modifier = {
#			factor = 2
#			mil = 6
#		}
#		modifier = {
#			factor = 2
#			adm = 4
#		}
#	}
#	immediate = {
#		every_target_province = {
#			add_claim = ROOT
#		}
#	}
#	abort_effect = {
#		every_target_province = {
#			remove_claim = ROOT
#		}
#	}
#	effect = {
#		add_army_tradition = 15
#		add_war_exhaustion = -4
#		every_target_province = {
#			add_territorial_core_effect = yes
#		}
#	}
#}
#
#conquest_of_aztec = {
#	
#	type = country
#	
#	category = MIL
#	ai_mission = yes
#	
#	target_provinces = {
#		owned_by = AZT
#	}
#	allow = {
#		is_free_or_tributary_trigger = yes
#		is_at_war = no
#		is_neighbor_of = AZT
#		AZT = { religion_group = new_world_pagan }
#	}
#	abort = {
#		NOT = { exists = AZT }
#	}
#	success = {
#		NOT = { exists = AZT }
#		all_target_province = {
#			owned_by = ROOT
#		}
#	}
#	chance = {
#		factor = 1000
#		modifier = {
#			factor = 2
#			mil = 4
#		}
#		modifier = {
#			factor = 2
#			mil = 6
#		}
#		modifier = {
#			factor = 2
#			adm = 4
#		}
#	}
#	immediate = {
#		every_target_province = {
#			add_claim = ROOT
#		}
#	}
#	abort_effect = {
#		every_target_province = {
#			remove_claim = ROOT
#		}
#	}
#	effect = {
#		add_army_tradition = 15
#		add_war_exhaustion = -4
#		every_target_province = {
#			add_territorial_core_effect = yes
#		}
#	}
#}
#
#conquest_of_mixtec = {
#	
#	type = country
#	
#	category = MIL
#	ai_mission = yes
#	
#	target_provinces = {
#		owned_by = MIX
#	}
#	allow = {
#		is_free_or_tributary_trigger = yes
#		is_at_war = no
#		is_neighbor_of = MIX
#		MIX = { religion_group = new_world_pagan }
#	}
#	abort = {
#		NOT = { exists = MIX }
#	}
#	success = {
#		NOT = { exists = MIX }
#		all_target_province = {
#			owned_by = ROOT
#		}
#	}
#	chance = {
#		factor = 1000
#		modifier = {
#			factor = 2
#			mil = 4
#		}
#		modifier = {
#			factor = 2
#			mil = 6
#		}
#		modifier = {
#			factor = 2
#			adm = 4
#		}
#	}
#	immediate = {
#		every_target_province = {
#			add_claim = ROOT
#		}
#	}
#	abort_effect = {
#		every_target_province = {
#			remove_claim = ROOT
#		}
#	}
#	effect = {
#		add_army_tradition = 15
#		add_war_exhaustion = -4
#		every_target_province = {
#			add_territorial_core_effect = yes
#		}
#	}
#}
#
#conquest_of_mayaempire = {
#	
#	type = country
#	
#	category = MIL
#	ai_mission = yes
#	
#	target_provinces = {
#		owned_by = MAY
#	}
#	allow = {
#		is_free_or_tributary_trigger = yes
#		is_at_war = no
#		is_neighbor_of = MAY
#		MAY = { religion_group = new_world_pagan }
#	}
#	abort = {
#		NOT = { exists = MAY }
#	}
#	success = {
#		NOT = { exists = MAY }
#		all_target_province = {
#			owned_by = ROOT
#		}
#	}
#	chance = {
#		factor = 1000
#		modifier = {
#			factor = 2
#			mil = 4
#		}
#		modifier = {
#			factor = 2
#			mil = 6
#		}
#		modifier = {
#			factor = 2
#			adm = 4
#		}
#	}
#	immediate = {
#		every_target_province = {
#			add_claim = ROOT
#		}
#	}
#	abort_effect = {
#		every_target_province = {
#			remove_claim = ROOT
#		}
#	}
#	effect = {
#		add_army_tradition = 15
#		add_war_exhaustion = -4
#		every_target_province = {
#			add_territorial_core_effect = yes
#		}
#	}
#}
#
#conquest_of_mayapan = {
#	
#	type = country
#	
#	category = MIL
#	ai_mission = yes
#	
#	target_provinces = {
#		owned_by = KKM
#	}
#	allow = {
#		is_free_or_tributary_trigger = yes
#		is_at_war = no
#		is_neighbor_of = KKM
#		KKM = { religion_group = new_world_pagan }
#	}
#	abort = {
#		NOT = { exists = KKM }
#	}
#	success = {
#		NOT = { exists = KKM }
#		all_target_province = {
#			owned_by = ROOT
#		}
#	}
#	chance = {
#		factor = 1000
#		modifier = {
#			factor = 2
#			mil = 4
#		}
#		modifier = {
#			factor = 2
#			mil = 6
#		}
#		modifier = {
#			factor = 2
#			adm = 4
#		}
#	}
#	immediate = {
#		every_target_province = {
#			add_claim = ROOT
#		}
#	}
#	abort_effect = {
#		every_target_province = {
#			remove_claim = ROOT
#		}
#	}
#	effect = {
#		add_army_tradition = 15
#		add_war_exhaustion = -4
#		every_target_province = {
#			add_territorial_core_effect = yes
#		}
#	}
#}
#
#conquest_of_qumarkaj = {
#	
#	type = country
#	
#	category = MIL
#	ai_mission = yes
#	
#	target_provinces = {
#		owned_by = QUM
#	}
#	allow = {
#		is_free_or_tributary_trigger = yes
#		is_at_war = no
#		is_neighbor_of = QUM
#		QUM = { religion_group = new_world_pagan }
#	}
#	abort = {
#		NOT = { exists = QUM }
#	}
#	success = {
#		NOT = { exists = QUM }
#		all_target_province = {
#			owned_by = ROOT
#		}
#	}
#	chance = {
#		factor = 1000
#		modifier = {
#			factor = 2
#			mil = 4
#		}
#		modifier = {
#			factor = 2
#			mil = 6
#		}
#		modifier = {
#			factor = 2
#			adm = 4
#		}
#	}
#	immediate = {
#		every_target_province = {
#			add_claim = ROOT
#		}
#	}
#	abort_effect = {
#		every_target_province = {
#			remove_claim = ROOT
#		}
#	}
#	effect = {
#		add_army_tradition = 15
#		add_war_exhaustion = -4
#		every_target_province = {
#			add_territorial_core_effect = yes
#		}
#	}
#}
#
#conquest_of_cuzcatlan = {
#	
#	type = country
#	
#	category = MIL
#	ai_mission = yes
#	
#	target_provinces = {
#		owned_by = PIP
#	}
#	allow = {
#		is_free_or_tributary_trigger = yes
#		is_at_war = no
#		is_neighbor_of = PIP
#		PIP = { religion_group = new_world_pagan }
#	}
#	abort = {
#		NOT = { exists = PIP }
#	}
#	success = {
#		NOT = { exists = PIP }
#		all_target_province = {
#			owned_by = ROOT
#		}
#	}
#	chance = {
#		factor = 1000
#		modifier = {
#			factor = 2
#			mil = 4
#		}
#		modifier = {
#			factor = 2
#			mil = 6
#		}
#		modifier = {
#			factor = 2
#			adm = 4
#		}
#	}
#	immediate = {
#		every_target_province = {
#			add_claim = ROOT
#		}
#	}
#	abort_effect = {
#		every_target_province = {
#			remove_claim = ROOT
#		}
#	}
#	effect = {
#		add_army_tradition = 15
#		add_war_exhaustion = -4
#		every_target_province = {
#			add_territorial_core_effect = yes
#		}
#	}
#}
#
#conquest_of_teotitlan = {
#	
#	type = country
#	
#	category = MIL
#	ai_mission = yes
#	
#	target_provinces = {
#		owned_by = TEO
#	}
#	allow = {
#		is_free_or_tributary_trigger = yes
#		is_at_war = no
#		is_neighbor_of = TEO
#		TEO = { religion_group = new_world_pagan }
#	}
#	abort = {
#		NOT = { exists = TEO }
#	}
#	success = {
#		NOT = { exists = TEO }
#		all_target_province = {
#			owned_by = ROOT
#		}
#	}
#	chance = {
#		factor = 1000
#		modifier = {
#			factor = 2
#			mil = 4
#		}
#		modifier = {
#			factor = 2
#			mil = 6
#		}
#		modifier = {
#			factor = 2
#			adm = 4
#		}
#	}
#	immediate = {
#		every_target_province = {
#			add_claim = ROOT
#		}
#	}
#	abort_effect = {
#		every_target_province = {
#			remove_claim = ROOT
#		}
#	}
#	effect = {
#		add_army_tradition = 15
#		add_war_exhaustion = -4
#		every_target_province = {
#			add_territorial_core_effect = yes
#		}
#	}
#}
#
#conquest_of_totonacapan = {
#	
#	type = country
#	
#	category = MIL
#	ai_mission = yes
#	
#	target_provinces = {
#		owned_by = TOT
#	}
#	allow = {
#		is_free_or_tributary_trigger = yes
#		is_at_war = no
#		is_neighbor_of = TOT
#		TOT = { religion_group = new_world_pagan }
#	}
#	abort = {
#		NOT = { exists = TOT }
#	}
#	success = {
#		NOT = { exists = TOT }
#		all_target_province = {
#			owned_by = ROOT
#		}
#	}
#	chance = {
#		factor = 1000
#		modifier = {
#			factor = 2
#			mil = 4
#		}
#		modifier = {
#			factor = 2
#			mil = 6
#		}
#		modifier = {
#			factor = 2
#			adm = 4
#		}
#	}
#	immediate = {
#		every_target_province = {
#			add_claim = ROOT
#		}
#	}
#	abort_effect = {
#		every_target_province = {
#			remove_claim = ROOT
#		}
#	}
#	effect = {
#		add_army_tradition = 15
#		add_war_exhaustion = -4
#		every_target_province = {
#			add_territorial_core_effect = yes
#		}
#	}
#}
#
#conquest_of_zapotec = {
#	
#	type = country
#	
#	category = MIL
#	ai_mission = yes
#	
#	target_provinces = {
#		owned_by = ZAP
#	}
#	allow = {
#		is_free_or_tributary_trigger = yes
#		is_at_war = no
#		is_neighbor_of = ZAP
#		ZAP = { religion_group = new_world_pagan }
#	}
#	abort = {
#		NOT = { exists = ZAP }
#	}
#	success = {
#		NOT = { exists = ZAP }
#		all_target_province = {
#			owned_by = ROOT
#		}
#	}
#	chance = {
#		factor = 1000
#		modifier = {
#			factor = 2
#			mil = 4
#		}
#		modifier = {
#			factor = 2
#			mil = 6
#		}
#		modifier = {
#			factor = 2
#			adm = 4
#		}
#	}
#	immediate = {
#		every_target_province = {
#			add_claim = ROOT
#		}
#	}
#	abort_effect = {
#		every_target_province = {
#			remove_claim = ROOT
#		}
#	}
#	effect = {
#		add_army_tradition = 15
#		add_war_exhaustion = -4
#		every_target_province = {
#			add_territorial_core_effect = yes
#		}
#	}
#}
#
#conquest_of_ayamarca = {
#	
#	type = country
#	
#	category = MIL
#	ai_mission = yes
#	
#	target_provinces = {
#		owned_by = AYA
#	}
#	allow = {
#		is_free_or_tributary_trigger = yes
#		is_at_war = no
#		is_neighbor_of = AYA
#		AYA = { religion_group = new_world_pagan }
#	}
#	abort = {
#		NOT = { exists = AYA }
#	}
#	success = {
#		NOT = { exists = AYA }
#		all_target_province = {
#			owned_by = ROOT
#		}
#	}
#	chance = {
#		factor = 1000
#		modifier = {
#			factor = 2
#			mil = 4
#		}
#		modifier = {
#			factor = 2
#			mil = 6
#		}
#		modifier = {
#			factor = 2
#			adm = 4
#		}
#	}
#	immediate = {
#		every_target_province = {
#			add_claim = ROOT
#		}
#	}
#	abort_effect = {
#		every_target_province = {
#			remove_claim = ROOT
#		}
#	}
#	effect = {
#		add_army_tradition = 15
#		add_war_exhaustion = -4
#		every_target_province = {
#			add_territorial_core_effect = yes
#		}
#	}
#}
#
#conquest_of_aymara = {
#	
#	type = country
#	
#	category = MIL
#	ai_mission = yes
#	
#	target_provinces = {
#		owned_by = AYM
#	}
#	allow = {
#		is_free_or_tributary_trigger = yes
#		is_at_war = no
#		is_neighbor_of = AYM
#		AYM = { religion_group = new_world_pagan }
#	}
#	abort = {
#		NOT = { exists = AYM }
#	}
#	success = {
#		NOT = { exists = AYM }
#		all_target_province = {
#			owned_by = ROOT
#		}
#	}
#	chance = {
#		factor = 1000
#		modifier = {
#			factor = 2
#			mil = 4
#		}
#		modifier = {
#			factor = 2
#			mil = 6
#		}
#		modifier = {
#			factor = 2
#			adm = 4
#		}
#	}
#	immediate = {
#		every_target_province = {
#			add_claim = ROOT
#		}
#	}
#	abort_effect = {
#		every_target_province = {
#			remove_claim = ROOT
#		}
#	}
#	effect = {
#		add_army_tradition = 15
#		add_war_exhaustion = -4
#		every_target_province = {
#			add_territorial_core_effect = yes
#		}
#	}
#}
#
#conquest_of_chibchaya = {
#	
#	type = country
#	
#	category = MIL
#	ai_mission = yes
#	
#	target_provinces = {
#		owned_by = CBC
#	}
#	allow = {
#		is_free_or_tributary_trigger = yes
#		is_at_war = no
#		is_neighbor_of = CBC
#		CBC = { religion_group = new_world_pagan }
#	}
#	abort = {
#		NOT = { exists = CBC }
#	}
#	success = {
#		NOT = { exists = CBC }
#		all_target_province = {
#			owned_by = ROOT
#		}
#	}
#	chance = {
#		factor = 1000
#		modifier = {
#			factor = 2
#			mil = 4
#		}
#		modifier = {
#			factor = 2
#			mil = 6
#		}
#		modifier = {
#			factor = 2
#			adm = 4
#		}
#	}
#	immediate = {
#		every_target_province = {
#			add_claim = ROOT
#		}
#	}
#	abort_effect = {
#		every_target_province = {
#			remove_claim = ROOT
#		}
#	}
#	effect = {
#		add_army_tradition = 15
#		add_war_exhaustion = -4
#		every_target_province = {
#			add_territorial_core_effect = yes
#		}
#	}
#}
#
#conquest_of_chancay = {
#	
#	type = country
#	
#	category = MIL
#	ai_mission = yes
#	
#	target_provinces = {
#		owned_by = CHC
#	}
#	allow = {
#		is_free_or_tributary_trigger = yes
#		is_at_war = no
#		is_neighbor_of = CHC
#		CHC = { religion_group = new_world_pagan }
#	}
#	abort = {
#		NOT = { exists = CHC }
#	}
#	success = {
#		NOT = { exists = CHC }
#		all_target_province = {
#			owned_by = ROOT
#		}
#	}
#	chance = {
#		factor = 1000
#		modifier = {
#			factor = 2
#			mil = 4
#		}
#		modifier = {
#			factor = 2
#			mil = 6
#		}
#		modifier = {
#			factor = 2
#			adm = 4
#		}
#	}
#	immediate = {
#		every_target_province = {
#			add_claim = ROOT
#		}
#	}
#	abort_effect = {
#		every_target_province = {
#			remove_claim = ROOT
#		}
#	}
#	effect = {
#		add_army_tradition = 15
#		add_war_exhaustion = -4
#		every_target_province = {
#			add_territorial_core_effect = yes
#		}
#	}
#}
#
#conquest_of_chimu = {
#	
#	type = country
#	
#	category = MIL
#	ai_mission = yes
#	
#	target_provinces = {
#		owned_by = CHM
#	}
#	allow = {
#		is_free_or_tributary_trigger = yes
#		is_at_war = no
#		is_neighbor_of = CHM
#		CHM = { religion_group = new_world_pagan }
#	}
#	abort = {
#		NOT = { exists = CHM }
#	}
#	success = {
#		NOT = { exists = CHM }
#		all_target_province = {
#			owned_by = ROOT
#		}
#	}
#	chance = {
#		factor = 1000
#		modifier = {
#			factor = 2
#			mil = 4
#		}
#		modifier = {
#			factor = 2
#			mil = 6
#		}
#		modifier = {
#			factor = 2
#			adm = 4
#		}
#	}
#	immediate = {
#		every_target_province = {
#			add_claim = ROOT
#		}
#	}
#	abort_effect = {
#		every_target_province = {
#			remove_claim = ROOT
#		}
#	}
#	effect = {
#		add_army_tradition = 15
#		add_war_exhaustion = -4
#		every_target_province = {
#			add_territorial_core_effect = yes
#		}
#	}
#}
#
#conquest_of_cuzco = {
#	
#	type = country
#	
#	category = MIL
#	ai_mission = yes
#	
#	target_provinces = {
#		owned_by = CZC
#	}
#	allow = {
#		is_free_or_tributary_trigger = yes
#		is_at_war = no
#		is_neighbor_of = CZC
#		CZC = { religion_group = new_world_pagan }
#	}
#	abort = {
#		NOT = { exists = CZC }
#	}
#	success = {
#		NOT = { exists = CZC }
#		all_target_province = {
#			owned_by = ROOT
#		}
#	}
#	chance = {
#		factor = 1000
#		modifier = {
#			factor = 2
#			mil = 4
#		}
#		modifier = {
#			factor = 2
#			mil = 6
#		}
#		modifier = {
#			factor = 2
#			adm = 4
#		}
#	}
#	immediate = {
#		every_target_province = {
#			add_claim = ROOT
#		}
#	}
#	abort_effect = {
#		every_target_province = {
#			remove_claim = ROOT
#		}
#	}
#	effect = {
#		add_army_tradition = 15
#		add_war_exhaustion = -4
#		every_target_province = {
#			add_territorial_core_effect = yes
#		}
#	}
#}
#
#conquest_of_huanca = {
#	
#	type = country
#	
#	category = MIL
#	ai_mission = yes
#	
#	target_provinces = {
#		owned_by = HUA
#	}
#	allow = {
#		is_free_or_tributary_trigger = yes
#		is_at_war = no
#		is_neighbor_of = HUA
#		HUA = { religion_group = new_world_pagan }
#	}
#	abort = {
#		NOT = { exists = HUA }
#	}
#	success = {
#		NOT = { exists = HUA }
#		all_target_province = {
#			owned_by = ROOT
#		}
#	}
#	chance = {
#		factor = 1000
#		modifier = {
#			factor = 2
#			mil = 4
#		}
#		modifier = {
#			factor = 2
#			mil = 6
#		}
#		modifier = {
#			factor = 2
#			adm = 4
#		}
#	}
#	immediate = {
#		every_target_province = {
#			add_claim = ROOT
#		}
#	}
#	abort_effect = {
#		every_target_province = {
#			remove_claim = ROOT
#		}
#	}
#	effect = {
#		add_army_tradition = 15
#		add_war_exhaustion = -4
#		every_target_province = {
#			add_territorial_core_effect = yes
#		}
#	}
#}
#
#conquest_of_inca = {
#	
#	type = country
#	
#	category = MIL
#	ai_mission = yes
#	
#	target_provinces = {
#		owned_by = INC
#	}
#	allow = {
#		is_free_or_tributary_trigger = yes
#		is_at_war = no
#		is_neighbor_of = INC
#		INC = { religion_group = new_world_pagan }
#	}
#	abort = {
#		NOT = { exists = INC }
#	}
#	success = {
#		NOT = { exists = INC }
#		all_target_province = {
#			owned_by = ROOT
#		}
#	}
#	chance = {
#		factor = 1000
#		modifier = {
#			factor = 2
#			mil = 4
#		}
#		modifier = {
#			factor = 2
#			mil = 6
#		}
#		modifier = {
#			factor = 2
#			adm = 4
#		}
#	}
#	immediate = {
#		every_target_province = {
#			add_claim = ROOT
#		}
#	}
#	abort_effect = {
#		every_target_province = {
#			remove_claim = ROOT
#		}
#	}
#	effect = {
#		add_army_tradition = 15
#		add_war_exhaustion = -4
#		every_target_province = {
#			add_territorial_core_effect = yes
#		}
#	}
#}
#
## keep this one for the natives module ...
## conquest_of_mapuche = {
#
## type = country
#
## category = MIL
#
## target_provinces = {
## owned_by = MAP
## }
## allow = {
## is_free_or_tributary_trigger = yes
## is_at_war = no
## is_neighbor_of = MAP
## MAP = { religion_group = new_world_pagan }
## }
## abort = {
## NOT = { exists = MAP }
## }
## success = {
## NOT = { exists = MAP }
## all_target_province = {
## owned_by = ROOT
## }
## }
## chance = {
## factor = 1000
## modifier = {
## factor = 2
## mil = 4
## }
## modifier = {
## factor = 2
## mil = 6
## }
## modifier = {
## factor = 2
## adm = 4
## }
## }
## immediate = {
## every_target_province = {
## add_claim = ROOT
## }
## }
## abort_effect = {
## every_target_province = {
## remove_claim = ROOT
## }
## }
## effect = {
## add_army_tradition = 15
## add_war_exhaustion = -4
## every_target_province = {
## add_territorial_core_effect = yes
## }
## }
## }
#
#conquest_of_nazca = {
#	
#	type = country
#	
#	category = MIL
#	ai_mission = yes
#	
#	target_provinces = {
#		owned_by = NZC
#	}
#	allow = {
#		is_free_or_tributary_trigger = yes
#		is_at_war = no
#		is_neighbor_of = NZC
#		NZC = { religion_group = new_world_pagan }
#	}
#	abort = {
#		NOT = { exists = NZC }
#	}
#	success = {
#		NOT = { exists = NZC }
#		all_target_province = {
#			owned_by = ROOT
#		}
#	}
#	chance = {
#		factor = 1000
#		modifier = {
#			factor = 2
#			mil = 4
#		}
#		modifier = {
#			factor = 2
#			mil = 6
#		}
#		modifier = {
#			factor = 2
#			adm = 4
#		}
#	}
#	immediate = {
#		every_target_province = {
#			add_claim = ROOT
#		}
#	}
#	abort_effect = {
#		every_target_province = {
#			remove_claim = ROOT
#		}
#	}
#	effect = {
#		add_army_tradition = 15
#		add_war_exhaustion = -4
#		every_target_province = {
#			add_territorial_core_effect = yes
#		}
#	}
#}
#
#conquest_of_quito = {
#	
#	type = country
#	
#	category = MIL
#	ai_mission = yes
#	
#	target_provinces = {
#		owned_by = QUI
#	}
#	allow = {
#		is_free_or_tributary_trigger = yes
#		is_at_war = no
#		is_neighbor_of = QUI
#		QUI = { religion_group = new_world_pagan }
#	}
#	abort = {
#		NOT = { exists = QUI }
#	}
#	success = {
#		NOT = { exists = QUI }
#		all_target_province = {
#			owned_by = ROOT
#		}
#	}
#	chance = {
#		factor = 1000
#		modifier = {
#			factor = 2
#			mil = 4
#		}
#		modifier = {
#			factor = 2
#			mil = 6
#		}
#		modifier = {
#			factor = 2
#			adm = 4
#		}
#	}
#	immediate = {
#		every_target_province = {
#			add_claim = ROOT
#		}
#	}
#	abort_effect = {
#		every_target_province = {
#			remove_claim = ROOT
#		}
#	}
#	effect = {
#		add_army_tradition = 15
#		add_war_exhaustion = -4
#		every_target_province = {
#			add_territorial_core_effect = yes
#		}
#	}
#}
#