########################################
#                                      #
#      Dakani_Culture.txt      #
#                                      #
########################################
#
# Cleanup for Dakani Sultanates who, for whatever reason, lose the Dakani as primary OR get a high enough tech level to remove the block
#
########################################

country_decisions = {
	
	dakani_no_more = { #allows Dakani states to convert provinces to their new primary culture, since there's a block in the conversion file
		potential = {
			has_country_flag = dakani_setup
			has_country_flag = dakani_state
			NOT = { primary_culture = dakani }
		}
		allow = {
			is_at_war = no
		}
		effect = {
			clr_country_flag = dakani_state
		}
		ai_will_do = {
			factor = 1
		}
		ai_importance = 0
	}
	
	dakani_culture_allow = { #allows Dakani states to convert provinces to their primary culture, since there's a block in the conversion file
		potential = {
			has_country_flag = dakani_setup
			has_country_flag = dakani_state
			primary_culture = dakani
			adm_tech = 40
		}
		allow = {
			is_at_war = no
			is_free_or_tributary_trigger = yes
			adm_power = 50
			OR = {
				NOT = {
					technology_group = indian
				}
				ADM = 6
				statesman = 3
			}
		}
		effect = {
			clr_country_flag = dakani_state
			set_country_flag = new_dakani_state
			add_prestige = 5
			add_adm_power = -50
			capital_scope = {
				change_culture = dakani
			}
		}
		ai_will_do = {
			factor = 1
		}
		ai_importance = 0
	}
	
	urdu_no_more = { #allows Urdu states to convert provinces to their new primary culture, since there's a block in the conversion file
		potential = {
			has_country_flag = urdu_state
			NOT = { primary_culture = urdu }
		}
		allow = {
			is_at_war = no
		}
		effect = {
			clr_country_flag = urdu_state
		}
		ai_will_do = {
			factor = 1
		}
		ai_importance = 0
	}
	
	urdu_culture_allow = { #allows Urdu states to convert provinces to their primary culture, since there's a block in the conversion file
		potential = {
			has_country_flag = urdu_state
			primary_culture = urdu
			adm_tech = 40
		}
		allow = {
			is_at_war = no
			is_free_or_tributary_trigger = yes
			adm_power = 50
			OR = {
				NOT = {
					technology_group = muslim
					technology_group = indian
					technology_group = steppestech
				}
				ADM = 6
				statesman = 3
			}
		}
		effect = {
			clr_country_flag = urdu_state
			set_country_flag = new_urdu_state
			add_prestige = 5
			add_adm_power = -50
			capital_scope = {
				change_culture = urdu
			}
		}
		ai_will_do = {
			factor = 1
		}
		ai_importance = 0
	}
}

