##############################################
# Disgruntled nobles.
##############################################
noble_rebels = {
	
	color = { 179 75 75 }
	
	area = nation					# Stays within the nation
	government = monarchy			# Likes monarchy
	defection = none				# Does not defect
	independence = none				# Does not strive for independence
	unit_transfer = yes
	gfx_type = culture_owner
	will_relocate = yes
	
	resilient = yes
	reinforcing = yes
	general = yes
	smart = yes
	
	artillery = 0.0
	infantry = 0.6
	cavalry = 0.4
	
	morale = 0.9
	
	# Possible handle actions
	handle_action_negotiate = yes
	handle_action_stability = yes
	handle_action_build_core = no
	handle_action_send_missionary = yes
	
	# The rebel type with the highest modifier for this province gets picked
	spawn_chance = {
		factor = 1
		modifier = {
			factor = 0.01
			is_overseas = yes
		}
		modifier = {
			factor = 0.0
			owner = {
				NOT = { government = monarchy }
			}
		}
		modifier = {
			factor = 0.0
			owner = {
				is_colonial_nation = yes
			}
		}
		modifier = {
			factor = 0.0
			owner = {
				government = republic
				republican_tradition = 80
			}
		}
		modifier = {
			factor = 0.5
			owner = {
				aristocracy_ideas = 4
			}
		}
		modifier = {
			factor = 0.5
			owner = {
				aristocracy_ideas = 6
			}
		}
		modifier = {
			factor = 1.8
			owner = {
				plutocracy_ideas = 3
			}
		}
		modifier = {
			factor = 1.5
			owner = {
				economic_ideas = 4
			}
		}
		modifier = {
			factor = 1.8
			owner = {
				plutocracy_ideas = 5
			}
		}
		modifier = {
			factor = 1.5
			owner = {
				plutocracy_ideas = 3
			}
		}
		modifier = {
			factor = 1.5
			owner = {
				plutocracy_ideas = 5
			}
		}
		modifier = {
			factor = 3.0
			owner = {
				has_country_modifier = pol_zebrzydowski_rebellion_flag
			}
		}
		modifier = {
			factor = 2.5
			owner = {
				government = republic
				NOT = { republican_tradition = 33 }
			}
		}
		modifier = {
			factor = 2.5
			owner = {
				government = republic
				NOT = { republican_tradition = 66 }
			}
		}
		modifier = {
			has_province_modifier = nobles_organizing
			factor = 3
		}
	}
	
	#This is checked for EACH province in the Area of Operations
	movement_evaluation = {
		factor = 1
		modifier = {
			factor = 0.1
			units_in_province = 1
		}
		modifier = {
			factor = 0.001
			controlled_by = REB
		}
		modifier = {
			factor = 1.5
			unrest = 2
		}
		modifier = {
			factor = 1.5
			unrest = 4
		}
		modifier = {
			factor = 1.5
			unrest = 6
		}
	}
	
	# Province Scope
	siege_won_trigger = {
		NOT = { local_autonomy = 50 }
	}
	siege_won_effect = {
		add_local_autonomy = 10
	}
	
	# Country scope
	can_negotiate_trigger = {
		always = yes
	}
	
	# Country scope
	can_enforce_trigger = {
		always = yes
	}
	
	# Localisation for their demands
	demands_description = "noble_rebels_demand"
	
	# Country Scope
	demands_enforced_effect = {
		set_variable = { which = greater_nobles_loyalty_added_a		value = 10 }
		set_variable = { which = greater_nobles_loyalty_added		value = 0 }
		set_variable = { which = greater_nobles_loyalty_added		which = greater_nobles_loyalty_added_a }
		estate_greater_nobles_loyalty_added = yes
		subtract_stability_1 = yes
	}
}
