####################################
# Separatist rebels. They want to leave, and they don't care how.
####################################
a_separatist_rebels = {
	
	color = { 25 180 25 }
	area = nation			 		# Stays within provinces of their culture
	government = any				# No special preference
	defection = any					# If the country seeks independence, defection specifies what type of provinces it wants.
	independence = any				# Seeks independence via any method possible.
	defect_delay = 60				# Can spontaneously declare independence after 60 months (earliest)
	gfx_type = culture_province
	
	resilient = yes
	reinforcing = yes
	general = yes
	smart = yes
	unit_transfer = yes				# Units switch allegiance after enforcing demands.
	will_relocate = yes				# Units will relocate if they have sieged all provinces nearby and has to move over sea.
	
	artillery = 0.1
	infantry = 0.6
	cavalry = 0.3
	morale = 0.9
	
	# Possible handle actions
	handle_action_negotiate = yes
	handle_action_stability = yes
	handle_action_build_core = no
	handle_action_send_missionary = yes
	handle_action_change_culture = yes
	
	# The rebel type with the highest modifier for this province gets picked
	spawn_chance = {
		factor = 4
		modifier = {
			factor = 0.001
			is_colony = yes
		}
		modifier = {
			factor = 2.0
			is_overseas = yes
		}
		modifier = {
			factor = 0.6
			is_core = owner
		}
		modifier = {
			factor = 0.8
			owner = {
				stability = 1
			}
		}
		modifier = {
			factor = 0.8
			owner = {
				stability = 3
			}
		}
		modifier = {
			factor = 1.2
			owner = {
				government_rank = 2
			}
		}
		modifier = {
			factor = 1.2
			owner = {
				government_rank = 3
			}
		}
		modifier = {
			factor = 1.2
			owner = {
				government_rank = 4
			}
		}
		modifier = {
			factor = 1.3
			owner = {
				government_rank = 5
			}
		}
		modifier = {
			factor = 1.5
			owner = {
				government_rank = 6
			}
		}
		modifier = {
			factor = 2
			nationalism = 10
		}
		modifier = {
			factor = 2
			nationalism = 5
		}
		modifier = {
			factor = 1.5
			nationalism = 1
		}
		modifier = {
			factor = 6
			owner = { is_bankrupt = yes }
		}
		modifier = {
			factor = 2
			owner = {
				NOT = { primary_culture = ROOT }
			}
		}
		modifier = {
			factor = 3
			owner = {
				NOT = { culture_group = ROOT }
			}
		}
		modifier = {
			factor = 0.4
			has_owner_accepted_culture = yes
		}
		modifier = {
			factor = 2
			NOT = { tolerance_to_this = 1 }
		}
		modifier = {
			factor = 2
			NOT = { tolerance_to_this = -1 }
		}
		modifier = {
			factor = 2
			NOT = { tolerance_to_this = -2 }
		}
		modifier = {
			has_province_modifier = nationalists_organizing
			factor = 3
		}
	}
	
	# This is checked for EACH province in the Area of Operations
	movement_evaluation = {
		factor = 1
		modifier = {
			factor = 0.1
			units_in_province = 1
		}
		modifier = {
			factor = 0.001
			controlled_by = REB
		}
		modifier = {
			factor = 1.5
			unrest = 2
		}
		modifier = {
			factor = 1.5
			unrest = 4
		}
		modifier = {
			factor = 1.5
			unrest = 6
		}
	}
	
	# Province Scope
	siege_won_trigger = {
		NOT = { unrest = 10 }
	}
	siege_won_effect = {
		add_unrest = 3
	}
	
	# Country scope
	can_negotiate_trigger = {
		always = yes
	}
	
	# Country scope
	can_enforce_trigger = {
		always = yes
	}
	
	# Localisation for their demands
	demands_description = "a_separatist_rebels_demand"
	
	# Country scope
	demands_enforced_effect = {
		add_prestige = -20
		if = {
			limit = {
				exists = REB
			}
			every_owned_province = {
				limit = {
					controlled_by = REB
					unrest = 10
					OR = {
						has_port = yes
						NOT = { any_neighbor_province = { owned_by = ROOT } }
						owner = { NOT = { num_of_rebel_controlled_provinces = 2 } }
						any_neighbor_province = { controlled_by = REB }
					}
				}
				add_core = REB
				cede_province = REB
			}
		}
		if = {
			limit = {
				NOT = { exists = REB }
			}
			every_owned_province = {
				limit = {
					controlled_by = REB
					unrest = 10
					OR = {
						has_port = yes
						NOT = { any_neighbor_province = { owned_by = ROOT } }
						owner = { NOT = { num_of_rebel_controlled_provinces = 2 } }
						any_neighbor_province = { controlled_by = REB }
					}
				}
				add_core = REB
			}
			create_vassal = REB
		}
	}
}