# KLD - Khalid

government = tribal_nomads_hereditary government_rank = 1
mercantilism = 0.0
technology_group = muslim
primary_culture = najdi
religion = sunni
capital = 393

1000.1.1 = {
	add_country_modifier = { name = title_2 duration = -1 }
	set_country_flag = title_2
	#set_variable = { which = "centralization_decentralization" value = 3 }
	add_absolutism = -100
	add_absolutism = 20
}

1354.1.1 = {
	monarch = {
		name = "Omar"
		dynasty = "Al Afr'as"
		DIP = 3
		ADM = 3
		MIL = 3
	}
}

# 1744 - into Najd
