# MUZ - Muzaffarids (Fars)

government = despotic_monarchy government_rank = 1 #SHAHDOM
mercantilism = 0.0
technology_group = muslim
primary_culture = persian
religion = sunni
capital = 435
historical_rival = JAI
historical_rival = CHU

1000.1.1 = {
	add_country_modifier = { name = title_5 duration = -1 }
	set_country_flag = title_5
	#set_variable = { which = "centralization_decentralization" value = 5 }
	add_absolutism = -100
	add_absolutism = 0
}

1314.1.1   = {
	monarch = {
		name = "Mubariz ad-Din Muhammad"
		dynasty = "Muzaffarid"
		ADM = 4
		DIP = 3
		MIL = 4
	}
	define_ruler_to_general  = {
		fire = 3
		shock = 3
		manuever = 2
		siege = 0
	}
	add_ruler_modifier = { name = "cruel" }
	add_country_modifier = { name = obstacle_feuding duration = -1 }
}

1340.1.1   = {
	heir = {
		name = "Abu'l Fawaris Djamal"
		monarch_name = "Abu'l Fawaris Djamal ad-Din Shah Shuja"
		dynasty = "Muzaffarid"
		birth_date = 1340.1.1
		death_date = 1358.1.1
		claim = 95
		ADM = 3
		DIP = 3
		MIL = 4
	}
}
1356.11.1 = {
	capital = 429
}

1358.1.1   = {
	monarch = {
		name = "Abu'l Fawaris Djamal ad-Din Shah Shuja"
		dynasty = "Muzaffarid"
		ADM = 3
		DIP = 3
		MIL = 4
	}
	heir = {
		name = "Mujahid"
		monarch_name = "Mujahid ad-Din Zain Al-Abidin 'Ali"
		dynasty = "Muzaffarid"
		birth_date = 1340.1.1
		death_date = 1387.1.1
		claim = 80
		ADM = 2
		DIP = 3
		MIL = 2
	}
}

#TODO: all the crazy shit the Muzaffarids did to each other, splitting the place like crazy
1384.1.1   = {
	monarch = {
		name = "Mujahid ad-Din Zain Al-Abidin 'Ali"
		dynasty = "Muzaffarid"
		ADM = 2
		DIP = 3
		MIL = 2
	}
}

# 1387 - Fall to Tamerlane
