# QUM - Qumarkaj

government = tribal_monarchy government_rank = 1
mercantilism = 0.0
technology_group = mesoamerican
primary_culture = quichean
religion = mesoamerican_religion
capital = 840

# Rulers (Ajpop or Ahpop) of Q'umarkaj - Approximative dates

1000.1.1 = {
	add_country_modifier = { name = title_3 duration = -1 }
	set_country_flag = title_3
	#set_variable = { which = "centralization_decentralization" value = 5 }
	add_absolutism = -100
	add_absolutism = 0
}

1350.1.1 = {
	monarch = {
		name = "Konache"
		dynasty = "Nima Kiche"
		ADM = 5
		DIP = 3
		MIL = 5
	}
}

1375.1.1 = {
	monarch = {
		name = "Kotuja" # Strengthned the links with Kiche allies with dynastic alliances
		dynasty = "Nima Kiche"
		ADM = 4
		DIP = 6
		MIL = 4
	}
}

1400.1.1 = {
	monarch = {
		name = "Quqkumatz" # Greatest leader who expanded the kingdom by war
		dynasty = "Nima Kiche"
		ADM = 5
		DIP = 3
		MIL = 6
	}
}

1435.1.1 = {
	monarch = {
		name = "Kiqab" # Another warry leader who defeated the Mam and Koja Maya
		dynasty = "Nima Kiche"
		ADM = 3
		DIP = 2
		MIL = 6
	}
}

# decline due to revolts starts under Kiqab and continues under the following rules

1475.1.1 = {
	monarch = {
		name = "Vahxak i-Kaam"
		dynasty = "Nima Kiche"
		ADM = 2
		DIP = 2
		MIL = 4
	}
}

1500.1.1 = {
	monarch = {
		name = "Oxib Keh"
		dynasty = "Nima Kiche"
		ADM = 3
		DIP = 2
		MIL = 3
	}
}

# 1524 - Conquest by Spanish conquistador Pedro de Alvarado
